Name,WeightClassKg,Age,Country,State,Equipment,Division,Best3SquatKg,Best3BenchKg,Best3DeadliftKg,TotalKg,Place,Event,Sex
Damiyah Smith,34.02,10,,OK,Raw,9-10,58.97,29.48,74.84,163.29,1,SBD,F
Denise Herrera,48,42,,OH,Raw,O,97.52,61.23,115.67,274.42,1,SBD,F
Denise Herrera,48,42,,OH,Raw,40-44,97.52,61.23,115.67,274.42,1,SBD,F
Jaime Orola,52,36,,NJ,Raw,O,81.65,47.63,106.59,235.87,2,SBD,F
Alexandra Cacioppo,60,28,,NJ,Wraps,O,124.74,68.04,142.88,335.66,1,SBD,F
Caitlin Harrier,60,15,,MO,Raw,15-16,81.65,54.43,115.67,251.74,1,SBD,F
Chelsea Nkwodimmah,67.5,26,,NJ,Raw,O,145.15,70.31,170.1,385.55,1,SBD,F
Lauren Castiglia,67.5,32,,NJ,Raw,O,92.99,61.23,111.13,265.35,2,SBD,F
Kathi Sottosanti,67.5,52,,NJ,Raw,50-54,99.79,54.43,142.88,297.1,1,SBD,F
Jackie Thompson,75,26,,NJ,Raw,O,133.81,70.31,158.76,362.87,1,SBD,F
Lisa Perry,75,,,NJ,Raw,45-49,88.45,61.23,120.2,269.89,1,SBD,F
Lisa Burke,82.5,44,,NJ,Wraps,40-44,140.61,79.38,170.1,390.09,1,SBD,F
Dyan Zbikowski,82.5,37,,NJ,Raw,SM,129.27,65.77,163.29,358.34,1,SBD,F
Dyan Zbikowski,82.5,37,,NJ,Raw,O,129.27,65.77,163.29,358.34,1,SBD,F
Jaclyn Leone,82.5+,32,,NJ,Raw,O,140.61,68.04,151.95,360.61,1,SBD,F
Yaly Anziani,82.5+,35,,NJ,Raw,SM,97.52,56.7,120.2,274.42,1,SBD,F
Anne Donovan,60,34,,NY,Raw,O,,34.02,,34.02,1,B,F
Anne Donovan,60,34,,NY,Raw,O,,,102.06,102.06,1,D,F
Caitlin Harrier,60,15,,MO,Raw,15-16,,54.43,,54.43,1,B,F
Caitlin Harrier,60,15,,MO,Raw,15-16,,,115.67,115.67,1,D,F
Angelica Berti,67.5,,Brazil,,Raw,O,,54.43,,54.43,1,B,F
Kelly Rolon,75,45,,NY,Raw,45-49,,40.82,,40.82,1,B,F
Mikala Henry,75,17,,PA,Raw,17-19,,,161.03,161.03,1,D,F
Nolan Harrier,56,13,,MO,Raw,13-14,81.65,43.09,92.99,217.72,1,SBD,M
Steve Soukup,56,55,,FL,Single-ply,O,147.42,83.91,147.42,378.75,1,SBD,M
Steve Soukup,56,55,,FL,Single-ply,55-59,147.42,83.91,147.42,378.75,1,SBD,M
Romeo Tendencia Jr,67.5,42,,NJ,Wraps,40-44,233.6,122.47,238.14,594.21,1,SBD,M
Romeo Tendencia Jr,67.5,42,,NJ,Wraps,O,233.6,122.47,238.14,594.21,1,SBD,M
Bryan Newman,67.5,17,,NJ,Raw,17-19,136.08,81.65,147.42,365.14,2,SBD,M
Ernesto Roldan,67.5,42,,NJ,Raw,40-44,163.29,88.45,185.97,437.72,1,SBD,M
Evan Pittman,67.5,18,,AZ,Raw,17-19,179.17,106.59,219.99,505.76,1,SBD,M
Evan Pittman,67.5,18,,AZ,Raw,O,179.17,106.59,219.99,505.76,1,SBD,M
Phil DiFrancisco,67.5,55,,NY,Single-ply,55-59,188.24,113.4,61.23,362.87,1,SBD,M
Mesiyah Polycarpe,67.5,20,,PA,Raw,JR,215.46,129.27,226.8,571.53,1,SBD,M
Michiah Lenzi,67.5,9,,PA,Raw,9-10,58.97,31.75,70.31,161.03,1,SBD,M
Brian Altamirano,75,24,,NY,Wraps,P/F/M,176.9,115.67,229.06,521.63,1,SBD,M
Tom Conway,75,69,,PA,Single-ply,65-69,138.35,74.84,197.31,410.5,1,SBD,M
Daelon Williams,75,17,,PA,Raw,17-19,133.81,127.01,192.78,453.59,2,SBD,M
Matt Hanlon,75,31,,NY,Raw,O,161.03,117.93,240.4,519.36,1,SBD,M
Anthony Marino,75,19,,,Raw,17-19,192.78,111.13,183.7,487.61,1,SBD,M
Wayne Cook,75,20,,NY,Wraps,JR,167.83,95.25,190.51,453.59,1,SBD,M
Anthony Critelli,75,50,,NY,Raw,50-54,86.18,97.52,138.35,322.05,1,SBD,M
Joey Lipscomb,75,19,,PA,Raw,17-19,170.1,129.27,231.33,530.7,1,SBD,M
Jerry Dickerson,82.5,76,,PA,Raw,75-79,136.08,106.59,154.22,396.89,1,SBD,M
Jerry Dickerson,82.5,76,,PA,Wraps,75-79,136.08,106.59,154.22,396.89,1,SBD,M
Daryl Duncan,82.5,36,,NJ,Wraps,O,201.85,185.97,256.28,644.1,1,SBD,M
Daryl Duncan,82.5,36,,NJ,Wraps,SM,201.85,185.97,256.28,644.1,1,SBD,M
Daryl Duncan,82.5,36,,NJ,Wraps,P/F/M,201.85,185.97,256.28,644.1,1,SBD,M
Noah Gomez,82.5,21,,NJ,Wraps,JR,226.8,165.56,256.28,648.64,1,SBD,M
Lee Lyons,82.5,32,,VA,Raw,P/F/M,161.03,129.27,210.92,501.22,1,SBD,M
Michael Petschnik,90,24,,NJ,Raw,O,201.85,129.27,210.92,542.04,1,SBD,M
Vince Wood,90,50,,NJ,Raw,O,188.24,115.67,206.38,510.29,2,SBD,M
Vince Wood,90,50,,NJ,Raw,50-54,188.24,115.67,206.38,510.29,1,SBD,M
Emery Longan,90,22,,,Raw,JR,206.38,131.54,247.21,585.13,1,SBD,M
Pete Catina,90,56,,PA,Wraps,55-59,181.44,102.06,158.76,442.25,1,SBD,M
Dan Mandell Jr,90,54,,NY,Wraps,50-54,174.63,97.52,204.12,476.27,1,SBD,M
Vince Durocher,90,37,Canada,,Raw,SM,188.24,129.27,217.72,535.24,1,SBD,M
Joe Martorina,100,47,,NJ,Raw,45-49,199.58,151.95,206.38,557.92,1,SBD,M
Tom Crego Jr,100,51,,NY,Raw,50-54,204.12,154.22,215.46,573.79,1,SBD,M
Jim Waldron,100,42,,NJ,Raw,40-44,235.87,188.24,229.06,653.17,1,SBD,M
Eddie Washington,100,37,,,Raw,SO,106.59,133.81,136.08,376.48,1,SBD,M
David Lhota,100,62,,PA,Raw,60-64,181.44,133.81,197.31,512.56,1,SBD,M
Bob Hanington,100,42,Chile,,Wraps,40-44,192.78,111.13,204.12,508.02,1,SBD,M
D'Andre Gillis,100,24,,NJ,Wraps,O,226.8,165.56,219.99,612.35,1,SBD,M
Garmez Parks,110,51,,OK,Raw,50-54,238.14,163.29,249.48,650.91,1,SBD,M
Rob Landolina,110,43,,NJ,Raw,O,251.74,154.22,294.84,700.8,1,SBD,M
Eric Spisak,110,26,,NJ,Raw,O,238.14,142.88,235.87,616.89,2,SBD,M
Dan Caffrey,110,51,,NJ,Raw,O,181.44,124.74,185.97,492.15,3,SBD,M
James Maguire,110,61,,NJ,Raw,60-64,127.01,102.06,163.29,392.36,1,SBD,M
Rob Landolina,110,43,,NJ,Raw,40-44,251.74,154.22,294.84,700.8,1,SBD,M
Rob Landolina,110,43,,NJ,Raw,P/F/M,251.74,154.22,294.84,700.8,1,SBD,M
Jordan Young,110,23,,PA,Raw,JR,249.48,158.76,278.96,687.19,1,SBD,M
Tom Harrier,125,60,,MO,Single-ply,60-64,142.88,179.17,124.74,446.79,1,SBD,M
Washington Silva,125,,Brazil,,Single-ply,O,299.37,231.33,269.89,800.59,1,SBD,M
Thomas Baldwin,125,35,,NJ,Raw,SM,206.38,131.54,263.08,601.01,1,SBD,M
Barry Bostick,125,29,,NJ,Raw,O,285.76,192.78,324.32,802.86,1,SBD,M
Mike Lenzi,125,36,,PA,Single-ply,SM,174.63,120.2,192.78,487.61,1,SBD,M
George Anderson,140,39,,NJ,Wraps,O,306.17,124.74,294.84,725.75,1,SBD,M
Lamar Boyd,140,35,,NJ,Raw,SM,265.35,158.76,256.28,680.39,1,SBD,M
Lamar Boyd,140,35,,NJ,Raw,P/F/M,265.35,158.76,256.28,680.39,1,SBD,M
Brian Bonder,140+,48,,NJ,Wraps,45-49,226.8,138.35,197.31,562.45,1,SBD,M
John Jackson,140+,44,,PA,Raw,40-44,240.4,210.92,265.35,716.68,1,SBD,M
Tiny Richardson,140+,34,,NJ,Wraps,O,240.4,210.92,274.42,725.75,1,SBD,M
Tiny Richardson,140+,34,,NJ,Wraps,P/F/M,240.4,210.92,274.42,725.75,1,SBD,M
Colin McDonald,67.5,18,,MD,Raw,17-19,,113.4,,113.4,1,B,M
Momodu Sankoh,75,27,,NJ,Raw,O,,145.15,,145.15,1,B,M
Bob Legg,75,64,,PA,Raw,60-64,,90.72,,90.72,1,B,M
Anthony Marino,75,19,,,Raw,17-19,,111.13,,111.13,1,B,M
Ron Erhardt,90,57,,NJ,Raw,55-59,,170.1,,170.1,1,B,M
Kevin Jackson,90,45,,NJ,Raw,45-49,,124.74,,124.74,1,B,M
Emery Longan,90,22,,,Raw,JR,,131.54,,131.54,1,B,M
Flávio Danna,90,,Brazil,,Raw,O,,136.08,,136.08,1,B,M
Joe Martorina,100,47,,NJ,Raw,45-49,,151.95,,151.95,2,B,M
Jeff Hicks,100,59,,PA,Raw,O,,129.27,,129.27,1,B,M
Jeff Hicks,100,59,,PA,Raw,55-59,,129.27,,129.27,1,B,M
Duane Drisdom,100,51,,FL,Raw,50-54,,172.37,,172.37,1,B,M
Miller Seabrooks,100,72,,NY,Single-ply,70-74,,122.47,,122.47,1,B,M
Soso Tvauri,100,45,Georgia,,Raw,45-49,,158.76,,158.76,1,B,M
Dan Caffrey,110,51,,NJ,Raw,O,,124.74,,124.74,4,B,M
William Mancuso,110,28,,NJ,Raw,O,,161.03,,161.03,2,B,M
Carl Calhoun,110,67,,OH,Raw,65-69,,133.81,,133.81,1,B,M
Ivan Dal Corno,110,36,Brazil,,Raw,O,,149.69,,149.69,3,B,M
Alex Hernandez,110,55,,CT,Raw,55-59,,133.81,,133.81,1,B,M
Wesley Fichter,110,32,,PA,Raw,O,,172.37,,172.37,1,B,M
Tom Harrier,125,60,,MO,Single-ply,60-64,,179.17,,179.17,1,B,M
Tom Harrier,125,60,,MO,Single-ply,P/F/M,,179.17,,179.17,1,B,M
Jacob Bigelow,125,41,,NY,Raw,40-44,,136.08,,136.08,1,B,M
Washington Silva,125,,Brazil,,Single-ply,O,,231.33,,231.33,1,B,M
Adrian Ocampo,125,,Brazil,,Raw,O,,190.51,,190.51,1,B,M
Dennis Rolon,125,51,,NY,Single-ply,50-54,,181.44,,181.44,1,B,M
Khvicha Mamedov,125,41,Georgia,,Raw,40-44,,149.69,,149.69,1,B,M
Al Salvini,140,48,,PA,Raw,45-49,,,,,DQ,B,M
Jauon Mejias,140+,17,,NY,Raw,17-19,,185.97,,185.97,1,B,M
Pedro Mejias,140+,37,,NY,Raw,O,,263.08,,263.08,1,B,M
Nolan Harrier,56,13,,MO,Raw,13-14,,,92.99,92.99,1,D,M
Towsif Nasor,60,19,,NJ,Raw,17-19,,,158.76,158.76,1,D,M
Michiah Lenzi,67.5,9,,PA,Raw,9-10,,,70.31,70.31,1,D,M
Steve Freides,67.5,61,,NJ,Raw,60-64,,,158.76,158.76,1,D,M
Evan Pittman,67.5,18,,AZ,Raw,O,,,219.99,219.99,1,D,M
Evan Pittman,67.5,18,,AZ,Raw,17-19,,,219.99,219.99,1,D,M
Momodu Sankoh,75,27,,NJ,Raw,O,,,244.94,244.94,1,D,M
Matt Hanlon,75,31,,NY,Raw,O,,,240.4,240.4,2,D,M
Tom Conway,75,69,,PA,Single-ply,60-69,,,197.31,197.31,1,D,M
Bob Legg,75,64,,PA,Raw,60-64,,,138.35,138.35,1,D,M
Abner Nazario,82.5,23,,NJ,Raw,O,,,308.44,308.44,1,D,M
Abner Nazario,82.5,23,,NJ,Raw,JR,,,308.44,308.44,1,D,M
Alex Green,82.5,20,,NY,Raw,JR,,,195.04,195.04,2,D,M
Kevin Jackson,90,45,,NJ,Raw,45-49,,,195.04,195.04,1,D,M
Emery Longan,90,22,,,Raw,JR,,,247.21,247.21,1,D,M
Ray Lopez,90,57,,CT,Raw,55-59,,,260.82,260.82,1,D,M
Joe Martorina,100,47,,NJ,Raw,45-49,,,206.38,206.38,2,D,M
Miller Seabrooks,100,72,,NY,Single-ply,70-74,,,124.74,124.74,1,D,M
Bob Derisi Jr,100,49,,PA,Raw,45-49,,,238.14,238.14,1,D,M
Mike Krasowski,100,58,,OH,Raw,55-59,,,254.01,254.01,1,D,M
Eugene Nash,100,62,,AL,Raw,60-64,,,176.9,176.9,1,D,M
Alex Hernandez,110,55,,CT,Raw,55-59,,,215.46,215.46,1,D,M
Jerry Moynihan,110,56,,NY,Raw,55-59,,,204.12,204.12,2,D,M
Evandro Casagrande,110,,Brazil,,Single-ply,O,,,317.51,317.51,1,D,M
Evandro Casagrande,110,,Brazil,,Single-ply,40-44,,,317.51,317.51,1,D,M
Dan Caffrey,110,51,,NJ,Raw,O,,,185.97,185.97,1,D,M
Carl Calhoun,110,67,,OH,Raw,65-69,,,165.56,165.56,1,D,M
Dennis Rolon,125,51,,NY,Raw,50-54,,,258.55,258.55,1,D,M
David Cooper #3,125,46,,MD,Raw,45-49,,,331.12,331.12,1,D,M
Robert T David,140+,47,,,Raw,45-49,,,299.37,299.37,1,D,M
Jauon Mejias,140+,17,,NY,Raw,17-19,,,249.48,249.48,1,D,M
Bryce Maynard,75,12,,OH,Raw,11-12,,47.63,79.38,127.01,1,BD,M
Vincent Pachuta,82.5,,,NJ,Raw,O,,161.03,265.35,426.38,1,BD,M
Michael Yogg,90,28,,NJ,Raw,O,,120.2,215.46,335.66,1,BD,M
Dominic Salvini,110,12,,PA,Raw,11-12,,52.16,108.86,161.03,1,BD,M
Dennis Rolon,125,51,,NY,Single-ply,50-54,,181.44,258.55,439.98,1,BD,M
Josh Bush #1,125,36,,VA,Raw,O,,192.78,319.78,512.56,1,BD,M
Robert T David,140+,47,,,Raw,45-49,,204.12,299.37,503.49,1,BD,M
