Division,WeightClassKg,Place,Name,Team,BodyweightKg,Best3SquatKg,Best3BenchKg,Best3DeadliftKg,TotalKg,Equipment,Event,Sex
Boys,51.71,1,Joey Longoria,Pearsall,50.48,140.61,79.38,154.22,374.21,Single-ply,SBD,M
Boys,51.71,2,Marc Jaquez,Uvalde,50.17,142.88,63.5,151.95,358.34,Single-ply,SBD,M
Boys,51.71,3,Samuel Arias,Laredo United,50.62,102.06,56.7,113.4,272.16,Single-ply,SBD,M
Boys,51.71,4,Ricardo Martinez #3,Pearsall,47.17,92.99,45.36,99.79,238.14,Single-ply,SBD,M
Boys,51.71,5,Alexis Alfaro,San Antonio Southwest Legacy,44.86,52.16,29.48,74.84,156.49,Single-ply,SBD,M
Boys,55.79,1,Cristian Martinez,Hondo,54.3,142.88,72.57,136.08,351.53,Single-ply,SBD,M
Boys,55.79,2,Brian Lazo,Crystal City,51.85,124.74,74.84,136.08,335.66,Single-ply,SBD,M
Boys,55.79,3,Gerardo Acevedo,Laredo Johnson,54.48,129.27,70.31,131.54,331.12,Single-ply,SBD,M
Boys,55.79,4,Leo Rodriguez,Laredo United,55.02,124.74,63.5,138.35,326.59,Single-ply,SBD,M
Boys,55.79,5,Orlando Mata,Crystal City,53.57,108.86,58.97,133.81,301.64,Single-ply,SBD,M
Boys,55.79,6,Virgil Luna,Crystal City,55.2,115.67,52.16,133.81,301.64,Single-ply,SBD,M
Boys,55.79,7,David Salinas,San Antonio Southwest Legacy,54.75,83.91,54.43,111.13,249.48,Single-ply,SBD,M
Boys,59.87,1,Fabian Bazan,Castroville Medina Valley,59.65,170.1,95.25,188.24,453.59,Single-ply,SBD,M
Boys,59.87,2,Bryan Lucio,Beeville Jones,58.47,158.76,92.99,192.78,444.52,Single-ply,SBD,M
Boys,59.87,3,Edward Castillo,Castroville Medina Valley,57.61,172.37,95.25,172.37,439.98,Single-ply,SBD,M
Boys,59.87,4,Joe Alvarez,Beeville Jones,58.97,154.22,97.52,181.44,433.18,Single-ply,SBD,M
Boys,59.87,5,Kaleb Zertuche,Devine,58.01,136.08,95.25,167.83,399.16,Single-ply,SBD,M
Boys,59.87,6,Ernesto Rangel,San Antonio Southwest Legacy,58.33,142.88,86.18,163.29,392.36,Single-ply,SBD,M
Boys,59.87,7,Zechariah Segovia,Beeville Jones,56.02,142.88,81.65,142.88,367.41,Single-ply,SBD,M
Boys,59.87,8,Christian Campos,Uvalde,56.02,136.08,77.11,154.22,367.41,Single-ply,SBD,M
Boys,59.87,9,Quen Syma,Lytle,57.06,124.74,70.31,147.42,342.46,Single-ply,SBD,M
Boys,59.87,10,EJ Chavez,Uvalde,56.84,92.99,56.7,117.93,267.62,Single-ply,SBD,M
Boys,59.87,DQ,Roland Aguilar,Laredo United,56.47,,,,,Single-ply,SBD,M
Boys,67.13,1,Kevin Valdez,Castroville Medina Valley,66.18,170.1,113.4,204.12,487.61,Single-ply,SBD,M
Boys,67.13,2,David Ortega,Lytle,65.45,156.49,95.25,208.65,460.4,Single-ply,SBD,M
Boys,67.13,3,Josh Valenzuela,Castroville Medina Valley,64.05,183.7,90.72,170.1,444.52,Single-ply,SBD,M
Boys,67.13,4,David Elizondo,Castroville Medina Valley,66.72,163.29,88.45,183.7,435.45,Single-ply,SBD,M
Boys,67.13,5,Julian Alvarado,Laredo United,62.78,170.1,88.45,165.56,424.11,Single-ply,SBD,M
Boys,67.13,6,Luis Mendez,Laredo United,64.91,142.88,79.38,176.9,399.16,Single-ply,SBD,M
Boys,67.13,7,Richard Munoz,Carrizo Springs,64.59,149.69,99.79,147.42,396.89,Single-ply,SBD,M
Boys,67.13,8,Gabriel Martinez,Pearsall,65.23,158.76,68.04,170.1,396.89,Single-ply,SBD,M
Boys,67.13,9,Abraham Davila,Uvalde,66,149.69,77.11,161.03,387.82,Single-ply,SBD,M
Boys,67.13,10,Daniel Almedia,Uvalde,66.81,113.4,81.65,190.51,385.55,Single-ply,SBD,M
Boys,67.13,11,Damion Legaspe,San Antonio Cole,63.73,151.95,83.91,145.15,381.02,Single-ply,SBD,M
Boys,67.13,12,Jaden Martinez,San Antonio Southwest Legacy,66.41,129.27,81.65,147.42,358.34,Single-ply,SBD,M
Boys,67.13,13,Rylan Wagner,Lytle,62.64,124.74,74.84,147.42,347,Single-ply,SBD,M
Boys,67.13,14,Dominic Reyes,Lytle,61.87,117.93,72.57,140.61,331.12,Single-ply,SBD,M
Boys,67.13,15,Emmanuel Rios,Castroville Medina Valley,66,129.27,83.91,111.13,324.32,Single-ply,SBD,M
Boys,67.13,16,Nathaniel Cerna,San Antonio Southwest Legacy,65,120.2,68.04,127.01,315.25,Single-ply,SBD,M
Boys,67.13,17,Jose Ureutta,Carrizo Springs,62.87,70.31,52.16,142.88,265.35,Single-ply,SBD,M
Boys,67.13,DQ,Joe Villanueva,Castroville Medina Valley,64.23,,,,,Single-ply,SBD,M
Boys,74.84,1,Steven Ramirez,Devine,72.57,267.62,151.95,249.48,669.05,Single-ply,SBD,M
Boys,74.84,2,Patrick Prieto,Beeville Jones,73.57,256.28,127.01,238.14,621.42,Single-ply,SBD,M
Boys,74.84,3,Garrett Ralph,Lytle,74.21,190.51,131.54,206.38,528.44,Single-ply,SBD,M
Boys,74.84,4,Marco Burkman-Flaig,San Antonio Cole,70.76,195.04,111.13,183.7,489.88,Single-ply,SBD,M
Boys,74.84,5,Eric Lara,Beeville Jones,69.94,188.24,106.59,192.78,487.61,Single-ply,SBD,M
Boys,74.84,6,Cesar Franco,Crystal City,74.57,183.7,92.99,199.58,476.27,Single-ply,SBD,M
Boys,74.84,7,Trey Hernandez,Beeville Jones,68.9,188.24,95.25,183.7,467.2,Single-ply,SBD,M
Boys,74.84,8,Garret Hoak,Castroville Medina Valley,72.44,174.63,111.13,179.17,464.93,Single-ply,SBD,M
Boys,74.84,9,Jimmy Garza,San Antonio Memorial,71.49,163.29,106.59,192.78,462.66,Single-ply,SBD,M
Boys,74.84,10,Nathjan Delgado,Crystal City,72.76,181.44,92.99,170.1,444.52,Single-ply,SBD,M
Boys,74.84,11,Juan Guzman,Crystal City,69.35,149.69,102.06,181.44,433.18,Single-ply,SBD,M
Boys,74.84,12,Eden Fuentes,Pearsall,73.3,163.29,77.11,185.97,426.38,Single-ply,SBD,M
Boys,74.84,13,Jesse Santos,Laredo United,72.53,156.49,88.45,163.29,408.23,Single-ply,SBD,M
Boys,74.84,14,Hunter Corliss,Castroville Medina Valley,71.21,133.81,86.18,154.22,374.21,Single-ply,SBD,M
Boys,74.84,15,William Alexander,Lytle,69.49,142.88,72.57,142.88,358.34,Single-ply,SBD,M
Boys,74.84,16,R-Tavius Gozales,San Antonio Southwest Legacy,70.67,120.2,74.84,142.88,337.93,Single-ply,SBD,M
Boys,74.84,17,Joey Trujillo,Carrizo Springs,70.31,113.4,74.84,142.88,331.12,Single-ply,SBD,M
Boys,74.84,DQ,Juan Gonzalez,Laredo Johnson,71.26,,,,,Single-ply,SBD,M
Boys,82.1,1,Lucas Byrd,Devine,79.11,258.55,140.61,254.01,653.17,Single-ply,SBD,M
Boys,82.1,2,Steban Mireles,Castroville Medina Valley,80.29,249.48,136.08,226.8,612.35,Single-ply,SBD,M
Boys,82.1,3,Eric Gonzalez,Carrizo Springs,78.38,226.8,131.54,206.38,564.72,Single-ply,SBD,M
Boys,82.1,4,Josiah Carrizales,Uvalde,78.43,176.9,113.4,204.12,494.42,Single-ply,SBD,M
Boys,82.1,5,Romeo Astudillo,Laredo United,75.57,181.44,102.06,190.51,474,Single-ply,SBD,M
Boys,82.1,6,Ricardo Perez,La Pryor,82.1,172.37,106.59,176.9,455.86,Single-ply,SBD,M
Boys,82.1,7,Ramon Zamarrippa,Laredo United,76.61,176.9,97.52,176.9,451.32,Single-ply,SBD,M
Boys,82.1,8,Jeremy Martinez,Castroville Medina Valley,80.88,154.22,111.13,174.63,439.98,Single-ply,SBD,M
Boys,82.1,9,Ray Leal,Pearsall,76.57,156.49,74.84,174.63,405.97,Single-ply,SBD,M
Boys,82.1,DQ,Ryan Rodriguez,Pearsall,76.43,183.7,90.72,,,Single-ply,SBD,M
Boys,82.1,DQ,Ismael Espinoza,Laredo Johnson,80.74,213.19,127.01,,,Single-ply,SBD,M
Boys,89.81,1,Josiah Marquez,Pearsall,84.87,215.46,104.33,192.78,512.56,Single-ply,SBD,M
Boys,89.81,2,Alex Luna,Crystal City,87.41,195.04,124.74,188.24,508.02,Single-ply,SBD,M
Boys,89.81,3,Daniel Sambrand,La Pryor,86.27,185.97,111.13,188.24,485.34,Single-ply,SBD,M
Boys,89.81,4,Brandon Brondo,Laredo United,89.58,174.63,106.59,183.7,464.93,Single-ply,SBD,M
Boys,89.81,5,Salomon Vasquez,San Antonio Southwest Legacy,85.55,165.56,99.79,183.7,449.06,Single-ply,SBD,M
Boys,89.81,6,Naythen Cardenas,San Antonio Southwest Legacy,85.59,156.49,117.93,174.63,449.06,Single-ply,SBD,M
Boys,89.81,7,David Macias,Laredo United,83.73,158.76,99.79,183.7,442.25,Single-ply,SBD,M
Boys,89.81,8,George Garza,Uvalde,89.63,158.76,77.11,170.1,405.97,Single-ply,SBD,M
Boys,89.81,9,Zachary Lawyer,Castroville Medina Valley,88.68,149.69,74.84,154.22,378.75,Single-ply,SBD,M
Boys,99.79,1,Mateo Garcia,San Antonio Memorial,97.66,292.57,127.01,265.35,684.92,Single-ply,SBD,M
Boys,99.79,2,Mario Mendoza,Carrizo Springs,94.98,240.4,170.1,231.33,641.83,Single-ply,SBD,M
Boys,99.79,3,Patrick Rhodes,San Antonio Cole,94.17,249.48,131.54,226.8,607.81,Single-ply,SBD,M
Boys,99.79,4,Manuel Valverde,San Antonio Memorial,93.94,224.53,142.88,208.65,576.06,Single-ply,SBD,M
Boys,99.79,5,Edward Roya,Castroville Medina Valley,97.39,190.51,129.27,188.24,508.02,Single-ply,SBD,M
Boys,99.79,6,David Castro,Carrizo Springs,95.03,174.63,151.95,161.03,487.61,Single-ply,SBD,M
Boys,99.79,7,Joe Montoya,Beeville Jones,89.95,183.7,104.33,179.17,467.2,Single-ply,SBD,M
Boys,99.79,8,Frank Alvarez,San Antonio Southwest Legacy,92.85,172.37,102.06,176.9,451.32,Single-ply,SBD,M
Boys,99.79,9,Cesar Mendiola,Uvalde,91.04,161.03,77.11,163.29,401.43,Single-ply,SBD,M
Boys,99.79,10,James Vasquez,La Pryor,94.39,154.22,68.04,122.47,344.73,Single-ply,SBD,M
Boys,99.79,11,Malachi Lopez,Pearsall,92.76,122.47,83.91,124.74,331.12,Single-ply,SBD,M
Boys,99.79,12,Ian Castro,San Antonio Southwest Legacy,91.53,106.59,83.91,136.08,326.59,Single-ply,SBD,M
Boys,99.79,13,Isaac Benites,San Antonio Southwest Legacy,94.66,113.4,58.97,113.4,285.76,Single-ply,SBD,M
Boys,99.79,DQ,Jonathan Morales,Pearsall,90.49,,,,,Single-ply,SBD,M
Boys,99.79,DQ,Diego Hernandez,Devine,96.39,204.12,115.67,,,Single-ply,SBD,M
Boys,109.77,1,Patricio Medina,Uvalde,106.14,238.14,115.67,231.33,585.13,Single-ply,SBD,M
Boys,109.77,2,Joe Gutierrez,Crystal City,102.56,240.4,124.74,197.31,562.45,Single-ply,SBD,M
Boys,109.77,3,Trace Ferguson,Castroville Medina Valley,108.41,222.26,131.54,204.12,557.92,Single-ply,SBD,M
Boys,109.77,4,Spencer Payne,Castroville Medina Valley,105.96,215.46,131.54,183.7,530.7,Single-ply,SBD,M
Boys,109.77,5,Michael Perez,Crystal City,108.59,244.94,113.4,167.83,526.17,Single-ply,SBD,M
Boys,109.77,6,Nathan Palacio,San Antonio Memorial,103.46,208.65,99.79,188.24,496.68,Single-ply,SBD,M
Boys,109.77,7,Daniel Ornelas,San Antonio Southwest Legacy,109.63,165.56,111.13,188.24,464.93,Single-ply,SBD,M
Boys,109.77,8,Daniel Garza,Carrizo Springs,101.29,158.76,115.67,183.7,458.13,Single-ply,SBD,M
Boys,109.77,9,Josh Pereida,San Antonio Southwest Legacy,102.42,183.7,106.59,165.56,455.86,Single-ply,SBD,M
Boys,109.77,10,Kollin Meeks,Pearsall,102.65,183.7,92.99,174.63,451.32,Single-ply,SBD,M
Boys,109.77,11,Juan Huizar,San Antonio Southwest Legacy,108.91,176.9,90.72,151.95,419.57,Single-ply,SBD,M
Boys,109.77,12,Lino Castro,Crystal City,100.65,172.37,88.45,149.69,410.5,Single-ply,SBD,M
Boys,109.77,13,Colton Reddick,Carrizo Springs,104.78,133.81,70.31,136.08,340.19,Single-ply,SBD,M
Boys,109.77,DQ,Paul Zertuche,Castroville Medina Valley,104.33,142.88,,,,Single-ply,SBD,M
Boys,109.77,DQ,Justin Huntyak,Castroville Medina Valley,102.06,151.95,,,,Single-ply,SBD,M
Boys,109.77,DQ,Matthew Williams,Uvalde,101.92,,,,,Single-ply,SBD,M
Boys,124.74,1,Myriel Jaramillo,Laredo Johnson,122.02,278.96,154.22,238.14,671.32,Single-ply,SBD,M
Boys,124.74,2,Jorge Flores,San Antonio Memorial,120.07,278.96,142.88,242.67,664.51,Single-ply,SBD,M
Boys,124.74,3,Christian Arredondo,Devine,110.99,263.08,165.56,213.19,641.83,Single-ply,SBD,M
Boys,124.74,4,Sebastian Ramirez,Castroville Medina Valley,120.66,233.6,138.35,226.8,598.74,Single-ply,SBD,M
Boys,124.74,5,Jeremy Ramirez,Laredo United,114.67,233.6,115.67,222.26,571.53,Single-ply,SBD,M
Boys,124.74,6,Anthony Walters,San Antonio Cole,118.34,231.33,140.61,199.58,571.53,Single-ply,SBD,M
Boys,124.74,7,Sammy Lara,Uvalde,111.18,213.19,133.81,215.46,562.45,Single-ply,SBD,M
Boys,124.74,8,Isaiah Ibarra,San Antonio Southwest Legacy,118.52,181.44,102.06,204.12,487.61,Single-ply,SBD,M
Boys,124.74,9,Abraham Hernandez,Castroville Medina Valley,121.56,183.7,115.67,185.97,485.34,Single-ply,SBD,M
Boys,124.74,10,Fernando Martinez,San Antonio Southwest Legacy,111.77,197.31,102.06,179.17,478.54,Single-ply,SBD,M
Boys,124.74,11,Joel Ortiz,Castroville Medina Valley,112.49,183.7,102.06,179.17,464.93,Single-ply,SBD,M
Boys,124.74,12,Angel Banderas,San Antonio Memorial,114.26,172.37,86.18,204.12,462.66,Single-ply,SBD,M
Boys,124.74,13,Alec Alvarado,San Antonio Southwest Legacy,118.89,167.83,97.52,190.51,455.86,Single-ply,SBD,M
Boys,124.74,14,Jose Vasquez,San Antonio Memorial,116.48,174.63,90.72,183.7,449.06,Single-ply,SBD,M
Boys,124.74,15,Memphis Medrano,Lytle,122.47,181.44,77.11,181.44,439.98,Single-ply,SBD,M
Boys,124.74,16,Joe Oyerivedas,San Antonio Southwest Legacy,119.57,165.56,77.11,163.29,405.97,Single-ply,SBD,M
Boys,124.74,17,Manuel Trevino,Crystal City,115.58,145.15,90.72,136.08,371.95,Single-ply,SBD,M
Boys,124.74+,1,Daniel Martinez,Beeville Jones,138.94,274.42,156.49,249.48,680.39,Single-ply,SBD,M
Boys,124.74+,2,Luis Barion,Laredo Johnson,124.78,254.01,142.88,226.8,623.69,Single-ply,SBD,M
Boys,124.74+,3,Jonah Barrow,Castroville Medina Valley,129.73,256.28,142.88,204.12,603.28,Single-ply,SBD,M
Boys,124.74+,4,Ernesto Morend,Castroville Medina Valley,160.3,242.67,154.22,190.51,587.4,Single-ply,SBD,M
Boys,124.74+,5,Roy Cantu,San Antonio Memorial,126.87,204.12,88.45,190.51,483.08,Single-ply,SBD,M
Boys,124.74+,6,Luis Gonzales,San Antonio Southwest Legacy,145.6,183.7,113.4,170.1,467.2,Single-ply,SBD,M
Boys,124.74+,7,Jesus Boragoel,San Antonio Memorial,127.01,181.44,92.99,190.51,464.93,Single-ply,SBD,M
