Place,Name,BirthYear,Country,BodyweightKg,Squat1Kg,Squat2Kg,Squat3Kg,Best3SquatKg,Bench1Kg,Bench2Kg,Bench3Kg,Best3BenchKg,Deadlift1Kg,Deadlift2Kg,Deadlift3Kg,Best3DeadliftKg,TotalKg,WeightClassKg,Division,Event,Sex,Equipment
1,Kirill Krut,1991,Russia,58.92,230,245,255,255,162.5,167.5,-170,167.5,230,242.5,245,245,667.5,59,Open,SBD,M,Single-ply
2,Ilya Marichev,2001,Russia,58.53,220,230,242.5,242.5,-155,155,160,160,230,242.5,-265,242.5,645,59,Open,SBD,M,Single-ply
3,Dariusz Wszoła,1978,Poland,58.84,230,240,250,250,165,170,175,175,200,210,215,215,640,59,Open,SBD,M,Single-ply
4,Paweł Ośmiałowski,1977,Poland,58.65,237.5,252.5,257.5,257.5,145,155,-160,155,205,217.5,-227.5,217.5,630,59,Open,SBD,M,Single-ply
5,Mouhcine El Boujaoudi,1991,Italy,58.9,220,232.5,245,245,147.5,157.5,-162.5,157.5,205,220,-240,220,622.5,59,Open,SBD,M,Single-ply
1,Konstantin Danilov,1986,Russia,65.46,300,310,320,320,-185,185,190,190,265,275,277.5,277.5,787.5,66,Open,SBD,M,Single-ply
2,Hassan El Belghiti,1975,France,65.48,275,290,295,295,170,-175,-175,170,295,310,-318,310,775,66,Open,SBD,M,Single-ply
3,Mariusz Grotkowski,1989,Poland,65.71,-275,-275,275,275,207.5,215,-222,215,250,260,270,270,760,66,Open,SBD,M,Single-ply
4,Andrea Zaino,1981,Italy,65.5,245,-255,260,260,152.5,-157.5,-157.5,152.5,250,267.5,-270,267.5,680,66,Open,SBD,M,Single-ply
5,Gheorghe Moise,1995,Romania,65.03,250,257.5,260,260,-165,165,-170,165,210,220,-225,220,645,66,Open,SBD,M,Single-ply
6,Kamil Iwasiów,1984,Poland,65.5,230,-250,-250,230,145,-155,-155,145,205,220,225,225,600,66,Open,SBD,M,Single-ply
1,Kjell Egil Bakkelund,1988,Norway,73.93,320,332.5,337.5,337.5,222.5,230,237.5,237.5,310,325,-333.5,325,900,74,Open,SBD,M,Single-ply
2,Alexander Eriksson,1994,Sweden,73.8,290,-305,305,305,235,246,-250.5,246,280,295,-302.5,295,846,74,Open,SBD,M,Single-ply
3,Vladislav Chornyi,1997,Ukraine,73.69,-325,325,332.5,332.5,195,-205,-205,195,287.5,300,-312.5,300,827.5,74,Open,SBD,M,Single-ply
4,Anatolii Goriachok,1979,Russia,73.69,290,305,-310,305,-185,-185,185,185,290,310,-329,310,800,74,Open,SBD,M,Single-ply
5,Andrei Cioflica,1990,Romania,73.3,230,240,-250,240,-190,-190,190,190,200,220,232.5,232.5,662.5,74,Open,SBD,M,Single-ply
1,Mykola Barannik,1989,Ukraine,82.67,335,345,352.5,352.5,260,270,-280,270,275,282.5,287.5,287.5,910,83,Open,SBD,M,Single-ply
2,Vladislav Shaibekov,1995,Russia,82.97,325,335,342.5,342.5,252.5,262.5,270,270,282.5,295,-300,295,907.5,83,Open,SBD,M,Single-ply
3,Kim-Raino Rølvåg,1986,Norway,80.31,315,325,335,335,240,-252.5,-252.5,240,-270,270,,270,845,83,Open,SBD,M,Single-ply
4,Simone Carniel,1990,Italy,82.53,300,312.5,-322.5,312.5,-200,200,205,205,280,290,-295,290,807.5,83,Open,SBD,M,Single-ply
5,Stefano Robol,1990,Italy,82.64,300,317.5,-325,317.5,177.5,182.5,-187.5,182.5,277.5,285,-290,285,785,83,Open,SBD,M,Single-ply
6,Antoni Mastrolorenzo,1982,France,74.41,-292.5,292.5,300,300,205,215,220,220,255,-265,-265,255,775,83,Open,SBD,M,Single-ply
7,Pardeep Kailey,1983,Netherlands,79.04,260,272.5,277.5,277.5,177.5,185,-190,185,267.5,280,-290,280,742.5,83,Open,SBD,M,Single-ply
8,Jordan Ivanov,1994,Bulgaria,82.82,270,-280,-280,270,175,182.5,190,190,250,265,270,270,730,83,Open,SBD,M,Single-ply
9,Dean Robertson,1982,UK,81.36,260,-270,270,270,170,175,180,180,265,275,-285,275,725,83,Open,SBD,M,Single-ply
10,Zdravko Petrov,1991,Bulgaria,82.14,270,-272.5,280,280,167.5,172.5,177.5,177.5,250,257.5,265,265,722.5,83,Open,SBD,M,Single-ply
11,Emmerik Vanhee,1990,Belgium,79.5,255,265,275,275,190,195,200,200,245,-255,-255,245,720,83,Open,SBD,M,Single-ply
12,Danni Iversen,1987,Denmark,81.85,-275,275,-290,275,170,-180,180,180,237.5,260,-272.5,260,715,83,Open,SBD,M,Single-ply
13,Andrei Nicolae Irimie,1990,Romania,82.35,210,220,230,230,-252.5,252.5,262.5,262.5,200,-210,-210,200,692.5,83,Open,SBD,M,Single-ply
14,Laurentiu Avram,1995,Romania,80.83,270,-280,-280,270,180,187.5,195,195,220,-240,-240,220,685,83,Open,SBD,M,Single-ply
1,Volodymyr Rysiev,1982,Ukraine,90.86,380,395.5,-400,395.5,275,285,-292.5,285,325,345,,345,1025.5,93,Open,SBD,M,Single-ply
2,Kostiantyn Musiienko,1997,Ukraine,91.13,330,345,357.5,357.5,305.5,315.5,-331,315.5,275,292.5,-307.5,292.5,965.5,93,Open,SBD,M,Single-ply
3,Oliver Dahlkvist,1995,Sweden,92.39,340,347.5,355,355,275,282.5,-287.5,282.5,280,287.5,295,295,932.5,93,Open,SBD,M,Single-ply
4,Nicki Lentz,1992,Denmark,92.56,370,385,396,396,-225,225,235,235,270,287.5,-295,287.5,918.5,93,Open,SBD,M,Single-ply
5,Max Lochschmidt,1983,Germany,88.62,-340,345,352.5,352.5,220,225,230,230,315,325,332.5,332.5,915,93,Open,SBD,M,Single-ply
6,Nikolai Slettnes,1994,Norway,92.37,325,337.5,345,345,255,-265,-265,255,275,292.5,-302.5,292.5,892.5,93,Open,SBD,M,Single-ply
7,Margus Silbaum,1976,Estonia,92.35,342.5,-350,-350,342.5,215,-222.5,-222.5,215,-317.5,317.5,-335,317.5,875,93,Open,SBD,M,Single-ply
8,Kristián Slíž,1995,Slovakia,92.05,320,342.5,-347.5,342.5,200,207.5,-212.5,207.5,290,310,-317.5,310,860,93,Open,SBD,M,Single-ply
9,Sturla Mæland Abrahamsen,1980,Norway,92.41,315,322.5,327.5,327.5,232.5,-237.5,-237.5,232.5,280,300,-305,300,860,93,Open,SBD,M,Single-ply
10,Philipp Schweda,1992,Germany,92.68,-342.5,342.5,-347.5,342.5,240,-245,-245,240,265,277.5,-287.5,277.5,860,93,Open,SBD,M,Single-ply
11,Andy Champ,1983,UK,92.64,280,-295,305,305,235,-242.5,242.5,242.5,275,285,-292.5,285,832.5,93,Open,SBD,M,Single-ply
12,Karl Anton Löve,1997,Iceland,92.35,315,325,335,335,-220,-220,220,220,265,275,-282.5,275,830,93,Open,SBD,M,Single-ply
DQ,Anthony Cusano,1994,Italy,92.68,325,335,-342.5,335,-230,-235,-237.5,,240,260,-280,260,,93,Open,SBD,M,Single-ply
1,Sergii Bilyi,1990,Ukraine,103.7,395,407.5,417.5,417.5,305,315,-325,315,350,360,,360,1092.5,105,Open,SBD,M,Single-ply
2,Danylo Kovalov,1996,Ukraine,104.67,-400,400,-412.5,400,285,300,307.5,307.5,315,-322.5,322.5,322.5,1030,105,Open,SBD,M,Single-ply
3,Allan Grenier,1990,France,104.93,-360,360,372.5,372.5,305,315,-324.5,315,290,300,312.5,312.5,1000,105,Open,SBD,M,Single-ply
4,Erik Gunhamn,1992,Sweden,101.11,345,357.5,370,370,232.5,240,-245,240,340,360,372.5,372.5,982.5,105,Open,SBD,M,Single-ply
5,Stian Walgermo,1988,Norway,104.42,365,-375,,365,280,285,290,290,312.5,-322.5,-345,312.5,967.5,105,Open,SBD,M,Single-ply
6,Martin Lange,1987,Germany,104.65,-350,350,355,355,250,260,-267.5,260,305,315,-327.5,315,930,105,Open,SBD,M,Single-ply
7,Jussi Kangasvieri,1987,Finland,104.78,322.5,332.5,-340,332.5,232.5,240,245,245,300,317.5,-322.5,317.5,895,105,Open,SBD,M,Single-ply
8,Cambray Orrason Alex,1989,Iceland,104.51,317.5,330,342.5,342.5,-240,-240,240,240,270,282.5,-290,282.5,865,105,Open,SBD,M,Single-ply
9,Adam Porteš,1995,Czechia,98.88,300,315,-325,315,180,-190,190,190,310,-322.5,-322.5,310,815,105,Open,SBD,M,Single-ply
DQ,Daniel Balaita,1974,Romania,101.82,297.5,-305,-305,297.5,-290,-290,-290,,220,237.5,-242.5,237.5,,105,Open,SBD,M,Single-ply
DQ,George Seeger,1992,UK,103.16,305,320,327.5,327.5,-220,-220,-220,,312.5,327.5,-350,327.5,,105,Open,SBD,M,Single-ply
DQ,Konstantin Chekasin,1992,Russia,104.93,365,-380,-382.5,365,-300,-300,-300,,-310,,,,,105,Open,SBD,M,Single-ply
1,Oleksiy Bychkov,1985,Ukraine,119.7,390,-405,412.5,412.5,320,-335,-335,320,350,370,397.5,397.5,1130,120,Open,SBD,M,Single-ply
2,Sofiane Belkesir,1984,France,113.78,392.5,405,410,410,275,280,285,285,330,345,355,355,1050,120,Open,SBD,M,Single-ply
3,Maksim Beznosov,1991,Russia,118.5,410,-425.5,-425.5,410,-240,-240,240,240,330,337.5,-345,337.5,987.5,120,Open,SBD,M,Single-ply
4,Viktor Samúelsson,1993,Iceland,115.95,-365,365,-377.5,365,270,280,287.5,287.5,305,315,-335,315,967.5,120,Open,SBD,M,Single-ply
5,Jeroen Van Heesvelde,1990,Belgium,116.09,-355,355,-370,355,255,265,275,275,310,330,-357.5,330,960,120,Open,SBD,M,Single-ply
6,Gernot Kasparek,1975,Austria,119.69,340,-352.5,-357.5,340,295,300,305,305,280,295,-305,295,940,120,Open,SBD,M,Single-ply
7,Christoph Seefeld,1980,Germany,119.13,350,-357.5,-357.5,350,-275,275,-285,275,300,312.5,-320,312.5,937.5,120,Open,SBD,M,Single-ply
8,Asgeir Hoel,1989,Norway,108.81,340,355,-362.5,355,235,247.5,255,255,305,315,-327.5,315,925,120,Open,SBD,M,Single-ply
9,Milan Selinger,1984,Czechia,119.95,-300,310,322.5,322.5,290,297.5,-302.5,297.5,265,280,-290,280,900,120,Open,SBD,M,Single-ply
10,Samuel Lederleitner,1994,Slovakia,117.88,320,340,-350,340,235,-242.5,242.5,242.5,275,-282.5,-282.5,275,857.5,120,Open,SBD,M,Single-ply
11,Sorin Cazacu,1973,Romania,119.62,340,-352.5,-352.5,340,-262.5,262.5,-277.5,262.5,240,250,,250,852.5,120,Open,SBD,M,Single-ply
12,Jean Gengler,1986,Luxembourg,117.92,270,-280,-280,270,180,185,190,190,285,300,-307.5,300,760,120,Open,SBD,M,Single-ply
DQ,Dominik Pahl,1992,Germany,118.1,,,,,,,,,,,,,,120,Open,SBD,M,Single-ply
1,Maksim Prokhorov,1989,Russia,148,425,440,455,455,275,285,295,295,345,360,370,370,1120,120+,Open,SBD,M,Single-ply
2,Júlían J.K. Jóhannsson,1993,Iceland,168.28,-385,-385,385,385,295,305,315,315,355,-385,385,385,1085,120+,Open,SBD,M,Single-ply
3,Róbert Valach,1992,Slovakia,139.23,380,407.5,-412.5,407.5,280,290,295,295,340,362.5,365,365,1067.5,120+,Open,SBD,M,Single-ply
4,Andrii Shevchenko,1995,Ukraine,139.34,390,405,417.5,417.5,305,315,322.5,322.5,315,327.5,-335,327.5,1067.5,120+,Open,SBD,M,Single-ply
5,Jordi Snijders,1986,Netherlands,128.84,370,385,-390,385,320,327.5,-330,327.5,305,320,-327.5,320,1032.5,120+,Open,SBD,M,Single-ply
6,Milan Špingl,1980,Czechia,145.71,370,390,402.5,402.5,280,292.5,300,300,300,315,-332.5,315,1017.5,120+,Open,SBD,M,Single-ply
7,Tobias Zinserling,1978,Germany,151.5,360,-370,-370,360,250,260,270,270,355,370,372.5,372.5,1002.5,120+,Open,SBD,M,Single-ply
8,Florin Lupas Ionut,1989,Romania,139.6,382.5,-392.5,-407.5,382.5,300,307.5,-310,307.5,290,300,-310,300,990,120+,Open,SBD,M,Single-ply
9,Jari Martikainen,1975,Finland,143.22,355,370,-380,370,220,230,-235,230,330,350,-360,350,950,120+,Open,SBD,M,Single-ply
10,Ákos Labát,1995,Slovakia,156.65,390,-410,-410,390,300,-310,-315,300,260,,,260,950,120+,Open,SBD,M,Single-ply
11,Ranbir Singh Sahota,1983,UK,130.35,350,365,372.5,372.5,210,220,227.5,227.5,290,305,-312.5,305,905,120+,Open,SBD,M,Single-ply
1,Egor Nosach,2002,Russia,52.47,135,145,152.5,152.5,85,95,100,100,130,140,145,145,397.5,53,Sub-Juniors,SBD,M,Single-ply
2,Lukáš Kučera,2003,Slovakia,51.26,95,102.5,-112.5,102.5,60,-67.5,-67.5,60,105,-117.5,117.5,117.5,280,53,Sub-Juniors,SBD,M,Single-ply
1,Vladislav Yushchenko,2002,Russia,58.78,200,207.5,-212.5,207.5,120,127.5,132.5,132.5,195,202.5,205,205,545,59,Sub-Juniors,SBD,M,Single-ply
2,Sergei Popov,2002,Russia,58.11,190,200,-210,200,90,95,-100,95,200,210,-215,210,505,59,Sub-Juniors,SBD,M,Single-ply
3,Paweł Pleban,2002,Poland,58.14,150,-165,-165,150,90,-97.5,-97.5,90,155,172.5,-185,172.5,412.5,59,Sub-Juniors,SBD,M,Single-ply
4,Cristian Moise,2001,Romania,57.21,155,-165,165,165,85,92.5,-100,92.5,142.5,152.5,-157.5,152.5,410,59,Sub-Juniors,SBD,M,Single-ply
5,Mintartas Kacinskas,2004,Lithuania,58.23,120,130,-137.5,130,65,75,-80,75,-145,145,-157.5,145,350,59,Sub-Juniors,SBD,M,Single-ply
1,Nikita Suvorov,2001,Russia,65.15,192.5,200,205,205,127.5,135,145,145,192.5,210,-215,210,560,66,Sub-Juniors,SBD,M,Single-ply
2,Bartosz Bebło,2002,Poland,65.48,190,200,-210,200,92.5,100,107.5,107.5,180,190,-200,190,497.5,66,Sub-Juniors,SBD,M,Single-ply
3,Ben Hartley,2001,UK,64.46,175,187.5,-197.5,187.5,100,110,115,115,160,172.5,-182.5,172.5,475,66,Sub-Juniors,SBD,M,Single-ply
4,Milan Vojačik,2001,Slovakia,64.34,160,165,-170,165,-110,110,115,115,155,-167.5,-167.5,155,435,66,Sub-Juniors,SBD,M,Single-ply
1,Evgeniy Stepanov,2001,Russia,73.55,235,250,260,260,170,175,180,180,230,240,245,245,685,74,Sub-Juniors,SBD,M,Single-ply
2,Rokas Burba,2001,Lithuania,73.88,-220,220,230,230,-170,-175,175,175,210,220,225,225,630,74,Sub-Juniors,SBD,M,Single-ply
3,Wojciech Magiera,2001,Poland,73.03,212.5,220,225,225,152.5,157.5,162.5,162.5,212.5,220,-242.5,220,607.5,74,Sub-Juniors,SBD,M,Single-ply
4,Heorhii Tunyk,2002,Ukraine,73.4,242.5,-255,-260,242.5,135,-145,-145,135,200,-212.5,-212.5,200,577.5,74,Sub-Juniors,SBD,M,Single-ply
5,Julian Mair,2001,Austria,68.89,-180,180,-192.5,180,90,100,-105,100,205,212.5,-220,212.5,492.5,74,Sub-Juniors,SBD,M,Single-ply
1,Vyacheslav Kazak,2001,Russia,82.57,235,250,255,255,155,165,172.5,172.5,215,225,230,230,657.5,83,Sub-Juniors,SBD,M,Single-ply
2,Filip Jakubec Kristian,2001,Slovakia,82.12,230,237.5,245,245,135,-142.5,142.5,142.5,235,-247.5,-247.5,235,622.5,83,Sub-Juniors,SBD,M,Single-ply
3,Filip Rybár,2001,Czechia,81.7,210,-225,225,225,150,160,165,165,195,210,217.5,217.5,607.5,83,Sub-Juniors,SBD,M,Single-ply
DQ,Karel Rada,2001,Czechia,82.25,-235,235,245,245,-170,-170,-170,,245,255,-260,255,,83,Sub-Juniors,SBD,M,Single-ply
1,Arsenii Konkov,2001,Russia,92.35,260,270,280,280,175,185,190,190,270,280,290,290,760,93,Sub-Juniors,SBD,M,Single-ply
2,Mikhail Volbenko,2001,Russia,91.06,-265,265,280,280,175,185,195,195,240,255,-275,255,730,93,Sub-Juniors,SBD,M,Single-ply
3,Ondřej Šíp,2002,Czechia,91.34,260,270,280,280,145,152.5,160,160,235,245,252.5,252.5,692.5,93,Sub-Juniors,SBD,M,Single-ply
4,Martin Hužvár,2002,Slovakia,91.35,240,262.5,270,270,135,142.5,150,150,257.5,267.5,-275,267.5,687.5,93,Sub-Juniors,SBD,M,Single-ply
1,Matěj Jurka,2001,Czechia,96.89,245,255,265,265,150,160,167.5,167.5,-255,255,257.5,257.5,690,105,Sub-Juniors,SBD,M,Single-ply
2,Mateusz Szymkiewicz,2001,Poland,95.01,-265,-270,270,270,160,170,175,175,-230,230,242.5,242.5,687.5,105,Sub-Juniors,SBD,M,Single-ply
3,Nicolas Tóth,2001,Czechia,102.9,240,-255,-255,240,-220,220,-250.5,220,225,-232.5,-232.5,225,685,105,Sub-Juniors,SBD,M,Single-ply
4,Martin Benedikovic,2001,Slovakia,93.98,195,-210,-210,195,110,-115,-115,110,180,-197.5,,180,485,105,Sub-Juniors,SBD,M,Single-ply
1,Ilia Sherstnev,2003,Russia,116.88,-300,310,328,328,215,227.5,242.5,242.5,230,250,270,270,840.5,120,Sub-Juniors,SBD,M,Single-ply
2,Dmytro Holinei,2001,Ukraine,114.39,285,305,315,315,170,185,-195,185,200,245,272.5,272.5,772.5,120,Sub-Juniors,SBD,M,Single-ply
1,Alexandru Cataramba,2001,Romania,120.54,242.5,-265,265,265,185,195,200,200,200,222.5,-235,222.5,687.5,120+,Sub-Juniors,SBD,M,Single-ply
2,Bartłomiej Tuszyński,2003,Poland,134.79,210,225,235,235,155,167.5,175,175,205,225,237.5,237.5,647.5,120+,Sub-Juniors,SBD,M,Single-ply
3,Jakub Zavodny,2004,Slovakia,122.25,180,-195,195,195,120,130,-137.5,130,180,190,-195,190,515,120+,Sub-Juniors,SBD,M,Single-ply
1,Edhar Dolhyi,1996,Ukraine,58.69,195,205,210,210,130,137.5,-140,137.5,210,-225,-225,210,557.5,59,Juniors,SBD,M,Single-ply
2,Dmitriy Evdokimov,2000,Russia,58.76,190,200,-205,200,105,110,115,115,190,-200,-200,190,505,59,Juniors,SBD,M,Single-ply
3,Rostyslav Babiuk,2000,Ukraine,58.58,175,185,190,190,125,132.5,-137.5,132.5,175,-190,-192.5,175,497.5,59,Juniors,SBD,M,Single-ply
4,Bogdan Stan,1996,Romania,57.27,105,-117.5,117.5,117.5,72.5,75,-80,75,130,150,-175,150,342.5,59,Juniors,SBD,M,Single-ply
1,Aleksei Rikhter,1998,Russia,65.55,230,242.5,252.5,252.5,175,182.5,190,190,207.5,215,225,225,667.5,66,Juniors,SBD,M,Single-ply
2,Alexander Grigoryev,1999,Russia,63.35,235,-245,-245,235,190,195,-200,195,210,-217.5,-217.5,210,640,66,Juniors,SBD,M,Single-ply
3,Nikolas Gliebe,1997,Austria,65.28,250,-260,-260,250,155,-160,-160,155,192.5,202.5,205,205,610,66,Juniors,SBD,M,Single-ply
4,Linas Abakas,1999,Lithuania,64.48,165,175,-180,175,115,122.5,-125,122.5,190,-200,202.5,202.5,500,66,Juniors,SBD,M,Single-ply
1,Denis Olefir,1999,Russia,73.89,295,310,320,320,190,200,210,210,250,265,270,270,800,74,Juniors,SBD,M,Single-ply
2,Martin Foriš,1997,Slovakia,73.44,255,265,272.5,272.5,-200,200,210,210,225,235,-245,235,717.5,74,Juniors,SBD,M,Single-ply
3,Diego Milani,1996,Italy,73.6,235,247.5,260,260,150,160,165,165,260,275,-295,275,700,74,Juniors,SBD,M,Single-ply
4,Catalin Buciuman,1999,Romania,73.69,210,230,237.5,237.5,195,202.5,-212.5,202.5,215,225,-232.5,225,665,74,Juniors,SBD,M,Single-ply
5,Josef Klíma,1999,Czechia,72.91,245,255,260,260,142.5,147.5,152.5,152.5,225,-240,-242.5,225,637.5,74,Juniors,SBD,M,Single-ply
DQ,Ruslan Ruzimuradov,1998,Ukraine,73.47,265,-272.5,272.5,272.5,-217.5,-217.5,-217.5,,200,220,-237.5,220,,74,Juniors,SBD,M,Single-ply
1,Jack Söderberg,1996,Sweden,82.67,280,290,300,300,-200,200,205,205,280,295,300,300,805,83,Juniors,SBD,M,Single-ply
2,Mickel Dahl Flensborg,1996,Denmark,82.92,292.5,302.5,307.5,307.5,-182.5,182.5,187.5,187.5,285,307.5,-312.5,307.5,802.5,83,Juniors,SBD,M,Single-ply
3,Petr Korolev,1997,Russia,78.22,285,295,302.5,302.5,170,180,185,185,270,-280,285,285,772.5,83,Juniors,SBD,M,Single-ply
4,Erik Larsson,1999,Sweden,81.79,300,310,315,315,-180,180,185,185,255,267.5,272.5,272.5,772.5,83,Juniors,SBD,M,Single-ply
5,Hannes Haase,1998,Germany,82.12,285,-292.5,-292.5,285,195,200,205,205,240,250,-255,250,740,83,Juniors,SBD,M,Single-ply
6,Kevin Schmid,2000,Austria,80.26,237.5,-245,245,245,195,-200,-200,195,235,242.5,-250,242.5,682.5,83,Juniors,SBD,M,Single-ply
7,Mariusz Tworkowski,1998,Poland,81.9,260,-270,-270,260,155,165,-172.5,165,230,-242.5,245,245,670,83,Juniors,SBD,M,Single-ply
8,Maurice Koopmanschap,1997,Netherlands,82.77,232.5,245,250,250,162.5,170,172.5,172.5,237.5,247.5,-252.5,247.5,670,83,Juniors,SBD,M,Single-ply
9,Thomas Morgan,1996,UK,80.95,-235,235,-242.5,235,-160,160,-170,160,205,220,230,230,625,83,Juniors,SBD,M,Single-ply
1,Aleksei Agafoshin,1997,Russia,91.99,310,325,-332.5,325,205,230,235,235,275,-290,300,300,860,93,Juniors,SBD,M,Single-ply
2,Henrik Hagen,1998,Norway,92.45,310,317.5,327.5,327.5,225,232.5,237.5,237.5,275,285,295,295,860,93,Juniors,SBD,M,Single-ply
3,Klaudijus Malevskis,1996,Lithuania,92.67,290,-300,300,300,235,245,252.5,252.5,240,250,255,255,807.5,93,Juniors,SBD,M,Single-ply
4,Alexander Lancaster,1997,Norway,88.21,295,305,315,315,200,210,217.5,217.5,240,257.5,-275,257.5,790,93,Juniors,SBD,M,Single-ply
5,Jakub Hlaváč,2000,Czechia,91.89,285,300,310,310,150,160,167.5,167.5,-280,280,-300,280,757.5,93,Juniors,SBD,M,Single-ply
6,Marek Žiško,1996,Slovakia,89.72,-270,270,-285,270,185,-200,200,200,230,245,252.5,252.5,722.5,93,Juniors,SBD,M,Single-ply
7,Agris Reppo,1996,Estonia,91.45,-230,230,,230,175,190,200,200,275,292.5,-300,292.5,722.5,93,Juniors,SBD,M,Single-ply
8,Berg Rasmussen Simon,1999,Denmark,92.44,265,277.5,-285,277.5,-172.5,-172.5,172.5,172.5,245,255,-262.5,255,705,93,Juniors,SBD,M,Single-ply
DQ,Markus Dúcký,1997,Slovakia,90.68,-290,-290,-290,,-200,-200,200,200,260,280,-285,280,,93,Juniors,SBD,M,Single-ply
DQ,Farris Collins,1998,UK,92.58,260,275,-280,275,-160,-160,-160,,210,225,-232.5,225,,93,Juniors,SBD,M,Single-ply
1,Evžen Sičevskyj,1997,Czechia,100.95,300,310,315,315,190,195,-200,195,280,290,-305,290,800,105,Juniors,SBD,M,Single-ply
2,Aleksei Zhuravskii,1997,Russia,94.35,295,305,310,310,190,200,205,205,275,282.5,-292.5,282.5,797.5,105,Juniors,SBD,M,Single-ply
3,Yevhenii Cherniatin,1996,Ukraine,98.65,-280,280,-292.5,280,-220,220,-227.5,220,270,277.5,-292.5,277.5,777.5,105,Juniors,SBD,M,Single-ply
4,Martin Prokop,1999,Czechia,103.25,290,305,-310,305,200,-210,-210,200,245,-260,-260,245,750,105,Juniors,SBD,M,Single-ply
5,Aytan Sarisoy,1998,UK,98.91,240,-252.5,252.5,252.5,130,140,150,150,-265,265,275,275,677.5,105,Juniors,SBD,M,Single-ply
6,Ion Turus Dan,1996,Romania,104.7,250,-267.5,-267.5,250,180,-185,185,185,170,-200,,170,605,105,Juniors,SBD,M,Single-ply
DQ,Kieran Perry,1996,UK,96.9,-265,-265,-265,,145,152.5,-160,152.5,260,270,-272.5,270,,105,Juniors,SBD,M,Single-ply
DQ,Jaroslav Halač,2000,Slovakia,104.54,-295,-295,-295,,190,-202.5,-202.5,190,282.5,292.5,-300,292.5,,105,Juniors,SBD,M,Single-ply
1,Julian Sagøy,1997,Norway,119.02,315,-325,-330,315,237.5,245,-250,245,305,315,-320,315,875,120,Juniors,SBD,M,Single-ply
2,Jack Johnson,1998,UK,106.44,285,305,-317.5,305,220,230,-240,230,280,300,317.5,317.5,852.5,120,Juniors,SBD,M,Single-ply
3,Volodymyr Kravets,1996,Ukraine,119.5,310,320,330,330,215,222.5,227.5,227.5,285,295,-302.5,295,852.5,120,Juniors,SBD,M,Single-ply
4,Václav Vlk,2000,Czechia,108.56,295,-305,-305,295,-230,230,-237.5,230,255,265,-275,265,790,120,Juniors,SBD,M,Single-ply
5,Alexandru Cazacu,1997,Romania,115.62,-300,-307.5,312.5,312.5,185,-200,-222.5,185,210,-240,-247.5,210,707.5,120,Juniors,SBD,M,Single-ply
6,Roman Štěpánek,1998,Czechia,116.2,250,260,265,265,130,137.5,145,145,235,247.5,257.5,257.5,667.5,120,Juniors,SBD,M,Single-ply
DQ,Ivan Kulikovskii,1999,Russia,113.1,,,,,,,,,,,,,,120,Juniors,SBD,M,Single-ply
1,Viktor Holinei,2000,Ukraine,137.9,375,395,405,405,265,275,285,285,310,330,-340,330,1020,120+,Juniors,SBD,M,Single-ply
2,Guðni Sigurjónsson,1997,Iceland,149.02,-365,375,-390,375,275,-290,-290,275,280,302.5,-310,302.5,952.5,120+,Juniors,SBD,M,Single-ply
3,Vladislav Nemov,1996,Russia,131.06,340,355,-362.5,355,250,-260,260,260,300,315,-337.5,315,930,120+,Juniors,SBD,M,Single-ply
1,Svetlana Saydasheva,1988,Russia,46.86,152.5,157.5,-160,157.5,77.5,82.5,87.5,87.5,157.5,162.5,167.5,167.5,412.5,47,Open,SBD,F,Single-ply
2,Stéphanie Legard,1981,France,46.46,160,-170,-175,160,-90,90,95,95,145,150,-155,150,405,47,Open,SBD,F,Single-ply
3,Irina Ivanova,1996,Russia,46.65,-150,150,-155,150,97.5,105,112.5,112.5,132.5,-142.5,-145,132.5,395,47,Open,SBD,F,Single-ply
4,Malin Carlsson,1994,Sweden,46.57,125,130,-135,130,85,87.5,-92.5,87.5,127.5,132.5,-142.5,132.5,350,47,Open,SBD,F,Single-ply
1,Anastasiya Derevyanko,1987,Ukraine,50.36,180,-190,190,190,110,115,-120,115,172.5,182.5,-193,182.5,487.5,52,Open,SBD,F,Single-ply
2,Trine Øgaard Bagger,1986,Denmark,51.78,-155,160,170,170,97.5,102.5,105,105,172.5,182.5,190,190,465,52,Open,SBD,F,Single-ply
3,Emma Goodwin,1987,UK,51.69,155,165,-170,165,80,-85,-85,80,170,180,-185,180,425,52,Open,SBD,F,Single-ply
4,Sandrine Quignaudon,1991,Sweden,51.29,150,-157.5,-160,150,85,90,95,95,135,142.5,150,150,395,52,Open,SBD,F,Single-ply
DQ,Tetyana Shlopko,1996,Ukraine,51.05,-190,-190,-190,,110,120,-125,120,155,-165,,155,,52,Open,SBD,F,Single-ply
1,Victoria Karlysheva,1993,Russia,56.64,200,210,217.5,217.5,117.5,-122.5,122.5,122.5,182.5,190,-195,190,530,57,Open,SBD,F,Single-ply
2,Anastasia Lorents,1985,Russia,56.37,172.5,180,187.5,187.5,145,-150,-150,145,-175,180,187.5,187.5,520,57,Open,SBD,F,Single-ply
3,Ellie Steel,1991,UK,56.84,-190,190,200,200,132.5,140,145,145,165,175,-177.5,175,520,57,Open,SBD,F,Single-ply
4,Hilde Mikkelsen Haugen,1991,Norway,56.7,190,200,-205,200,130,135,-140,135,165,172.5,-180,172.5,507.5,57,Open,SBD,F,Single-ply
5,Caroline Suné,1985,France,56.74,190,-195,-195,190,102.5,107.5,-110,107.5,-165,165,172.5,172.5,470,57,Open,SBD,F,Single-ply
6,Chiara Di Trani,1987,Italy,54.59,-175,175,-182.5,175,95,-100,-100,95,182.5,187.5,192.5,192.5,462.5,57,Open,SBD,F,Single-ply
7,Valentina Presenti,1991,Italy,55.11,170,177.5,-185,177.5,95,100,-102.5,100,167.5,-177.5,-177.5,167.5,445,57,Open,SBD,F,Single-ply
8,Evita Talahatu,1987,Netherlands,56.93,165,-172.5,-172.5,165,105,-110,110,110,140,152.5,160,160,435,57,Open,SBD,F,Single-ply
9,Eva Buxbom,1969,Denmark,56.28,160,-170,-172.5,160,85,90,-92.5,90,172.5,-180,-180,172.5,422.5,57,Open,SBD,F,Single-ply
10,Larysa Osychka,1986,Ukraine,56.68,160,-170,170,170,-90,90,92.5,92.5,155,-165,-165,155,417.5,57,Open,SBD,F,Single-ply
DQ,Mélodie Anthouard,1988,France,56.63,-180,-180,-180,,-135,135,-140,135,157.5,165,-172.5,165,,57,Open,SBD,F,Single-ply
1,Eline Skalleberg Jørgensen,1985,Norway,62.75,205,215,220,220,122.5,130,135,135,192.5,200,-202.5,200,555,63,Open,SBD,F,Single-ply
2,Daria Lomatskaya,2001,Russia,62.67,200,210,217.5,217.5,132.5,137.5,142.5,142.5,185,192.5,-195,192.5,552.5,63,Open,SBD,F,Single-ply
3,Nataliya Gargunovska,1998,Ukraine,61.77,202.5,-212.5,212.5,212.5,115,120,125,125,167.5,175,177.5,177.5,515,63,Open,SBD,F,Single-ply
4,Jenny Marie Johansen,1989,Norway,62.13,197.5,-207.5,-212.5,197.5,115,-117.5,-117.5,115,185,192.5,-205,192.5,505,63,Open,SBD,F,Single-ply
5,Anna Schjoett,1995,Denmark,60.77,180,-187.5,-187.5,180,95,-102.5,102.5,102.5,167.5,175,-180,175,457.5,63,Open,SBD,F,Single-ply
6,Lauren Elder,1989,UK,62.49,-150,150,157.5,157.5,-72.5,72.5,-77.5,72.5,165,175,182.5,182.5,412.5,63,Open,SBD,F,Single-ply
7,Lucy Hart,1995,UK,59.53,-150,155,-165,155,75,80,-85,80,145,155,165,165,400,63,Open,SBD,F,Single-ply
8,Dagna Schmidt,1990,Poland,62.38,-145,145,-152.5,145,100,105,107.5,107.5,120,-130,-130,120,372.5,63,Open,SBD,F,Single-ply
1,Antonina Marchenko,1989,Ukraine,71.71,225,232.5,240,240,165,175,-180.5,175,170,180,185,185,600,72,Open,SBD,F,Single-ply
2,Cathrin Monika Silberzahn,1988,Germany,70.98,230,235,-240,235,135,140,145,145,190,200,207.5,207.5,587.5,72,Open,SBD,F,Single-ply
3,Lidiia Zaiats,1996,Russia,70.26,-215,220,230,230,140,145,-147.5,145,185,195,205,205,580,72,Open,SBD,F,Single-ply
4,Mariia Erokhina,1995,Russia,71.22,200,207.5,215,215,125,-132.5,-132.5,125,185,192.5,197.5,197.5,537.5,72,Open,SBD,F,Single-ply
5,Francesca Parrello,1994,Italy,71.18,200,212.5,-217.5,212.5,100,110,-115,110,195,205,-210,205,527.5,72,Open,SBD,F,Single-ply
6,Eleonora Marzadro,1990,Italy,70.92,190,200,-207.5,200,120,127.5,132.5,132.5,165,175,185,185,517.5,72,Open,SBD,F,Single-ply
7,Katja Broxtermann,1986,Germany,71.72,182.5,187.5,192.5,192.5,130,135,137.5,137.5,162.5,170,-172.5,170,500,72,Open,SBD,F,Single-ply
8,Kathrine Holmgaard Bak,1981,Denmark,65.11,155,-170,170,170,95,-100,-100,95,207.5,220,-240,220,485,72,Open,SBD,F,Single-ply
9,Kimberley Cowell,1988,UK,69.09,175,180,185,185,115,122.5,127.5,127.5,160,165,170,170,482.5,72,Open,SBD,F,Single-ply
1,Ankie Timmers,1986,Netherlands,79.28,217.5,225,230,230,-175,177.5,-180,177.5,215,222.5,-235,222.5,630,84,Open,SBD,F,Single-ply
2,Anna Sørlie Heranger,1992,Norway,83.55,240,247.5,250,250,150,155,-160,155,210,220,-235,220,625,84,Open,SBD,F,Single-ply
3,Frida Wik,1991,Sweden,77.17,200,210,215,215,147.5,152.5,155,155,190,202.5,207.5,207.5,577.5,84,Open,SBD,F,Single-ply
4,Iris Kensenhuis,1983,Netherlands,82.3,212.5,220,222.5,222.5,-97.5,100,102.5,102.5,227.5,237.5,242.5,242.5,567.5,84,Open,SBD,F,Single-ply
5,Valentina Zagoruyko,1992,Ukraine,83.71,222.5,230,235,235,127.5,132.5,-137.5,132.5,185,192.5,-212.5,192.5,560,84,Open,SBD,F,Single-ply
6,Lise Frederiksen,1982,Denmark,81.84,210,-222.5,-222.5,210,105,112.5,-120,112.5,185,195,-200,195,517.5,84,Open,SBD,F,Single-ply
7,Sheri Miles,1986,UK,75.71,165,175,-182.5,175,107.5,112.5,-115,112.5,180,200,-220,200,487.5,84,Open,SBD,F,Single-ply
DQ,Hulda B. Waage,1985,Iceland,82.61,225,-230,230,230,-137.5,-137.5,-137.5,,172.5,180,-190,180,,84,Open,SBD,F,Single-ply
DQ,Heidi Hille Arnesen,1970,Norway,83.99,-250,-250,-250,,,,,,,,,,,84,Open,SBD,F,Single-ply
1,Hildeborg Juvet Hugdal,1983,Norway,126.39,-262.5,-265,265,265,-212.5,212.5,-227.5,212.5,202.5,210,-222.5,210,687.5,84+,Open,SBD,F,Single-ply
2,Anna Kukhareva,1990,Russia,105.68,235,245,252.5,252.5,142.5,147.5,152.5,152.5,205,215,225,225,630,84+,Open,SBD,F,Single-ply
3,Inna Orobets,1971,Ukraine,105.57,220,227.5,-232.5,227.5,175,180,-185,180,185,192.5,197.5,197.5,605,84+,Open,SBD,F,Single-ply
4,Brenda van der Meulen,1978,Netherlands,113.55,200,212.5,215,215,-195,-195,195,195,180,187.5,-192.5,187.5,597.5,84+,Open,SBD,F,Single-ply
5,Jane Aaberg,1981,Denmark,88.76,215,-222.5,-222.5,215,117.5,-122.5,-122.5,117.5,220,-230,230,230,562.5,84+,Open,SBD,F,Single-ply
6,Laura Berry-Webb,1982,UK,94.51,-182.5,-190,190,190,152.5,160,167.5,167.5,170,180,185,185,542.5,84+,Open,SBD,F,Single-ply
DQ,Kate Sweatman,1985,UK,121.8,-210,-210,-220,,140,-150,-150,140,175,185,190,190,,84+,Open,SBD,F,Single-ply
1,Mariia Romanova,2002,Russia,42.68,100,110,115,115,37.5,-42.5,42.5,42.5,95,105,110,110,267.5,43,Sub-Juniors,SBD,F,Single-ply
1,Mariia Polianska,2003,Ukraine,46.11,-132.5,135,-142.5,135,65,70,-75,70,130,-140,145,145,350,47,Sub-Juniors,SBD,F,Single-ply
2,Yuliya Ksenzova,2001,Russia,46.17,127.5,135,-140,135,67.5,72.5,77.5,77.5,120,125,-135,125,337.5,47,Sub-Juniors,SBD,F,Single-ply
1,Valeriia Yavorska,2003,Ukraine,51.06,130,140,-145,140,72.5,-77.5,77.5,77.5,115,122.5,-132.5,122.5,340,52,Sub-Juniors,SBD,F,Single-ply
2,Tatiana Belskaia,2002,Russia,51.21,125,132.5,137.5,137.5,75,80,-85,80,105,115,-125,115,332.5,52,Sub-Juniors,SBD,F,Single-ply
3,Denisa Turková,2003,Czechia,51.29,110,120,125,125,-60,62.5,-65,62.5,100,110,-117.5,110,297.5,52,Sub-Juniors,SBD,F,Single-ply
4,Lenka Stískalová,2002,Slovakia,51.89,-95,95,112.5,112.5,60,67.5,-70,67.5,90,100,-105,100,280,52,Sub-Juniors,SBD,F,Single-ply
5,Sofiia Bzdyr,2003,Ukraine,51.56,100,107.5,-115,107.5,55,-60,-60,55,102.5,112.5,-117.5,112.5,275,52,Sub-Juniors,SBD,F,Single-ply
1,Anastasiia Antoniuk,2002,Ukraine,56.95,165,175,-180,175,95,102.5,107.5,107.5,150,157.5,160,160,442.5,57,Sub-Juniors,SBD,F,Single-ply
2,Karina Chebunina,2003,Russia,56.15,147.5,155,160,160,65,70,-75,70,147.5,152.5,157.5,157.5,387.5,57,Sub-Juniors,SBD,F,Single-ply
3,Anita Kolesnyk,2003,Ukraine,56.54,130,-140,145,145,57.5,62.5,67.5,67.5,132.5,142.5,-157.5,142.5,355,57,Sub-Juniors,SBD,F,Single-ply
4,Olívia Lapšanská,2003,Slovakia,56.55,110,120,-125,120,50,-55,-60,50,110,120,125,125,295,57,Sub-Juniors,SBD,F,Single-ply
1,Lada Bessonova,2001,Russia,61.98,155,-165,-165,155,107.5,115,120,120,140,147.5,152.5,152.5,427.5,63,Sub-Juniors,SBD,F,Single-ply
2,Olena Bukkina,2001,Ukraine,62.19,170,177.5,-182.5,177.5,80,85,90,90,142.5,147.5,-162.5,147.5,415,63,Sub-Juniors,SBD,F,Single-ply
3,Anna Vasileva,2001,Russia,62.51,155,160,-162.5,160,107.5,-112.5,-112.5,107.5,130,140,142.5,142.5,410,63,Sub-Juniors,SBD,F,Single-ply
4,Dominika Jansová,2001,Czechia,60.44,160,-170,-170,160,70,80,85,85,155,162.5,-165,162.5,407.5,63,Sub-Juniors,SBD,F,Single-ply
5,Boglarka Nagy,2003,Hungary,60.95,100,110,-120,110,-55,55,-62.5,55,110,120,130,130,295,63,Sub-Juniors,SBD,F,Single-ply
1,Daria Rusanenko,2001,Ukraine,71.62,200,215,222.5,222.5,117.5,-125,125,125,165,175,182.5,182.5,530,72,Sub-Juniors,SBD,F,Single-ply
2,Oksana Gordeeva,2001,Russia,66.34,190,200,-210,200,105,112.5,-117.5,112.5,170,185,-200,185,497.5,72,Sub-Juniors,SBD,F,Single-ply
3,Aleksandra Doronina,2001,Russia,67.62,135,142.5,147.5,147.5,85,90,92.5,92.5,137.5,145,155,155,395,72,Sub-Juniors,SBD,F,Single-ply
4,Virag Rajos Vivien,2002,Hungary,70.2,-115,120,140,140,65,67.5,-92.5,67.5,115,125,-147.5,125,332.5,72,Sub-Juniors,SBD,F,Single-ply
1,Daria Smirnova,2001,Russia,77.42,190,205,215,215,85,95,-100,95,180,190,-202.5,190,500,84,Sub-Juniors,SBD,F,Single-ply
2,Kateryna Paraskevych,2001,Ukraine,75.15,117.5,125,130,130,117.5,125,-130,125,115,120,-130,120,375,84,Sub-Juniors,SBD,F,Single-ply
3,Patricia Slizova,2001,Slovakia,75.2,130,145,-150,145,65,72.5,-77.5,72.5,120,130,-132.5,130,347.5,84,Sub-Juniors,SBD,F,Single-ply
1,Sóley Margrét Jónsdóttir,2001,Iceland,111.92,-245,250,265.5,265.5,145,155,-160,155,190,200,-217.5,200,620.5,84+,Sub-Juniors,SBD,F,Single-ply
1,Dariia Brazhnyk,1997,Ukraine,42.35,122.5,127.5,132.5,132.5,67.5,72.5,75,75,105,112.5,-122.5,112.5,320,43,Juniors,SBD,F,Single-ply
2,Ekaterina Zhiltcova,1996,Russia,42.25,100,107.5,110,110,-62.5,62.5,65,65,110,115,120,120,295,43,Juniors,SBD,F,Single-ply
1,Zina Demian,1997,Ukraine,46.71,130,137.5,-142.5,137.5,82.5,-85,85,85,115,122.5,125,125,347.5,47,Juniors,SBD,F,Single-ply
2,Natalia Fomina,1999,Russia,46.27,127.5,-132.5,-132.5,127.5,70,-75,-75,70,132.5,137.5,-150,137.5,335,47,Juniors,SBD,F,Single-ply
1,Anastasiya Chervyakova,1999,Russia,51.23,165,175,-180,175,87.5,92.5,95,95,140,150,-155,150,420,52,Juniors,SBD,F,Single-ply
2,Munira Fornaciari,1996,Italy,51.67,-160,167.5,-172.5,167.5,82.5,87.5,90,90,132.5,142.5,-147.5,142.5,400,52,Juniors,SBD,F,Single-ply
3,Viktoriia Hurak,1998,Ukraine,51.62,135,142.5,147.5,147.5,85,90,92.5,92.5,115,125,132.5,132.5,372.5,52,Juniors,SBD,F,Single-ply
1,Olga Ponomareva,2000,Russia,55.94,157.5,165,170,170,102.5,107.5,112.5,112.5,140,147.5,150,150,432.5,57,Juniors,SBD,F,Single-ply
2,Daria Pribulova,1997,Russia,56.88,-165,165,172.5,172.5,75,80,-85,80,142.5,150,162.5,162.5,415,57,Juniors,SBD,F,Single-ply
3,Yuliia Osiik,1998,Ukraine,56.97,160,170,175,175,85,92.5,95,95,145,-157.5,-157.5,145,415,57,Juniors,SBD,F,Single-ply
4,Kara Gautadóttir,1996,Iceland,56.49,160,-165,-165,160,87.5,-92.5,-92.5,87.5,142.5,150,-155,150,397.5,57,Juniors,SBD,F,Single-ply
5,Marlene Sabathy,1996,Austria,55.72,155,162.5,-170,162.5,-85,85,87.5,87.5,135,142.5,-152.5,142.5,392.5,57,Juniors,SBD,F,Single-ply
1,Matilda Vilmar,1996,Sweden,62.31,200,212.5,-225.5,212.5,135,145,150.5,150.5,160,172.5,-185,172.5,535.5,63,Juniors,SBD,F,Single-ply
2,Frida Aung,1997,Norway,61.24,177.5,-182.5,182.5,182.5,115,120,-125,120,175,182.5,-190,182.5,485,63,Juniors,SBD,F,Single-ply
3,Mariia Shenderchuk,1998,Ukraine,62.64,175,182.5,187.5,187.5,110,115,120,120,160,165,172.5,172.5,480,63,Juniors,SBD,F,Single-ply
4,Natalie Bjaanes,1999,Norway,62.15,167.5,175,-182.5,175,105,110,-115,110,150,160,170,170,455,63,Juniors,SBD,F,Single-ply
5,Amelia Maycock,2000,UK,60.96,-132.5,132.5,-142.5,132.5,70,-75,75,75,145,157.5,-170,157.5,365,63,Juniors,SBD,F,Single-ply
6,Tereza Rábová,1999,Czechia,61.96,130,135,-140,135,55,-65,-65,55,130,137.5,-142.5,137.5,327.5,63,Juniors,SBD,F,Single-ply
1,Sonja Stefanie Krüger,1999,Germany,66.48,-232.5,232.5,-237.5,232.5,157.5,-162.5,-162.5,157.5,182.5,192.5,197.5,197.5,587.5,72,Juniors,SBD,F,Single-ply
2,Ruslana Krasnova,2000,Ukraine,69.44,200,210,-220,210,115,122.5,127.5,127.5,165,175,180,180,517.5,72,Juniors,SBD,F,Single-ply
3,Julie Antonsen,1998,Norway,69.52,182.5,-190,-190,182.5,102.5,107.5,-112.5,107.5,175,-180,-180,175,465,72,Juniors,SBD,F,Single-ply
4,Lizzie Jones,1996,UK,70.61,165,-175,175,175,-102.5,102.5,-110,102.5,167.5,175,-177.5,175,452.5,72,Juniors,SBD,F,Single-ply
DQ,Ida Lis,2000,Poland,67.25,-230,-230,-230,,-110,110,-122.5,110,185,-195,-195,185,,72,Juniors,SBD,F,Single-ply
DQ,Emma Johansson,1996,Sweden,68.36,-185,-192.5,-192.5,,132.5,-140,-140,132.5,150,155,160,160,,72,Juniors,SBD,F,Single-ply
DQ,Ines Kahrer,1996,Austria,68.8,175,185,192.5,192.5,-122.5,-122.5,-122.5,,160,167.5,175,175,,72,Juniors,SBD,F,Single-ply
1,Jessika Lowe,1996,Sweden,73.06,-205,207.5,215,215,132.5,137.5,140,140,202.5,212.5,-220,212.5,567.5,84,Juniors,SBD,F,Single-ply
2,Mariia Lebedeva,1996,Russia,72.84,175,185,190,190,-115,115,120,120,150,170,-182.5,170,480,84,Juniors,SBD,F,Single-ply
3,Iulia Staneci-Coserea,1999,Romania,79.32,105,115,-122.5,115,72.5,-80,-80,72.5,105,120,-125,120,307.5,84,Juniors,SBD,F,Single-ply
DQ,Johanna Hübenthal,1996,Germany,81.15,215,220,225,225,-120,-120,-120,,207.5,217.5,225,225,,84,Juniors,SBD,F,Single-ply
DQ,Hronn Gardarsdottir Iris,1997,Iceland,83.42,-165,-165,-165,,-115,-115,-115,,162.5,-172.5,172.5,172.5,,84,Juniors,SBD,F,Single-ply
1,Alexandra Kitsul,2000,Russia,84.53,180,192.5,197.5,197.5,110,115,120,120,170,180,190,190,507.5,84+,Juniors,SBD,F,Single-ply
2,Anastasia Nazareva,1998,Russia,86.65,-190,-192.5,195,195,120,127.5,-132.5,127.5,155,160,-165,160,482.5,84+,Juniors,SBD,F,Single-ply
3,Wiktoria Zalesińska,2000,Poland,95.9,155,-170,170,170,55,-85,85,85,120,140,-162.5,140,395,84+,Juniors,SBD,F,Single-ply
DQ,Kristina Jurkaninova,1998,Slovakia,98.64,-195,-205,-210,,-107.5,107.5,110,110,160,175,192.5,192.5,,84+,Juniors,SBD,F,Single-ply
