Division,WeightClassKg,Place,Name,Team,BodyweightKg,Best3SquatKg,Best3BenchKg,Best3DeadliftKg,TotalKg,Equipment,Event,Sex
Girls,44.23,1,Ashley Fink,Little Elm,43.36,104.33,56.7,90.72,251.74,Single-ply,SBD,F
Girls,44.23,2,Maya Higginbotham,Wylie,43.64,104.33,43.09,102.06,249.48,Single-ply,SBD,F
Girls,44.23,3,Melissa Ocasio,Little Elm,43.82,86.18,56.7,99.79,242.67,Single-ply,SBD,F
Girls,44.23,4,Alex Villegas,Wylie East,41.37,88.45,45.36,104.33,238.14,Single-ply,SBD,F
Girls,44.23,5,Danielle Rodriguez,Princeton,41.73,79.38,43.09,81.65,204.12,Single-ply,SBD,F
Girls,44.23,6,Sabrina Cummings,Little Elm,42.09,86.18,40.82,70.31,197.31,Single-ply,SBD,F
Girls,44.23,7,Jackie Valdez,Gunter,44.18,70.31,,,70.31,Single-ply,S,F
Girls,44.23,8,Isabelle Castillo,Castleberry,40.28,52.16,,,52.16,Single-ply,S,F
Girls,47.85,1,Shelbie Rhodes,Little Elm,47.63,106.59,52.16,120.2,278.96,Single-ply,SBD,F
Girls,47.85,2,Nicole Scott,Princeton,47.72,90.72,68.04,102.06,260.82,Single-ply,SBD,F
Girls,47.85,3,Kaley Bell,Princeton,47.26,97.52,52.16,108.86,258.55,Single-ply,SBD,F
Girls,47.85,4,Genesis Zamora,Sherman,45.09,90.72,43.09,115.67,249.48,Single-ply,SBD,F
Girls,47.85,5,Marleigh Ortega,Wylie East,45.99,102.06,52.16,95.25,249.48,Single-ply,SBD,F
Girls,47.85,6,Molly Chhor,Little Elm,46.54,90.72,43.09,113.4,247.21,Single-ply,SBD,F
Girls,47.85,7,Carolina Dominguez,Castleberry,44.81,70.31,47.63,99.79,217.72,Single-ply,SBD,F
Girls,51.94,1,Sonni Gehring,Wylie,51.17,127.01,56.7,111.13,294.84,Single-ply,SBD,F
Girls,51.94,2,Jenny Tagle,Wylie,50.26,111.13,49.9,120.2,281.23,Single-ply,SBD,F
Girls,51.94,3,Cecelia Allen,Wylie,48.17,104.33,52.16,108.86,265.35,Single-ply,SBD,F
Girls,51.94,4,Kennedy Blackmon,Plano,47.99,102.06,52.16,108.86,263.08,Single-ply,SBD,F
Girls,51.94,5,Haley Bell,Princeton,50.08,90.72,49.9,108.86,249.48,Single-ply,SBD,F
Girls,51.94,6,Jessica Harlow,Wylie East,49.26,88.45,47.63,90.72,226.8,Single-ply,SBD,F
Girls,51.94,7,Alex Robinson,Gunter,51.71,79.38,43.09,83.91,206.38,Single-ply,SBD,F
Girls,51.94,8,Brooke Daniels,Nevada Community,50.53,68.04,34.02,83.91,185.97,Single-ply,SBD,F
Girls,51.94,9,Belen Fuentes,Plano,49.26,106.59,58.97,,165.56,Single-ply,SB,F
Girls,56.02,1,Bernabeth Beason,Wylie,53.89,131.54,77.11,131.54,340.19,Single-ply,SBD,F
Girls,56.02,2,Giovanna Valdez,Wylie,54.34,115.67,74.84,115.67,306.17,Single-ply,SBD,F
Girls,56.02,3,Izzi Fielder,Little Elm,55.25,117.93,61.23,120.2,299.37,Single-ply,SBD,F
Girls,56.02,4,Amy Trimble,Little Elm,54.25,117.93,56.7,102.06,276.69,Single-ply,SBD,F
Girls,56.02,5,Ally Hathaway,Wylie,52.89,106.59,56.7,97.52,260.82,Single-ply,SBD,F
Girls,56.02,6,Alyssa Allison,Lone Oak,55.07,106.59,45.36,99.79,251.74,Single-ply,SBD,F
Girls,56.02,7,Jolie Inglis,Wylie East,55.61,111.13,49.9,90.72,251.74,Single-ply,SBD,F
Girls,56.02,8,Daviona Amos,Princeton,54.07,79.38,52.16,104.33,235.87,Single-ply,SBD,F
Girls,56.02,9,Payton Davison,Frisco Heritage,52.89,95.25,38.56,90.72,224.53,Single-ply,SBD,F
Girls,56.02,10,Alicia Chavez,Terrell,55.61,79.38,58.97,83.91,222.26,Single-ply,SBD,F
Girls,56.02,11,McKenzie Brown,Frisco Heritage,54.7,92.99,45.36,81.65,219.99,Single-ply,SBD,F
Girls,56.02,12,Sasha Biehan,Gunter,53.98,72.57,45.36,70.31,188.24,Single-ply,SBD,F
Girls,56.02,13,Angie Quiano,Carrollton Turner,55.16,56.7,31.75,63.5,151.95,Single-ply,SBD,F
Girls,56.02,14,Pilar Rodriguez,Terrell,54.07,65.77,,70.31,136.08,Single-ply,SD,F
Girls,56.02,15,Lori Bookman,Terrell,55.16,74.84,43.09,,117.93,Single-ply,SB,F
Girls,56.02,16,Abri Davison,Plano,,83.91,,,83.91,Single-ply,S,F
Girls,56.02,17,Karen Lopez,Sherman,55.61,47.63,,,47.63,Single-ply,S,F
Girls,56.02,DQ,Cristina Sanchez,Wylie,55.43,,,,,Single-ply,SBD,F
Girls,60.1,1,Maddie Graham,Plano,58.06,158.76,106.59,142.88,408.23,Single-ply,SBD,F
Girls,60.1,2,Hannah Saldivar,Wylie,58.06,124.74,74.84,133.81,333.39,Single-ply,SBD,F
Girls,60.1,3,Alissa Saldivar,Wylie,58.79,124.74,70.31,129.27,324.32,Single-ply,SBD,F
Girls,60.1,4,Madisyn Betancur,Little Elm,59.15,106.59,61.23,136.08,303.91,Single-ply,SBD,F
Girls,60.1,5,Catherine Stowell,Wylie,60.06,111.13,70.31,120.2,301.64,Single-ply,SBD,F
Girls,60.1,6,Emily Tapia,Nevada Community,58.6,111.13,52.16,124.74,288.03,Single-ply,SBD,F
Girls,60.1,7,Nari Sherman,Frisco Heritage,60.06,102.06,61.23,117.93,281.23,Single-ply,SBD,F
Girls,60.1,8,Kaylee Rogers,Princeton,59.96,92.99,49.9,117.93,260.82,Single-ply,SBD,F
Girls,60.1,9,Shaylee Richardson,Wylie East,57.97,95.25,45.36,113.4,254.01,Single-ply,SBD,F
Girls,60.1,10,Baylee McEwen,Gunter,56.97,88.45,54.43,108.86,251.74,Single-ply,SBD,F
Girls,60.1,11,Lexi Murry,Melissa,57.15,88.45,52.16,99.79,240.4,Single-ply,SBD,F
Girls,60.1,12,Rachael Price,Castleberry,58.51,72.57,36.29,86.18,195.04,Single-ply,SBD,F
Girls,60.1,13,Emily Boyd,Texarkana Liberty-Eylau,59.42,72.57,38.56,79.38,190.51,Single-ply,SBD,F
Girls,60.1,14,Ashia Green,Texarkana Liberty-Eylau,58.42,65.77,47.63,74.84,188.24,Single-ply,SBD,F
Girls,60.1,15,Kimberly Wallace,Texarkana Liberty-Eylau,57.42,61.23,38.56,70.31,170.1,Single-ply,SBD,F
Girls,60.1,16,Molly Willingham,Nevada Community,58.51,61.23,24.95,83.91,170.1,Single-ply,SBD,F
Girls,60.1,17,Keyana Collier,Sherman,59.06,58.97,34.02,68.04,161.03,Single-ply,SBD,F
Girls,60.1,18,Yasly Sandoval,Carrollton Turner,58.6,45.36,27.22,54.43,127.01,Single-ply,SBD,F
Girls,60.1,19,Alyssa Murry,Melissa,59.96,68.04,29.48,,97.52,Single-ply,SB,F
Girls,60.1,20,Addie Ahlmeyer,Gunter,58.24,63.5,,,63.5,Single-ply,S,F
Girls,60.1,21,Mayra Olivo,Texarkana Liberty-Eylau,59.87,58.97,,,58.97,Single-ply,S,F
Girls,67.36,1,Courtney DeCoste,Wylie,67.31,156.49,74.84,156.49,387.82,Single-ply,SBD,F
Girls,67.36,2,Madalyn Whatley,Wylie,64.14,142.88,79.38,129.27,351.53,Single-ply,SBD,F
Girls,67.36,3,MyKiyah Whitfield,Little Elm,66.13,127.01,70.31,140.61,337.93,Single-ply,SBD,F
Girls,67.36,4,Desiree Murray,Princeton,66.13,115.67,56.7,115.67,288.03,Single-ply,SBD,F
Girls,67.36,5,Hannah Scott,Plano,63.68,106.59,61.23,113.4,281.23,Single-ply,SBD,F
Girls,67.36,6,Ashley Tice,Princeton,67.22,90.72,68.04,117.93,276.69,Single-ply,SBD,F
Girls,67.36,7,Faith Gunther,Princeton,64.5,104.33,56.7,113.4,274.42,Single-ply,SBD,F
Girls,67.36,8,Ashley Boatright,Sherman,65.68,102.06,47.63,90.72,240.4,Single-ply,SBD,F
Girls,67.36,9,Chaney Elvington,Gunter,60.87,88.45,47.63,97.52,233.6,Single-ply,SBD,F
Girls,67.36,10,Tristyn Boone,Lone Oak,63.59,79.38,29.48,111.13,219.99,Single-ply,SBD,F
Girls,67.36,11,Bailey Stevens,Frisco Heritage,67.31,90.72,47.63,77.11,215.46,Single-ply,SBD,F
Girls,67.36,12,Alex Droge,Lucas Lovejoy,63.05,79.38,49.9,83.91,213.19,Single-ply,SBD,F
Girls,67.36,13,Pattie Sparks,Melissa,66.68,79.38,34.02,92.99,206.38,Single-ply,SBD,F
Girls,67.36,14,Estella Galarza,Carrollton Creekview,63.5,65.77,36.29,90.72,192.78,Single-ply,SBD,F
Girls,67.36,15,Tiyah Braxton,Texarkana Liberty-Eylau,61.51,102.06,52.16,,154.22,Single-ply,SB,F
Girls,67.36,16,Ally Caraway,Lucas Lovejoy,63.32,102.06,,,102.06,Single-ply,S,F
Girls,67.36,17,Sara Diaz,Carrollton Turner,64.14,38.56,,,38.56,Single-ply,S,F
Girls,67.36,DQ,Taylor Roland,Lucas Lovejoy,65.59,,,,,Single-ply,SBD,F
Girls,75.07,1,Emily Jondron,Princeton,74.75,156.49,113.4,140.61,410.5,Single-ply,SBD,F
Girls,75.07,2,Onize Musa,Wylie,74.75,149.69,70.31,154.22,374.21,Single-ply,SBD,F
Girls,75.07,3,Neiddy Rodriguez,Wylie,75.07,170.1,56.7,147.42,374.21,Single-ply,SBD,F
Girls,75.07,4,Nancy Yousif,Frisco Heritage,72.21,165.56,61.23,117.93,344.73,Single-ply,SBD,F
Girls,75.07,5,Marissa Lutz,Lone Oak,74.21,133.81,52.16,127.01,312.98,Single-ply,SBD,F
Girls,75.07,6,Amaya Robertson,Plano,73.3,136.08,47.63,120.2,303.91,Single-ply,SBD,F
Girls,75.07,7,Madison Burke,Wylie East,72.76,104.33,61.23,120.2,285.76,Single-ply,SBD,F
Girls,75.07,8,Brenna Price,Wylie East,69.4,104.33,45.36,108.86,258.55,Single-ply,SBD,F
Girls,75.07,9,Natalia Cox,Melissa,70.58,95.25,61.23,102.06,258.55,Single-ply,SBD,F
Girls,75.07,10,Kaitlyn Hensley,Sherman,69.67,104.33,54.43,97.52,256.28,Single-ply,SBD,F
Girls,75.07,11,Aubrie Shaw,Lone Oak,68.13,97.52,47.63,92.99,238.14,Single-ply,SBD,F
Girls,75.07,12,Victoria Walker,Nevada Community,74.12,83.91,52.16,102.06,238.14,Single-ply,SBD,F
Girls,75.07,13,Matti Speaker,Sherman,70.4,56.7,45.36,68.04,170.1,Single-ply,SBD,F
Girls,75.07,14,Destiny Neshyba,Princeton,70.94,131.54,,,131.54,Single-ply,S,F
Girls,75.07,15,Lisa Vega,Terrell,75.02,79.38,,,79.38,Single-ply,S,F
Girls,75.07,DQ,Courtney Kessler,Frisco Heritage,69.94,,,,,Single-ply,SBD,F
Girls,82.33,1,Abi Lutz,Wylie East,82.28,192.78,102.06,163.29,458.13,Single-ply,SBD,F
Girls,82.33,2,Ashtyn Burget,Wylie,78.83,165.56,95.25,165.56,426.38,Single-ply,SBD,F
Girls,82.33,3,Faith Goins,Little Elm,79.11,136.08,77.11,149.69,362.87,Single-ply,SBD,F
Girls,82.33,4,Lauren Foley,Wylie East,76.38,147.42,68.04,138.35,353.8,Single-ply,SBD,F
Girls,82.33,5,Krissy Fibiger-Hjortnaes,Plano,80.65,129.27,47.63,122.47,299.37,Single-ply,SBD,F
Girls,82.33,6,Laeticia Evang,Wylie,77.93,115.67,58.97,115.67,290.3,Single-ply,SBD,F
Girls,82.33,7,Sephanie Norton,Nevada Community,78.74,124.74,61.23,102.06,288.03,Single-ply,SBD,F
Girls,82.33,8,Juliana Landa,Carrollton Turner,76.29,34.02,22.68,52.16,108.86,Single-ply,SBD,F
Girls,82.33,9,Brianna Sims,Castleberry,81.19,,88.45,,88.45,Single-ply,B,F
Girls,82.33,DQ,Emma Dang,Frisco Heritage,79.65,,,,,Single-ply,SBD,F
Girls,90.04,1,Madalyn Whaley,Wylie,84.82,158.76,88.45,136.08,383.29,Single-ply,SBD,F
Girls,90.04,2,Kayla Young,Princeton,89.27,127.01,83.91,145.15,356.07,Single-ply,SBD,F
Girls,90.04,3,Hailey Covington,Wylie,86.45,136.08,79.38,133.81,349.27,Single-ply,SBD,F
Girls,90.04,DQ,Marielle Crump-McClain,Wylie,89.99,136.08,,,,Single-ply,SBD,F
Girls,90.04,DQ,Libby McCune,Wylie East,87.91,124.74,61.23,,,Single-ply,SBD,F
Girls,100.02,1,Kelsy Medlin,Wylie East,99.61,185.97,74.84,113.4,374.21,Single-ply,SBD,F
Girls,100.02,2,Destiny Estrada,Princeton,98.43,142.88,77.11,138.35,358.34,Single-ply,SBD,F
Girls,100.02,3,Jazmin Huckestein,Sherman,95.44,133.81,86.18,131.54,351.53,Single-ply,SBD,F
Girls,100.02,4,Hallee Kolarek,Little Elm,98.52,136.08,56.7,122.47,315.25,Single-ply,SBD,F
Girls,100.02,5,Alicia Vazquez,Castleberry,92.9,108.86,61.23,124.74,294.84,Single-ply,SBD,F
Girls,100.02,6,Mattison Woodlee,Lone Oak,98.43,129.27,45.36,102.06,276.69,Single-ply,SBD,F
Girls,100.02,7,Celeste Sanchez,Castleberry,94.89,102.06,43.09,106.59,251.74,Single-ply,SBD,F
Girls,100.02,8,Silvia Viramontes,Melissa,90.72,102.06,29.48,83.91,215.46,Single-ply,SBD,F
Girls,100.02,9,Hanna Beattie,Wylie,94.8,183.7,,,183.7,Single-ply,S,F
Girls,117.71,1,Priscilla Adejokun,Melissa,101.24,226.8,106.59,226.8,560.19,Single-ply,SBD,F
Girls,117.71,2,Victoria Martinez #3,Wylie,106.32,165.56,97.52,138.35,401.43,Single-ply,SBD,F
Girls,117.71,3,Kadeija Edwards,Wylie,104.51,158.76,81.65,151.95,392.36,Single-ply,SBD,F
Girls,117.71,4,Andrea Torres,Sherman,113.94,147.42,63.5,151.95,362.87,Single-ply,SBD,F
Girls,117.71,5,Jaqueline Hernandez,Carrollton Turner,106.59,74.84,45.36,68.04,188.24,Single-ply,SBD,F
Girls,117.71,6,Ashley Irving,Texarkana Liberty-Eylau,106.14,158.76,,,158.76,Single-ply,S,F
Girls,117.71,7,Shelby Parkman,Gunter,107.95,113.4,,,113.4,Single-ply,S,F
Girls,117.71,8,Madyson Mills,Wylie East,111.49,113.4,,,113.4,Single-ply,S,F
Girls,117.71+,1,Alex Headley,Plano,152.59,183.7,83.91,154.22,421.84,Single-ply,SBD,F
Girls,,NS,Ginger Phennell,Princeton,,,,,,Single-ply,SBD,F
Girls,,NS,Maddi Curry,Plano,,,,,,Single-ply,SBD,F
Girls,,NS,Jaileen Sunsin,Plano,,,,,,Single-ply,SBD,F
Girls,,NS,Natalie Courtney,Melissa,,,,,,Single-ply,SBD,F
Girls,,NS,Tori Hutson,Lone Oak,,,,,,Single-ply,SBD,F
Girls,,NS,Karissa Sanders,Lucas Lovejoy,,,,,,Single-ply,SBD,F
Girls,,NS,Delyse Mitchell,Carrollton Creekview,,,,,,Single-ply,SBD,F
Girls,,NS,Kieri Fuentes,Carrollton Creekview,,,,,,Single-ply,SBD,F
Girls,,NS,Suzell Garcia,Castleberry,,,,,,Single-ply,SBD,F
Girls,,NS,Diana Romas,Carrollton Turner,,,,,,Single-ply,SBD,F
Girls,,NS,Gisselle Garcia,Castleberry,,,,,,Single-ply,SBD,F
Girls,,NS,Lyla Wilkins,Castleberry,,,,,,Single-ply,SBD,F
Girls,,NS,Rachel Funes,Castleberry,,,,,,Single-ply,SBD,F
Girls,,NS,Jeannette Santos,Castleberry,,,,,,Single-ply,SBD,F
Girls,,NS,Monse Velazquez,Gunter,,,,,,Single-ply,SBD,F
Girls,,NS,Brenna Little,Wylie,,,,,,Single-ply,SBD,F
Girls,,NS,Michelle Andrade,Terrell,,,,,,Single-ply,SBD,F
Girls,,NS,Cielo Sandoval,Terrell,,,,,,Single-ply,SBD,F
Girls,,NS,Jacqueline Pina,Terrell,,,,,,Single-ply,SBD,F
Girls,,NS,Paloma Pacheco,Terrell,,,,,,Single-ply,SBD,F
Girls,,NS,Madison Keto,Terrell,,,,,,Single-ply,SBD,F
