Division,WeightClassKg,Place,Name,Team,BodyweightKg,Best3SquatKg,Best3BenchKg,Best3DeadliftKg,TotalKg,Equipment,Event,Sex,BirthDate
Boys,51.71,1,Jaydan Flemmons,Jasper,51.62,142.88,81.65,167.83,392.36,Single-ply,SBD,M,
Boys,51.71,2,Jose Ruiz,Diboll,49.58,124.74,61.23,124.74,310.71,Single-ply,SBD,M,
Boys,51.71,3,Abizai Reyes,Nacogdoches,51.26,86.18,49.9,115.67,251.74,Single-ply,SBD,M,
Boys,55.79,1,Lukthaddeus Collins,Jasper,55.34,183.7,102.06,190.51,476.27,Single-ply,SBD,M,
Boys,59.87,1,Jacob Stephens,Nacogdoches,58.24,102.06,68.04,120.2,290.3,Single-ply,SBD,M,
Boys,59.87,2,Joseph Stephens,Nacogdoches,59.87,83.91,63.5,102.06,249.48,Single-ply,SBD,M,
Boys,67.13,1,Andre Thomas,Jasper,64.23,183.7,133.81,176.9,494.42,Single-ply,SBD,M,
Boys,67.13,2,Julian Diaz,Lufkin,62.41,163.29,90.72,179.17,433.18,Single-ply,SBD,M,
Boys,67.13,3,Christian Diaz,Lufkin,61.96,158.76,,170.1,328.85,Single-ply,SD,M,
Boys,67.13,4,Taylor Pride,Huntington,66.41,61.23,,90.72,151.95,Single-ply,SD,M,
Boys,67.13,DQ,Akira Montgomery,Diboll,64.64,,,,,Single-ply,SBD,M,
Boys,74.84,1,James Pulliam,Jasper,74.12,199.58,120.2,229.06,548.85,Single-ply,SBD,M,
Boys,74.84,2,Hunter Mayes,Huntington,73.66,181.44,115.67,192.78,489.88,Single-ply,SBD,M,
Boys,74.84,3,Macus Parnell,Jasper,70.49,158.76,117.93,183.7,460.4,Single-ply,SBD,M,
Boys,74.84,4,Victor Ayala,Diboll,74.34,188.24,97.52,172.37,458.13,Single-ply,SBD,M,
Boys,74.84,5,Byrone Grant,Jasper,72.57,156.49,115.67,181.44,453.59,Single-ply,SBD,M,
Boys,74.84,6,Jacob Smith,Huntington,74.21,149.69,86.18,158.76,394.63,Single-ply,SBD,M,
Boys,74.84,7,Leo Sanchez,Diboll,68.99,142.88,81.65,142.88,367.41,Single-ply,SBD,M,
Boys,74.84,8,Perrin Teer,Huntington,69.67,97.52,70.31,145.15,312.98,Single-ply,SBD,M,
Boys,82.1,1,Cason Chandler,Jasper,79.29,215.46,147.42,215.46,578.33,Single-ply,SBD,M,
Boys,82.1,2,Nick Moore #3,Lufkin,81.65,183.7,113.4,204.12,501.22,Single-ply,SBD,M,
Boys,82.1,3,Nikiethen Hafford,Jasper,81.83,197.31,106.59,183.7,487.61,Single-ply,SBD,M,
Boys,82.1,4,James Paxon,Huntington,78.38,170.1,95.25,188.24,453.59,Single-ply,SBD,M,
Boys,82.1,5,Peyton Goodwin,Chireno,77.61,156.49,104.33,185.97,446.79,Single-ply,SBD,M,
Boys,82.1,6,Jose Garcia,Diboll,82.01,149.69,92.99,163.29,405.97,Single-ply,SBD,M,
Boys,82.1,7,Karson Smith,Diboll,77.38,158.76,86.18,149.69,394.63,Single-ply,SBD,M,
Boys,82.1,8,Kayden Carraway,Jasper,79.38,156.49,72.57,165.56,394.63,Single-ply,SBD,M,
Boys,82.1,9,John Kenny Flood,Huntington,80.74,117.93,83.91,142.88,344.73,Single-ply,SBD,M,
Boys,89.81,1,Trenton Hamilton,Diboll,88.36,154.22,106.59,158.76,419.57,Single-ply,SBD,M,
Boys,89.81,2,Yahir Escarcega,Nacogdoches,89.81,158.76,74.84,165.56,399.16,Single-ply,SBD,M,
Boys,89.81,3,Khaden Maxie,Lufkin,88.27,,111.13,219.99,331.12,Single-ply,BD,M,
Boys,89.81,DQ,Emmanuel Garcia,Nacogdoches,83.28,,,,,Single-ply,SBD,M,
Boys,99.79,1,Hayden McLeroy,Diboll,98.2,244.94,131.54,231.33,607.81,Single-ply,SBD,M,
Boys,99.79,2,Bryce Owens,Lufkin,99.61,217.72,131.54,235.87,585.13,Single-ply,SBD,M,
Boys,99.79,3,Landon Dodge,Diboll,94.66,195.04,120.2,204.12,519.36,Single-ply,SBD,M,
Boys,99.79,4,Caleb Berry,Lufkin,96.25,183.7,115.67,190.51,489.88,Single-ply,SBD,M,
Boys,99.79,5,Enrique Contreras,Lufkin,99.79,181.44,111.13,174.63,467.2,Single-ply,SBD,M,
Boys,99.79,6,Sam Flack,Lufkin,96.71,170.1,102.06,192.78,464.93,Single-ply,SBD,M,
Boys,99.79,7,Javeris Riley-Hafford,Jasper,93.26,151.95,115.67,181.44,449.06,Single-ply,SBD,M,
Boys,99.79,8,Ken Zamudeo,Nacogdoches,92.62,158.76,90.72,163.29,412.77,Single-ply,SBD,M,
Boys,99.79,9,Jesus Ibarra,Nacogdoches,98.61,185.97,,179.17,365.14,Single-ply,SD,M,
Boys,109.77,1,Edrick Adams,Jasper,106.59,256.28,179.17,219.99,655.44,Single-ply,SBD,M,
Boys,109.77,2,Kayson Elijah,Lufkin,108.95,219.99,151.95,247.21,619.15,Single-ply,SBD,M,
Boys,109.77,3,Aidan Henson,Huntington,103.6,206.38,120.2,215.46,542.04,Single-ply,SBD,M,
Boys,109.77,4,Stacey Whitaker,Nacogdoches,101.15,213.19,138.35,179.17,530.7,Single-ply,SBD,M,
Boys,109.77,5,Devin Luker,Huntington,106.68,215.46,108.86,201.85,526.17,Single-ply,SBD,M,
Boys,109.77,6,Noah Ross,Huntington,107.32,201.85,104.33,213.19,519.36,Single-ply,SBD,M,
Boys,109.77,7,Wilburn Smallwood,Lufkin,103.78,181.44,115.67,219.99,517.1,Single-ply,SBD,M,
Boys,109.77,8,Damyan Rojas,Diboll,107.09,181.44,117.93,174.63,474,Single-ply,SBD,M,
Boys,109.77,9,Joe Leon,Nacogdoches,101.33,154.22,83.91,172.37,410.5,Single-ply,SBD,M,
Boys,109.77,10,Payton Pearson,Chireno,109.77,102.06,68.04,117.93,288.03,Single-ply,SBD,M,
Boys,124.74,1,Ethan Mendoza,Diboll,117.07,226.8,117.93,206.38,551.11,Single-ply,SBD,M,
Boys,124.74,2,Josiah Smith,Nacogdoches,124.47,201.85,138.35,192.78,532.97,Single-ply,SBD,M,
Boys,124.74,3,Jimmy Soto,Nacogdoches,113.13,197.31,136.08,174.63,508.02,Single-ply,SBD,M,
Boys,124.74,4,Jamarion Johnson,Lufkin,115.85,183.7,90.72,210.92,485.34,Single-ply,SBD,M,
Boys,124.74,5,Gage Spikes,Jasper,119.2,176.9,122.47,185.97,485.34,Single-ply,SBD,M,
Boys,124.74,6,Jermaine Thomas,Jasper,117.03,165.56,,192.78,358.34,Single-ply,SD,M,
Boys,124.74,7,Quincy Coleman,Diboll,124.38,,115.67,172.37,288.03,Single-ply,BD,M,
Boys,124.74+,1,Shunmarkus Adams,Jasper,146.69,256.28,167.83,249.48,673.58,Single-ply,SBD,M,
Boys,124.74+,2,Andrew Culpepper,Huntington,148.23,238.14,142.88,226.8,607.81,Single-ply,SBD,M,
Boys,124.74+,3,Joshua Rigsby,Jasper,129.55,226.8,138.35,233.6,598.74,Single-ply,SBD,M,
Boys,124.74+,4,Riley Self,Lufkin,139.16,219.99,131.54,231.33,582.87,Single-ply,SBD,M,
Boys,124.74+,5,Jordan Payne,Huntington,140.61,240.4,113.4,217.72,571.53,Single-ply,SBD,M,
Boys,124.74+,6,Kedaren Holman,Lufkin,129.91,204.12,120.2,240.4,564.72,Single-ply,SBD,M,
Boys,124.74+,7,Aaron Smith,Lufkin,151.77,231.33,145.15,188.24,564.72,Single-ply,SBD,M,
Boys,124.74+,8,Tre'Vaun Jenkins,Lufkin,127.46,206.38,129.27,206.38,542.04,Single-ply,SBD,M,
