Place,Name,Event,Equipment,Country,Age,Sex,BodyweightKg,Division,WeightClassKg,Squat1Kg,Squat2Kg,Squat3Kg,Squat4Kg,Best3SquatKg,Bench1Kg,Bench2Kg,Bench3Kg,Bench4Kg,Best3BenchKg,Deadlift1Kg,Deadlift2Kg,Deadlift3Kg,Deadlift4Kg,Best3DeadliftKg,TotalKg
1,Andrej Reidinger,SBD,Wraps,Czechia,16,M,56.6,T 16-17,60,80,90,100,-105,100,-55,65,-75,,65,90,105,120,125,120,285
1,Lukács Dömény,SBD,Wraps,Slovakia,17,M,61.7,T 16-17,67.5,140,150,-160,-160,150,70,80,-85,-85,80,170,180,-190,-190,180,410
1,Daniel Danko,SBD,Wraps,Slovakia,17,M,70.6,T 16-17,75,-140,140,145,,145,90,95,100,,100,170,180,185,,185,430
2,Méry Csaba,SBD,Wraps,Slovakia,17,M,73,T 16-17,75,130,-140,-140,,130,90,102.5,-115,,102.5,180,195,-205,,195,427.5
3,Krisztián Deme,SBD,Wraps,Slovakia,16,M,72.6,T 16-17,75,-130,130,145,,145,110,120,-122.5,,120,140,155,-165,,155,420
1,Csaba Bajczer,SBD,Wraps,Hungary,17,M,80.7,T 16-17,82.5,190,205,215,,215,120,130,135,140.5,135,250,262.5,270,,270,620
1,Martin Kentoš,SBD,Wraps,Slovakia,17,M,99.1,T 16-17,100,210,220,230.5,,230.5,130,140.5,145,,145,240,-250.5,-250.5,,240,615.5
1,Máté Kiss,SBD,Wraps,Hungary,19,M,64.6,T 18-19,67.5,160,-175,-185,,160,90,97.5,-102.5,,97.5,180,190,-210.5,,190,447.5
1,Oliver Kurek,SBD,Wraps,Slovakia,19,M,74.9,T 18-19,75,200,-210,-210,,200,120,125,127.5,-138,127.5,235,250,260,-270,260,587.5
DQ,Dominik Fullajtár,SBD,Wraps,Slovakia,19,M,73.7,T 18-19,75,-200,-200,-200,,,,,,,,,,,,,
1,David Koukal,SBD,Wraps,Czechia,19,M,81.4,T 18-19,82.5,210,220,-240,,220,140,150,-155,,150,260,280,-290,,280,650
2,Igor Takács,SBD,Wraps,Slovakia,18,M,81.3,T 18-19,82.5,-205,205,215,225,215,125,135,-140,,135,225,240,250,,250,600
3,David Benca,SBD,Wraps,Slovakia,18,M,81.2,T 18-19,82.5,190,-200,200,,200,-135,-135,135,,135,200,-210,-210,,200,535
4,Zoltán Horváth #2,SBD,Wraps,Hungary,18,M,79.9,T 18-19,82.5,-175,175,192.5,,192.5,100,107.5,110,,110,200,210,-215,,210,512.5
1,Martin Šuverík,SBD,Wraps,Slovakia,18,M,89.8,T 18-19,90,260,270,-275,,270,150,162.5,167.5,,167.5,250,262.5,-270,,262.5,700
2,Roman Dokulil,SBD,Wraps,Czechia,18,M,88.2,T 18-19,90,170,180,-190,,180,120,130,135,,135,220,240,-250,,240,555
3,Juraj Bokroš,SBD,Wraps,Slovakia,19,M,88.6,T 18-19,90,170,190,210,,210,120,125,-130,,125,170,185,200,,200,535
4,Kevin Anthony Kalapoš,SBD,Wraps,Slovakia,18,M,89.3,T 18-19,90,185,195,-205,,195,-110,115,-120,,115,210,-220,-220,,210,520
5,Tomáš Štrob,SBD,Wraps,Czechia,18,M,83.6,T 18-19,90,140,160,170,,170,90,115,-125,,115,180,-200,-200,,180,465
1,Matěj Syrovátka,SBD,Wraps,Czechia,19,M,95.5,T 18-19,100,280,300,320,,320,180,192.5,201,,201,280,310,320,,320,841
1,Petr Sudík,SBD,Wraps,Czechia,18,M,134,T 18-19,140,-220,230,240,,240,130,140,145,,145,270,-285,-285,,270,655
1,František Šuška,SBD,Wraps,Slovakia,23,M,74.6,Juniors,75,225,235,245,,245,130,135,137.5,,137.5,210,230,240,,240,622.5
2,Antonín Prokeš,SBD,Wraps,Czechia,21,M,72.4,Juniors,75,210,220,225,,225,110,115,-120,,115,-260,260,-280,,260,600
3,Alexander Wartig,SBD,Wraps,Germany,22,M,74.1,Juniors,75,180,190,-195,,190,120,130,-135,,130,200,215,225,,225,545
4,Lukáš Barányi,SBD,Wraps,Slovakia,23,M,73.6,Juniors,75,155,165,-175,,165,90,95,100,,100,185,195,205,,205,470
1,Balázs Hajdú,SBD,Wraps,Hungary,21,M,81.6,Juniors,82.5,255.5,270,280,,280,165,-175,-175,,165,-275,290,-300,,290,735
2,Gergely Marton,SBD,Wraps,Hungary,22,M,80.9,Juniors,82.5,205,225,232.5,,232.5,135,147.5,-152.5,,147.5,240,-280,-280,,240,620
1,Árpád Ignéczi,SBD,Wraps,Hungary,23,M,88.1,Juniors,90,240,255,265,,265,175,185,-190.5,,185,280,302.5,312.5,,312.5,762.5
2,Peter Bihári,SBD,Wraps,Slovakia,23,M,88.5,Juniors,90,205,220,235,,235,130,140,147.5,,147.5,225,235,-240,,235,617.5
3,Marcel Kleuß,SBD,Wraps,Germany,22,M,86.6,Juniors,90,190,200,-215,,200,125,135,-140,,135,210,220,-230,,220,555
1,Martin Dvořáček,SBD,Wraps,Czechia,21,M,97,Juniors,100,290,320,335,,335,170,183,195,200,195,-310,310,-340,,310,840
2,Zdeněk Marvan,SBD,Wraps,Czechia,21,M,99.7,Juniors,100,250,265,,,265,150,160,165,,165,235,242.5,-250,,242.5,672.5
3,Tomáš Kunc,SBD,Wraps,Czechia,23,M,99.7,Juniors,100,240,-250,-260,,240,130,140,145,,145,270,285,-295,,285,670
4,Aram Grigoryan,SBD,Wraps,Armenia,23,M,99,Juniors,100,220,-230,-230,,220,140,150,-160,,150,230,250,,,250,620
1,Martin Havlíček,SBD,Wraps,Czechia,20,M,106.4,Juniors,110,300,310,-320,,310,160,165,-170,,165,315,330,340,,340,815
2,Dominik Piecha,SBD,Wraps,Poland,23,M,104.3,Juniors,110,185,-195,-210,,185,145,152.5,160,,160,210,220,230,,230,575
3,Leroy Bachmann,SBD,Wraps,Germany,22,M,109.5,Juniors,110,200,-210,-210,,200,110,120,-130,,120,200,-210,210,,210,530
1,Patrik Somorovský,SBD,Wraps,Slovakia,23,M,121.2,Juniors,125,300,325,335,,335,190,200,-202.5,,200,300,320,-335,,320,855
2,Zoltán Borbíró,SBD,Wraps,Hungary,23,M,115.8,Juniors,125,260,280,-300,,280,170,-180,180,,180,320,-340,-340,,320,780
3,Mirko Poljak,SBD,Wraps,Croatia,21,M,120.5,Juniors,125,260,275,-290,,275,195,205,212.5,,212.5,250,260,,,260,747.5
1,Luka Udiljak,SBD,Wraps,Croatia,21,M,133.6,Juniors,140,297.5,315,-325,,315,177.5,187.5,192.5,,192.5,310,330,345,,345,852.5
1,Erni Gregorčič,SBD,Wraps,Slovenia,42,M,74.8,M 40-44,75,200,211,216,,216,140,147.5,151,,151,230,245,256,,256,623
2,Michal Móry,SBD,Wraps,Slovakia,40,M,73.1,M 40-44,75,145,155,170,,170,105,110,-115,,110,200,210,220,,220,500
1,Khachatur Hovhannisyan,SBD,Wraps,Armenia,44,M,90,M 40-44,90,240,-250,-260,,240,170,185,-190,,185,250,260,-265,,260,685
1,Martin Horák,SBD,Wraps,Czechia,41,M,97.3,M 40-44,100,220,230,-240,,230,160,165,-170,,165,-230,230,235,,235,630
1,Zsolt Antal,SBD,Wraps,Hungary,43,M,108.5,M 40-44,110,275,290,300,,300,175,190,-196,,190,280,-300,300,-310,300,790
2,Lajos Bán,SBD,Wraps,Hungary,41,M,109,M 40-44,110,220,230,240,,240,100,120,130,,130,240,250,-262.5,,250,620
DQ,Mario Maier,SBD,Wraps,Germany,40,M,107.1,M 40-44,110,250,270,-290,,270,,,,,,,,,,,
1,Ľubomír Majstrák,SBD,Wraps,Slovakia,44,M,112.9,M 40-44,125,130,140,150,,150,60,,,,60,130,140,150,,150,360
1,Sándor Vörös,SBD,Wraps,Slovakia,43,M,137.4,M 40-44,140,300,320,340,,340,200,225,-230.5,,225,70,,,,70,635
1,Steffen Giesecke,SBD,Wraps,Germany,47,M,65.9,M 45-49,67.5,130,140,145,,145,100,105,-107.5,,105,160,170,180,192.5,180,430
1,Ronny Stein,SBD,Wraps,Germany,46,M,82.4,M 45-49,82.5,190,200,207.5,,207.5,125,135,142.5,,142.5,220,240,-250,,240,590
2,Tám Nguyen,SBD,Wraps,Slovakia,48,M,82.4,M 45-49,82.5,140,160,170,,170,140,150,155,,155,160,190,200,,200,525
1,Anton Frič,SBD,Wraps,Slovakia,45,M,89,M 45-49,90,252.5,270,280,,280,152.5,167.5,172.5,,172.5,240,260,275,,275,727.5
1,Marián Hudec,SBD,Wraps,Slovakia,48,M,99.6,M 45-49,100,-190,-190,190,,190,135,140,-150,,140,215,225,237.5,,237.5,567.5
2,Leoš Herák,SBD,Wraps,Czechia,49,M,97.7,M 45-49,100,205,-220,220,,220,135,-145,,,135,200,210,-215,,210,565
DQ,Dave Rade,SBD,Wraps,Switzerland,48,M,91.3,M 45-49,100,-250,-250,-250,,,,,,,,,,,,,
1,Tibor Pukáč,SBD,Wraps,Slovakia,47,M,106.9,M 45-49,110,265,-282.5,285,,285,165,-172.5,-175,,165,245,250,-257.5,,250,700
2,Marco Lamprecht,SBD,Wraps,Germany,45,M,109.5,M 45-49,110,260,281,295,,295,132.5,-140,-140,,132.5,225,240,,,240,667.5
3,Richard Eartly,SBD,Wraps,USA,45,M,107.7,M 45-49,110,195,205,227.5,,227.5,162.5,172.5,-182.5,,172.5,205,235,-242.5,,235,635
1,Róbert Franyó,SBD,Wraps,Hungary,46,M,110.1,M 45-49,125,210,225,235,,235,150,170,,,170,210,,,,210,615
2,Goran Rankovic,SBD,Wraps,Germany,49,M,114.3,M 45-49,125,-175,175,190,,190,135,145,-150,,145,205,225,240,,240,575
DQ,Radek Lešiga,SBD,Wraps,Czechia,47,M,111.8,M 45-49,125,-215,-225,-225,,,,,,,,,,,,,
1,Oliver Dorsch,SBD,Wraps,Germany,45,M,133.8,M 45-49,140,280,300,-310,,300,170,180,-182.5,,180,-270,270,,,270,750
DQ,Tomáš Leinveber,SBD,Wraps,Czechia,46,M,140.9,M 45-49,140+,-250,-250,-250,,,,,,,,,,,,,
1,Krzysztof Tur,SBD,Wraps,Poland,51,M,89.5,M 50-54,90,205,215,226,,226,140,150,155,,155,225,235,240,,240,621
2,Conny Händel,SBD,Wraps,Germany,50,M,88.2,M 50-54,90,150,160,-170,,160,100,107.5,112.5,,112.5,180,192.5,-205,,192.5,465
1,Urs Auf der Maur,SBD,Wraps,Switzerland,50,M,105,M 50-54,110,280,300,320,,320,160,170,-180,,170,300,325,-330,,325,815
1,Gagik Tonoyan,SBD,Wraps,Armenia,52,M,114.4,M 50-54,125,250,270,,,270,130,-140,-140,,130,280,290,-300,,290,690
2,Tibor Varga,SBD,Wraps,Hungary,53,M,116.7,M 50-54,125,-180,-180,180,,180,145,155,-162.5,,155,200,215,,,215,550
1,Hakki Bozat,SBD,Wraps,Turkey,57,M,70.6,M 55-59,75,-125,-125,125,,125,90,95,-100,,95,160,170,180,,180,400
1,Pinato Mirco,SBD,Wraps,Switzerland,55,M,97,M 55-59,100,160,-180,180,,180,130,140,150,,150,180,200,215,,215,545
2,Luboš Halenkovský,SBD,Wraps,Czechia,58,M,97.9,M 55-59,100,130,150,-165,,150,110,115,120,,120,180,200,,,200,470
1,Janusz Witkowski,SBD,Wraps,Poland,58,M,110,M 55-59,110,180,190,202.5,,202.5,135,-142.5,-142.5,,135,190,205,212.5,,212.5,550
1,František Makranský,SBD,Wraps,Slovakia,56,M,119,M 55-59,125,250,-265,-265,,250,150,160,-170,,160,240,250,-260,,250,660
1,Gottfried Foltas,SBD,Wraps,Germany,60,M,81.5,M 60-64,82.5,145,152.5,160,,160,95,102.5,-105,,102.5,175,190,202.5,,202.5,465
1,Ondrej Döme,SBD,Wraps,Slovakia,62,M,97.3,M 60-64,100,120,-130,130,,130,110,125,130,,130,-127.5,130,-150,,130,390
1,Wiesław Wrŏbel,SBD,Wraps,Poland,61,M,100.1,M 60-64,110,200,220,230,,230,120,127.5,-132.5,,127.5,230,252.5,270,,270,627.5
1,František Albert,SBD,Wraps,Slovakia,66,M,68.1,M 65-69,75,85,95,105,,105,55,60,65,,65,115,125,-130,,125,295
1,Adam Jasiński,SBD,Wraps,Poland,67,M,79,M 65-69,82.5,205,-212.5,215,,215,105,110,-115,,110,205,210,215,,215,540
2,Miklós Kardos,SBD,Wraps,Hungary,67,M,81.2,M 65-69,82.5,125,-135,135,,135,-85,85,-90,,85,150,-160,,,150,370
1,Józef Bejgrowicz,SBD,Wraps,Poland,65,M,84,M 65-69,90,150,-175,175,,175,80,85,87.5,,87.5,210,222.5,227.5,,227.5,490
1,Panajotis Bachcevanidis,SBD,Wraps,Czechia,67,M,105.2,M 65-69,110,100,115,120,,120,80,90,92.5,,92.5,120,137.5,145,,145,357.5
1,Wolfgang Hökendorf,SBD,Wraps,Germany,72,M,66.9,M 70-74,67.5,85,95,100,-107,100,65,70,72.5,,72.5,105,115,-125,,115,287.5
1,Ladislau Kiss,SBD,Wraps,Hungary,70,M,98.7,M 70-74,100,190,200,210,,210,110,120,-130,,120,230,240,,,240,570
1,Paun Rankovic,SBD,Wraps,Germany,77,M,82.2,M 75-79,82.5,-90,95,-105,,95,65,-70,70,,70,110,-120,130,,130,295
1,Csaba Keszthelyi,SBD,Wraps,Hungary,85,M,75,M 80+,75,85,92.5,95,,95,67.5,72.5,75,,75,115,122.5,125,,125,295
1,Monika Vaľková,SBD,Wraps,Slovakia,16,F,66.1,T 16-17,67.5,100,-110.5,110.5,,110.5,40,45,50,53,50,100,105.5,,,105.5,266
1,Kristína Kastelic,SBD,Wraps,Slovenia,17,F,74.1,T 16-17,75,-120,-120,120,-130,120,35,-40,40,,40,120,130,140,-145,140,300
1,Alexandra Hubinská,SBD,Wraps,Slovakia,18,F,66.1,T 18-19,67.5,115,-130,-130,,115,65,70,-72.5,,70,115,130,140,150.5,140,325
1,Tifani Wittman,SBD,Wraps,Hungary,18,F,73,T 18-19,75,150,160,165,,165,100,105,112.5,,112.5,-190,190,205,-210,205,482.5
1,Terézia Krajcová,SBD,Wraps,Slovakia,18,F,78.3,T 18-19,82.5,135,145,-152.5,,145,62.5,70,-72.5,,70,130,140,-145,,140,355
1,Bianka Kováčiková,SBD,Wraps,Slovakia,22,F,54.6,Juniors,56,135,145,150,,150,40,47.5,50,,50,135,145,-150,,145,345
2,Klára Haičmanová,SBD,Wraps,Czechia,21,F,53,Juniors,56,125,-135,135,,135,57.5,61,-62.5,,61,115,120,127.5,,127.5,323.5
1,Aleksandra Savić,SBD,Wraps,Serbia,23,F,59.9,Juniors,60,140,-145,-145,,140,75,-77.5,-77.5,,75,160,-170,-170,,160,375
2,Kristýna KohDQová,SBD,Wraps,Czechia,21,F,59.9,Juniors,60,117.5,-132.5,-132.5,,117.5,50,57.5,-62.5,,57.5,120,135,-137.5,,135,310
3,Kayla Kurowski,SBD,Wraps,USA,21,F,57.3,Juniors,60,85,92.5,-100,,92.5,52.5,57.5,-60,,57.5,125,-135,-135,,125,275
1,Dominika Kmeťová,SBD,Wraps,Slovakia,22,F,67.4,Juniors,67.5,150,160,165,,165,75,80,-85,,80,150,-157.5,157.5,-162.5,157.5,402.5
2,Tereza Štrobová,SBD,Wraps,Czechia,23,F,61.9,Juniors,67.5,65,72.5,80,,80,37.5,-45,-45,,37.5,95,102.5,107.5,,107.5,225
1,Barbara Tóth,SBD,Wraps,Hungary,22,F,74.7,Juniors,75,125,-135,135,,135,62.5,-67.5,-67.5,,62.5,125,135,-143,-143,135,332.5
1,Zuzana Žigraiová,SBD,Wraps,Slovakia,23,F,77.1,Juniors,82.5,100,-110,-112.5,,100,40,-45,-45,,40,100,110,-120,,110,250
1,Monika Śvirska,SBD,Wraps,Poland,42,F,54.4,M 40-44,56,100,110,115,120,115,65,67.5,-70,,67.5,140,150,-160,,150,332.5
1,Elena Šímová,SBD,Wraps,Slovakia,40,F,71.3,M 40-44,75,180,190,200,,200,90,100,-105,,100,180,190,-200,,190,490
1,Marcela Zazvonilová,SBD,Wraps,Czechia,47,F,55,M 45-49,56,100,110,-120,,110,55,60,-62.5,,60,120,130,140,,140,310
1,Lesanka Labudová,SBD,Wraps,Slovakia,48,F,57,M 45-49,60,55,60,,,60,30,-35,35,,35,75,85,,,85,180
1,Beata Kowalska,SBD,Wraps,Poland,45,F,72.3,M 45-49,75,-110,110,-115,,110,70,75,-80,,75,135,142.5,150,,150,335
1,Anna Szlávik,SBD,Wraps,Hungary,45,F,82.4,M 45-49,82.5,90,95,100,,100,70,-75,-75,,70,110,120,130,135,130,300
1,Květuše Baranovičová,SBD,Wraps,Slovakia,65,F,57.8,M 65-69,60,60,-65,70,,70,30,35,-37.5,,35,85,95,105,,105,210
1,Eleonóra Szombatová,SBD,Wraps,Slovakia,55,F,58,M 55-59,60,60,65,70,75,70,30,35,-37.5,,35,80,85,90,,90,195
1,Tamecia Robinson,SBD,Wraps,USA,39,F,120.6,Submasters,90+,112.5,120,130,,130,60,-65,65,,65,155,170,-182.5,,170,365
1,Magda Urbanowicz,SBD,Wraps,Poland,25,F,47.5,Open,48,97.5,-105,105,-110,105,55,60,62.5,,62.5,110,115,117.5,-120,117.5,285
DQ,Barbora Bugárová,SBD,Wraps,Slovakia,31,F,47,Open,48,-85,-95,-95,,,-47.5,-47.5,-47.5,,,,,,,,
1,Mariša Golob,SBD,Wraps,Slovenia,28,F,55.7,Open,56,150,155,-160,,155,85,90,93,96,93,160,167.5,-171,,167.5,415.5
1,Dóra Bubernik,SBD,Wraps,Hungary,27,F,59.8,Open,60,-90,90,100,,100,42.5,50,-52.5,,50,117.5,-130,-130,,117.5,267.5
1,Brigitta Horváth,SBD,Wraps,Hungary,33,F,66.5,Open,67.5,-105,105,120,,120,-50,50,-60,,50,115,125,-130,,125,295
2,Veronika Tkachenko,SBD,Wraps,Ukraine,33,F,62.2,Open,67.5,70,-80,80,,80,30,35,-37.5,,35,80,-100,100,,100,215
1,Petra Kočková,SBD,Wraps,Czechia,35,F,72.6,Open,75,-180,180,-200,,180,95,-100,-100,,95,180,190,-200,,190,465
1,Nadia Otter,SBD,Wraps,Germany,35,F,82.5,Open,82.5,205,215,-230,,215,137.5,145,-148,,145,230,245,-255,,245,605
1,Mirtill Lachmann,SBD,Wraps,Hungary,37,F,96.9,Open,90+,220,-240,-240,,220,90,-100,,,90,180,200,-221,,200,510
1,Andreas Dürst,SBD,Wraps,Switzerland,39,M,86.5,Submasters,90,200,-220,220,,220,140,-150,150,,150,240,-250,250,,250,620
1,Artur Hakobyan,SBD,Wraps,Armenia,38,M,98.2,Submasters,100,240,260,-270,,260,170,-180,180,,180,270,290,-302,,290,730
2,Tomasz Bejgrowicz,SBD,Wraps,Poland,39,M,94.1,Submasters,100,155,,,,155,120,130,,,130,170,,,,170,455
1,Serhiy Varha,SBD,Wraps,Ukraine,36,M,109.7,Submasters,110,220,-240,240,,240,160,170,-172.5,,170,230,250,-260,,250,660
1,Marek Lipták,SBD,Wraps,Slovakia,39,M,123.5,Submasters,125,260,280,300,,300,190,,,,190,-280,280,,,280,770
2,Péter Jozaf,SBD,Wraps,Hungary,36,M,124,Submasters,125,250,260,267.5,,267.5,140,-150,-150,,140,260,,,,260,667.5
3,Martin Sovich,SBD,Wraps,USA,36,M,123,Submasters,125,195,-227.5,-227.5,,195,125,-142.5,-142.5,,125,215,242.5,-255,,242.5,562.5
1,Marek Makarewicz,SBD,Wraps,Poland,38,M,134.2,Submasters,140,270,290,300,,300,210,220,-225,,220,250,280,-290,,280,800
2,Martin Olejár,SBD,Wraps,Slovakia,37,M,135.1,Submasters,140,-240,240,260,,260,160,170,-180,,170,270,290,300,,300,730
1,Bartłomiej Stania,SBD,Wraps,Poland,25,M,59.7,Open,60,-160,160,168,-170,168,-100,100,-106,,100,175,191,-200,-200,191,459
1,Florián Tichý,SBD,Wraps,Slovakia,31,M,67.4,Open,67.5,160,-170,175,,175,135,142.5,-147.5,,142.5,205,215,-220,,215,532.5
2,Antonello Caviola,SBD,Wraps,Italy,25,M,66.1,Open,67.5,100,-105,-105,,100,75,85,-92.5,,85,100,110,120,,120,305
1,Kamil Tůma,SBD,Wraps,Czechia,34,M,74.7,Open,75,215,225,230,,230,150,-157.5,160,,160,242.5,252.5,-255.5,,252.5,642.5
2,Martin Marinkovich,SBD,Wraps,Hungary,26,M,74.6,Open,75,190,200,-207.5,,200,145,155.5,160.5,,160.5,210,220,-232.5,,220,580.5
3,Jiří Hansík,SBD,Wraps,Czechia,24,M,74,Open,75,-190,190,-202.5,,190,105,-110,-110,,105,185,195,205,,205,500
1,Valerii Marushka,SBD,Wraps,Ukraine,32,M,81,Open,82.5,240,250,260,,260,145,155,157.5,,157.5,240,257.5,-265,,257.5,675
2,Marcin Helwig,SBD,Wraps,Poland,31,M,81.2,Open,82.5,220,-230,230,,230,150,157.5,162.5,,162.5,250,262.5,270,,270,662.5
3,Michael Schneider,SBD,Wraps,Austria,30,M,81.7,Open,82.5,220,240,-255,,240,140,150,160,,160,220,240,255,,255,655
4,Marek Kéri,SBD,Wraps,Slovakia,25,M,81.1,Open,82.5,210,220,230,,230,130,-135,-135,,130,235,245,255,,255,615
5,Michal Florian,SBD,Wraps,Czechia,33,M,81.4,Open,82.5,190,205,-212.5,,205,130,-140,-140,,130,215,230,-235,,230,565
6,Emanuele Bassetti,SBD,Wraps,Italy,25,M,80.7,Open,82.5,190,200,205,,205,127.5,132.5,135,,135,200,210,-220,,210,550
7,Péter Karácsony,SBD,Wraps,Slovakia,36,M,78.5,Open,82.5,152.5,162.5,-172.5,,162.5,102.5,110,112.5,,112.5,197.5,205,207.5,,207.5,482.5
1,Peter Klimo,SBD,Wraps,Slovakia,32,M,89.9,Open,90,280,300,-310,,300,140,150,155,,155,270,-290,,,270,725
2,Juraj Barnet,SBD,Wraps,Slovakia,37,M,88.5,Open,90,-205,205,-220,,205,170,-175,-177.5,,170,220,235,242.5,,242.5,617.5
3,Péter Pálvölgyi,SBD,Wraps,Hungary,25,M,89.1,Open,90,210,220,-225,,220,-140,140,-150,,140,220,225,230,,230,590
1,Róbert Tumpek,SBD,Wraps,Hungary,25,M,98.4,Open,100,305.5,325,330,,330,155,165,170,,170,280,300,-315,,300,800
2,Andrej Katrenčík,SBD,Wraps,Slovakia,26,M,99.7,Open,100,-260,270,-290,,270,200,-210.5,210.5,,210.5,285,300,305,,305,785.5
3,Dávid Barabás,SBD,Wraps,Hungary,30,M,97.1,Open,100,270,-280,280,,280,180,190,-195,,190,280,300,-305,,300,770
4,Norbert Majoroš,SBD,Wraps,Slovakia,32,M,98.5,Open,100,250,270,-280,,270,-170,175,-185,,175,290,310,-317.5,,310,755
5,Nshan Malkhasyan,SBD,Wraps,Armenia,27,M,98.7,Open,100,-240,240,260,,260,160,170,-175,,170,290,300,,,300,730
6,Benjamin Mächler,SBD,Wraps,Switzerland,36,M,99.3,Open,100,-240,-250,-260,,,140,160,-170,,160,250,270,-280,,270,430
DQ,Jan Ondrák,SBD,Wraps,Czechia,24,M,99.5,Open,100,-250,-250,-250,,,,,,,,,,,,,
DQ,Matej Löffler,SBD,Wraps,Slovakia,28,M,91.3,Open,100,-210,-220,-220,,,,,,,,,,,,,
1,Juraj Grígeľ,SBD,Wraps,Slovakia,25,M,109.6,Open,110,280,300,320,,320,-205,-205,205,,205,300,315,325,,325,850
2,Róbert Majoros,SBD,Wraps,Hungary,24,M,104.9,Open,110,-270,270,285,,285,205,212.5,-220,,212.5,-315,315,-322.5,,315,812.5
3,Szabolcs Balázs,SBD,Wraps,Hungary,30,M,105.7,Open,110,280,300,310,,310,160,170,175,,175,290,310,315,,315,800
4,Ádám Adorján,SBD,Wraps,Hungary,23,M,105.4,Open,110,260,270,280,,280,140,150,-155,,150,270,290,-300,,290,720
5,Andreas Grillmeier,SBD,Wraps,Germany,29,M,108.2,Open,110,250,260,-275,,260,165,-170,170,,170,260,270,-275,,270,700
6,Michal Blahovský,SBD,Wraps,Slovakia,31,M,105.5,Open,110,240,250,260,,260,130,140,-145,,140,230,240,250,,250,650
DQ,Tomáš Brablc,SBD,Wraps,Czechia,25,M,108.3,Open,110,-325,-325,-325,,,,,,,,,,,,,
DQ,Ondrej Šípoš,SBD,Wraps,Slovakia,27,M,106.1,Open,110,-220,-240,-250,,,-145,-145,-145,,,,,,,,
DQ,Ádám Takács,SBD,Wraps,Hungary,25,M,105.6,Open,110,-220,-230,-235,,,-107.5,,,,,,,,,,
DQ,Gevorg Poghosyan,SBD,Wraps,Armenia,33,M,104.6,Open,110,-210,-210,-230,,,-150,-160,-160,,,,,,,,
DQ,Tomáš Knotek,SBD,Wraps,Slovakia,25,M,101.3,Open,110,-190,-190,-210,,,,,,,,,,,,,
1,Gábor Bencze,SBD,Wraps,Hungary,38,M,124,Open,125,315,335,345,,345,205,215,-220,,215,320,332.5,-335,,332.5,892.5
2,Radovan Ondričko,SBD,Wraps,Slovakia,28,M,123.3,Open,125,335,355,370,,370,195,205,-210,,205,290,305,-317.5,,305,880
3,Václav Češka,SBD,Wraps,Czechia,33,M,118,Open,125,-350,350,-360,,350,180,-190,-190,,180,320,330,-345,,330,860
4,Michal Kadlec,SBD,Wraps,Czechia,29,M,124,Open,125,310,-330,-330,,310,220,-230,233,,233,290,-310,-310,,290,833
DQ,Lukáš Putala,SBD,Wraps,Slovakia,26,M,116.9,Open,125,-200,-220,-240,,,-140,-150,-160,,,,,,,,
1,Róbert Blácha,SBD,Wraps,Slovakia,29,M,125.4,Open,140,250,-280,-300,,250,170,180,-190,,180,300,310,320,,320,750
2,Péter Kiss,SBD,Wraps,Hungary,28,M,137.1,Open,140,240,255,260,,260,160,170,175,,175,260,270,-275,,270,705
1,Michal Váradi,SBD,Wraps,Slovakia,25,M,146.1,Open,140+,-330,330,345,,345,215,-225,-225,,215,310,327.5,-340.5,,327.5,887.5
2,Ján Barkòczi,SBD,Wraps,Slovakia,26,M,146.8,Open,140+,200,230,250,,250,135,145,-160,,145,200,230,-242.5,,230,625
1,Rebeka Ficeková,SBD,Multi-ply,Slovakia,17,F,72.8,T 16-17,75,110,130,140,150,140,80,-90,-100,,80,110,140,150,,150,370
1,Marko Rudy,SBD,Multi-ply,Slovakia,22,M,73.2,Juniors,75,200,-220,-220,,200,120,130,-135,,130,210,225,-235,,225,555
1,Martin Hráček,SBD,Multi-ply,Czechia,20,M,81.3,Juniors,82.5,-250,250,-280.5,,250,-150,150,-170,,150,215,230,235,,235,635
1,Nikolas Tóth,SBD,Multi-ply,Slovakia,20,M,124,Juniors,125,-385,385,-405,-405,385,220,-230,230,,230,300,315,325,-330.5,325,940
1,Englbert Daurer,SBD,Multi-ply,Austria,40,M,104,M 40-44,110,290,311,-320,,311,190,-200,200,,200,287.5,300,-305,,300,811
1,Sven Nethe,SBD,Multi-ply,Germany,43,M,113,M 40-44,125,185,205,230,,230,180,-190,-190,,180,220,240,260,,260,670
1,Luca Segrer,SBD,Multi-ply,Italy,49,M,79.6,M 45-49,82.5,225,240,-252.5,,240,135,-140,-140,,135,225,240,-247.5,,240,615
DQ,Torsten Kammer,SBD,Multi-ply,Germany,49,M,98.7,M 45-49,100,-220,-230,-240,,,-165,-172.5,-172.5,,,,,,,,
1,Mark Calvert,SBD,Multi-ply,USA,51,M,81.6,M 50-54,82.5,172.5,-182.5,182.5,,182.5,110,120,-130,,120,192.5,202.5,215,,215,517.5
1,Steffen Reisbach,SBD,Multi-ply,Germany,50,M,90.2,M 50-54,100,215,-225,,,215,172.5,175,,,175,185,210,,,210,600
1,Pavel Malina,SBD,Multi-ply,Czechia,58,M,59.8,M 55-59,60,185,195.5,200,,200,100,110,,,110,160,170,-175,,170,480
1,Karol Brečka,SBD,Multi-ply,Czechia,57,M,80,M 55-59,82.5,195,217.5,225,,225,115,125,-132.5,,125,195,220,-225,,220,570
1,Sergio Bianchi,SBD,Multi-ply,Italy,58,M,87.9,M 55-59,90,210,-230,240,,240,90,95,100,,100,180,190,,,190,530
1,Milan Bartal,SBD,Multi-ply,Slovakia,59,M,95.9,M 55-59,100,200,220,,,220,125,-135,-135,,125,190,210,,,210,555
1,Jiří Barnet,SBD,Multi-ply,Czechia,58,M,104.6,M 55-59,110,225,240,-255,,240,135,142.5,-147.5,,142.5,200,-215,-222.5,,200,582.5
1,Stefan Sochaňski,SBD,Multi-ply,Poland,69,M,89.1,M 65-69,90,200,215,,,215,105,-115,,,105,210,230,,,230,550
1,Marcel Vasilenko,SBD,Multi-ply,Slovakia,39,M,99.5,Submasters,100,240,260,-275,,260,180,190,200,,200,230,242.5,250,,250,710
1,Daniel Tatarka,SBD,Multi-ply,Slovakia,35,M,80.3,Open,82.5,333,-350,-350,,333,180,-200,,,180,240,255,-272.5,,255,768
1,Marek Selko,SBD,Multi-ply,Slovakia,24,M,87.2,Open,90,210,230,-250,,230,150,-160,-160,,150,-210,210,230,,230,610
1,Erik Knöfler,SBD,Multi-ply,Germany,37,M,98.9,Open,100,360,380,400,,400,225,235,240,,240,270,290,-310,,290,930
2,Igor Golecký,SBD,Multi-ply,Slovakia,25,M,98.7,Open,100,285,-300,300,,300,200,-215,-220,,200,270,290,-300,,290,790
3,Michael Korber,SBD,Multi-ply,Austria,31,M,97,Open,100,240,-260,260,,260,140,150,-160,,150,260,280,-290,,280,690
1,Rebeka Ficeková,D,Multi-ply,Slovakia,17,F,72.8,T 16-17,75,,,,,,,,,,,140,-152.5,,,140,140
1,Oliver Kurek,D,Multi-ply,Slovakia,19,M,74.5,T 18-19,75,,,,,,,,,,,250,260,270,-275,270,270
1,Martin Drozd,D,Multi-ply,Slovakia,18,M,95.8,T 18-19,100,,,,,,,,,,,230,245,255,-257.5,255,255
1,Huba Hablicsek,D,Multi-ply,Hungary,20,M,58.4,Juniors,60,,,,,,,,,,,160,170.5,-180,-180,170.5,170.5
1,Patrik Vančo,D,Multi-ply,Slovakia,23,M,80.5,Juniors,82.5,,,,,,,,,,,180,195,205,,205,205
1,Patrik Poperník,D,Multi-ply,Slovakia,21,M,96.1,Juniors,100,,,,,,,,,,,260,-280,-280,,260,260
1,Erno Eck Ifj,D,Multi-ply,Hungary,24,M,86.3,Open,90,,,,,,,,,,,200,,,,200,200
1,Igor Golecký,D,Multi-ply,Slovakia,25,M,98.7,Open,100,,,,,,,,,,,270,285,-295,,285,285
2,Ivan Lazor,D,Multi-ply,Slovakia,27,M,96.6,Open,100,,,,,,,,,,,260,-275,-275,,260,260
1,Norbert Hablicsek,D,Multi-ply,Hungary,44,M,108.8,Open,110,,,,,,,,,,,290,310.5,320,330,320,320
1,Péter Pintér,D,Multi-ply,Slovakia,33,M,114.5,Open,125,,,,,,,,,,,300,315,-321,-321,315,315
1,Michal Buranský,D,Multi-ply,Slovakia,38,M,74.8,Submasters,75,,,,,,,,,,,225,250,-255,,250,250
1,Tomasz Miloch,D,Multi-ply,Poland,35,M,81.3,Submasters,82.5,,,,,,,,,,,260,280,-282.5,,280,280
1,Ján Šiska,D,Multi-ply,Slovakia,38,M,121.2,Submasters,125,,,,,,,,,,,250,260,,,260,260
1,László Eck,D,Multi-ply,Hungary,40,M,84.8,M 40-44,90,,,,,,,,,,,220,-230,,,220,220
1,Luboš Šos,D,Multi-ply,Czechia,40,M,104.4,M 40-44,110,,,,,,,,,,,300,322.5,,,322.5,322.5
2,Yuriy Ustinov,D,Multi-ply,Russia,43,M,106.2,M 40-44,110,,,,,,,,,,,250,260,270,,270,270
1,Csaba Simon,D,Multi-ply,Hungary,50,M,84.3,M 50-54,90,,,,,,,,,,,210,230,250,260,250,250
1,Steffen Reisbach,D,Multi-ply,Germany,50,M,90.2,M 50-54,100,,,,,,,,,,,185,215,-225,,215,215
1,Sergio Bianchi,D,Multi-ply,Italy,58,M,87.9,M 55-59,90,,,,,,,,,,,180,190,,,190,190
1,Milan Bartal,D,Multi-ply,Slovakia,59,M,95.9,M 55-59,100,,,,,,,,,,,180,200,215,,215,215
1,Steffen Burkhard,D,Multi-ply,Germany,68,M,66.7,M 65-69,67.5,,,,,,,,,,,110,120,130,,130,130
1,Lothar Schulze,D,Multi-ply,Germany,68,M,81.4,M 65-69,82.5,,,,,,,,,,,150,165,175,,175,175
1,Stefan Sochaňski,D,Multi-ply,Poland,69,M,89.1,M 65-69,90,,,,,,,,,,,210,225,235,,235,235
1,Heinz Mihoubi,D,Multi-ply,Germany,70,M,98.3,M 70-74,100,,,,,,,,,,,185,190,200,,200,200
1,Gerd Meyerhofer,D,Multi-ply,Germany,80,M,77.2,M 80+,82.5,,,,,,,,,,,85,90,100,,100,100
1,Magdalena Szpila,D,Raw,Poland,16,F,44.8,T 16-17,48,,,,,,,,,,,82.5,87.5,-92.5,,87.5,87.5
1,Ela Kardaś,D,Raw,Poland,18,F,55.1,T 18-19,56,,,,,,,,,,,-110,115,-120,,115,115
1,Weronika Lenort,D,Raw,Poland,18,F,63.1,T 18-19,67.5,,,,,,,,,,,160,-175,-175,,160,160
1,Zuzana Žigraiová,D,Raw,Slovakia,23,F,77.1,Juniors,82.5,,,,,,,,,,,100,110,112.5,,112.5,112.5
1,Barbora Bugárová,D,Raw,Slovakia,31,F,47.5,Open,48,,,,,,,,,,,82.5,90,95,,95,95
1,Gabriela Kyselová,D,Raw,Slovakia,33,F,51.1,Open,52,,,,,,,,,,,92.5,100,-105,,100,100
1,Mariša Golob,D,Raw,Slovenia,28,F,58.5,Open,60,,,,,,,,,,,155,162.5,,,162.5,162.5
2,Joanna Gawron,D,Raw,Poland,25,F,59.3,Open,60,,,,,,,,,,,130,-140,-145,,130,130
3,Petrana Blašková,D,Raw,Slovakia,27,F,57.2,Open,60,,,,,,,,,,,100,110,-115,,110,110
1,Hana Slúková,D,Raw,Czechia,24,F,67.5,Open,67.5,,,,,,,,,,,135,-145,157.5,,157.5,157.5
2,Bernadett Fekete,D,Raw,Hungary,24,F,65.4,Open,67.5,,,,,,,,,,,155,-166,-166,,155,155
3,Gyöngyi Herczeg,D,Raw,Hungary,25,F,64,Open,67.5,,,,,,,,,,,90,95,100,,100,100
1,Renata Zapała,D,Raw,Poland,24,F,71.1,Open,75,,,,,,,,,,,115,125,-137.5,,125,125
2,Anna Paluszik,D,Raw,Poland,28,F,72.6,Open,75,,,,,,,,,,,100,107.5,112.5,,112.5,112.5
3,Nadiia Varman,D,Raw,Ukraine,32,F,70.5,Open,75,,,,,,,,,,,60,65,70,,70,70
1,Zuzana Kohlová,D,Raw,Czechia,33,F,77.3,Open,82.5,,,,,,,,,,,100,112.5,117.5,,117.5,117.5
1,Hanka Palacká,D,Raw,Czechia,40,F,50.3,M 40-44,52,,,,,,,,,,,75,85,92.5,,92.5,92.5
1,Katarína Stasová,D,Raw,Slovakia,41,F,58.5,M 40-44,60,,,,,,,,,,,115,120,125,,125,125
2,Katarzyna Troll,D,Raw,Poland,44,F,57.1,M 40-44,60,,,,,,,,,,,-90,-90,90,,90,90
1,Beata Kowalska,D,Raw,Poland,45,F,73.8,M 45-49,75,,,,,,,,,,,145,155,160,,160,160
1,Katrin Ribb,D,Raw,Germany,48,F,76.4,M 45-49,82.5,,,,,,,,,,,120,130,135,140,135,135
1,Krystyna Puzio,D,Raw,Poland,53,F,95.9,M 50-54,90+,,,,,,,,,,,145,155,-162.5,,155,155
1,Szymon Skrudlik,D,Raw,Poland,17,M,62.3,T 16-17,67.5,,,,,,,,,,,140,150,-155,,150,150
1,Miroslav Dvořák,D,Raw,Czechia,17,M,80.1,T 16-17,82.5,,,,,,,,,,,205,215,-220,,215,215
1,Max Glok,D,Raw,Germany,17,M,92.6,T 16-17,100,,,,,,,,,,,155,170,185,,185,185
1,Oliver Kurek,D,Raw,Slovakia,19,M,73.6,T 18-19,75,,,,,,,,,,,240,255,-260,,255,255
1,Adrián Untermayer,D,Raw,Slovakia,19,M,80.3,T 18-19,82.5,,,,,,,,,,,210,220,-233,,220,220
1,Ondřej Schejbal,D,Raw,Czechia,19,M,88.7,T 18-19,90,,,,,,,,,,,235,250,255,,255,255
2,Vadym Suhoniako,D,Raw,Ukraine,18,M,89.9,T 18-19,90,,,,,,,,,,,-240,240,-250.5,,240,240
1,Richard Hošo,D,Raw,Slovakia,19,M,100,T 18-19,100,,,,,,,,,,,225,245,265,,265,265
2,Kevin Anthony Kalapoš,D,Raw,Slovakia,18,M,94.4,T 18-19,100,,,,,,,,,,,200,-220,-220,,200,200
1,Sándor Varjú,D,Raw,Hungary,18,M,126.4,T 18-19,140,,,,,,,,,,,200,220,225,,225,225
1,Huba Hablicsek,D,Raw,Hungary,20,M,58.3,Juniors,60,,,,,,,,,,,145,155.5,160,-165,160,160
1,Štěpán Buchta,D,Raw,Czechia,20,M,66.1,Juniors,67.5,,,,,,,,,,,182.5,190,197.5,-200,197.5,197.5
1,Julian Scharpf,D,Raw,Austria,23,M,74.2,Juniors,75,,,,,,,,,,,190,205,-210,,205,205
1,Konrad Majocha,D,Raw,Poland,20,M,81.4,Juniors,82.5,,,,,,,,,,,215,-230.5,230.5,,230.5,230.5
2,Dávid Zámečník,D,Raw,Slovakia,22,M,82.4,Juniors,82.5,,,,,,,,,,,200,210,217.5,,217.5,217.5
1,Antonín Tenkáč,D,Raw,Czechia,21,M,93.2,Juniors,100,,,,,,,,,,,270,-282.5,-282.5,,270,270
2,Helmut Silberbauer Jr,D,Raw,Austria,22,M,96.7,Juniors,100,,,,,,,,,,,180,205,-225,,205,205
1,Dominik Piecha,D,Raw,Poland,23,M,104.8,Juniors,110,,,,,,,,,,,220,235,-250,,235,235
1,Martin Havlíček,D,Raw,Czechia,20,M,111.7,Juniors,125,,,,,,,,,,,320,335,-350,,335,335
2,Tibor Fülpesi,D,Raw,Hungary,21,M,121.7,Juniors,125,,,,,,,,,,,260,280,300,,300,300
1,Dávid Frey,D,Raw,Hungary,22,M,162.9,Juniors,140+,,,,,,,,,,,250,-265,-265,,250,250
1,Michal Móry,D,Raw,Slovakia,40,M,73.4,M 40-44,75,,,,,,,,,,,205,215,-225,,215,215
1,Erni Gregorčič,D,Raw,Slovenia,42,M,78.7,M 40-44,82.5,,,,,,,,,,,220,231,241,,241,241
2,Branislav Tománek,D,Raw,Slovakia,44,M,77.4,M 40-44,82.5,,,,,,,,,,,215,-221,,,215,215
1,Grzegorz Drewniany,D,Raw,Poland,41,M,98.7,M 40-44,100,,,,,,,,,,,225,235,-242.5,,235,235
2,Martin Horák,D,Raw,Czechia,41,M,99.3,M 40-44,100,,,,,,,,,,,225,235,-242.5,,235,235
1,Norbert Hablicsek,D,Raw,Hungary,44,M,108.3,M 40-44,110,,,,,,,,,,,230,250,270,280.5,270,270
1,Björn Pscherer,D,Raw,Germany,43,M,122.3,M 40-44,125,,,,,,,,,,,280,290,-300,,290,290
2,Ferenc Szenti,D,Raw,Hungary,40,M,123.2,M 40-44,125,,,,,,,,,,,280,-290,-300,,280,280
1,Zsolt Viktór Szabó,D,Raw,Hungary,42,M,132,M 40-44,140,,,,,,,,,,,270,290,-300,,290,290
1,Sahludin Šehić,D,Raw,Bosnia and Herzegovina,40,M,144.8,M 40-44,140+,,,,,,,,,,,300,320,-335,,320,320
1,Ronny Stein,D,Raw,Germany,46,M,80.9,M 45-49,82.5,,,,,,,,,,,220,-240,-240,,220,220
2,Konrad Troll,D,Raw,Poland,46,M,77.8,M 45-49,82.5,,,,,,,,,,,190,-200,-200,,190,190
1,Anton Frič,D,Raw,Slovakia,45,M,89.8,M 45-49,90,,,,,,,,,,,250,265,-275,,265,265
2,Vladan Zapletal,D,Raw,Czechia,47,M,88.6,M 45-49,90,,,,,,,,,,,185,200,210,,210,210
1,Thomas Schimana,D,Raw,Germany,46,M,91.5,M 45-49,100,,,,,,,,,,,240,250,255,,255,255
2,Przemysław Kozioł,D,Raw,Poland,45,M,98.3,M 45-49,100,,,,,,,,,,,225,240,-252.5,,240,240
1,László Kiss,D,Raw,Hungary,49,M,105.5,M 45-49,110,,,,,,,,,,,270,-280,-280,,270,270
2,Marián Hudec,D,Raw,Slovakia,48,M,100.5,M 45-49,110,,,,,,,,,,,220,240,-242.5,,240,240
3,Hagen Ribb,D,Raw,Germany,48,M,105.2,M 45-49,110,,,,,,,,,,,130,150,170,,170,170
1,Robert Nemś,D,Raw,Poland,49,M,116.5,M 45-49,125,,,,,,,,,,,240,260,280,,280,280
1,Csaba Simon,D,Raw,Hungary,50,M,84.2,M 50-54,90,,,,,,,,,,,210,230,250,,250,250
2,Conny Händel,D,Raw,Germany,50,M,89.9,M 50-54,90,,,,,,,,,,,180,190,197.5,,197.5,197.5
3,Ferenc Papp,D,Raw,Hungary,54,M,86.6,M 50-54,90,,,,,,,,,,,170,180,185,,185,185
1,Helmut Silberbauer,D,Raw,Austria,53,M,98.5,M 50-54,100,,,,,,,,,,,250,-265.5,-265.5,,250,250
2,Vitalii Filonenko,D,Raw,Ukraine,54,M,97.4,M 50-54,100,,,,,,,,,,,180,190,-197.5,,190,190
1,Tibor Gejdoš,D,Raw,Slovakia,54,M,104.3,M 50-54,110,,,,,,,,,,,225,250,260,,260,260
1,Peter Ondrejka,D,Raw,Slovakia,53,M,123.4,M 50-54,125,,,,,,,,,,,125,135,-142.5,,135,135
1,Sejfo Šehović,D,Raw,Bosnia and Herzegovina,59,M,72.9,M 55-59,75,,,,,,,,,,,225,235,245,250,245,245
1,Milan Suk,D,Raw,Czechia,55,M,77.6,M 55-59,82.5,,,,,,,,,,,200,-210,212.5,-215,212.5,212.5
1,Peter Herák,D,Raw,Slovakia,57,M,89.9,M 55-59,90,,,,,,,,,,,230.5,240,-250,,240,240
2,Ladislav Pasecký,D,Raw,Czechia,59,M,88,M 55-59,90,,,,,,,,,,,200,220,232.5,,232.5,232.5
1,Jozef Gabrhel,D,Raw,Slovakia,62,M,73.3,M 60-64,75,,,,,,,,,,,160,172.5,182.5,,182.5,182.5
1,Karel Schoř,D,Raw,Czechia,63,M,81.3,M 60-64,82.5,,,,,,,,,,,185,202.5,207.5,,207.5,207.5
1,Frank Kutzsch,D,Raw,Germany,62,M,89.7,M 60-64,90,,,,,,,,,,,225,237.5,242.5,-246.5,242.5,242.5
1,Wiesław Wrŏbel,D,Raw,Poland,61,M,99,M 60-64,100,,,,,,,,,,,-240,240,270,,270,270
2,Zbigniew Cabaj,D,Raw,Poland,63,M,91.9,M 60-64,100,,,,,,,,,,,180,190,200,,200,200
1,Piotr Redzik,D,Raw,Poland,61,M,120.8,M 60-64,125,,,,,,,,,,,200,212.5,225,,225,225
1,Antoni Kalioski,D,Raw,Poland,65,M,67.1,M 65-69,67.5,,,,,,,,,,,125,135,141,,141,141
1,Ryszard Śliwioski,D,Raw,Poland,68,M,73.4,M 65-69,75,,,,,,,,,,,147.5,157.5,163,,163,163
2,Zbigniew Koper,D,Raw,Poland,65,M,74.9,M 65-69,75,,,,,,,,,,,145,155,,,155,155
1,Gerd Müller,D,Raw,Germany,66,M,81.8,M 65-69,82.5,,,,,,,,,,,130,140,150,,150,150
1,Jan Łuka,D,Raw,Poland,69,M,87.5,M 65-69,90,,,,,,,,,,,-215,-225,225,,225,225
1,Stefan Sochaňski,D,Raw,Poland,69,M,90.3,M 65-69,100,,,,,,,,,,,187.5,-207.5,-207.5,,187.5,187.5
1,Vladimír Bátik,D,Raw,Slovakia,65,M,103.8,M 65-69,110,,,,,,,,,,,180,200,-210,,200,200
1,Klement Fekete,D,Raw,Slovakia,66,M,111.4,M 65-69,125,,,,,,,,,,,210,-225,-230,,210,210
2,Ján Slovík,D,Raw,Slovakia,67,M,112.5,M 65-69,125,,,,,,,,,,,120,130,-140,,130,130
1,Hans-Jürgen Dosin,D,Raw,Germany,78,M,98.5,M 75-79,100,,,,,,,,,,,135,145,151,,151,151
1,Gerd Meyerhofer,D,Raw,Germany,80,M,77.1,M 80+,82.5,,,,,,,,,,,85,90,100,,100,100
1,Pavel Balážik,D,Raw,Slovakia,39,M,52.8,Submasters,56,,,,,,,,,,,140,147.5,-152.5,-158,147.5,147.5
1,Tomasz Miloch,D,Raw,Poland,35,M,80.6,Submasters,82.5,,,,,,,,,,,240,-250,,,240,240
2,Martin Sýkora,D,Raw,Czechia,35,M,81.7,Submasters,82.5,,,,,,,,,,,180,200,-205,,200,200
1,Tomasz Bejgrowicz,D,Raw,Poland,39,M,89.9,Submasters,90,,,,,,,,,,,180,201,-205,,201,201
1,Grzegorz Rompalski,D,Raw,Poland,36,M,105.9,Submasters,110,,,,,,,,,,,275,290,-301,-301,290,290
1,Marek Lipták,D,Raw,Slovakia,39,M,120.2,Submasters,125,,,,,,,,,,,301,320,,,320,320
2,Mariusz Bartołowicz,D,Raw,Poland,38,M,111.7,Submasters,125,,,,,,,,,,,285,-292.5,-292.5,,285,285
1,Martin Olejár,D,Raw,Slovakia,37,M,135,Submasters,140,,,,,,,,,,,270,300,-310,,300,300
1,Jakub Máder,D,Raw,Czechia,26,M,67.5,Open,67.5,,,,,,,,,,,180,210,-215,,210,210
2,Jan Všetička,D,Raw,Czechia,26,M,67,Open,67.5,,,,,,,,,,,180,200,-213,,200,200
1,Ladislav Pasecký,D,Raw,Czechia,33,M,74.3,Open,75,,,,,,,,,,,220,235,245,,245,245
2,Jozef Šimún,D,Raw,Slovakia,27,M,74.4,Open,75,,,,,,,,,,,-195,195,210,,210,210
3,Tobias Goßmann,D,Raw,Germany,33,M,71.8,Open,75,,,,,,,,,,,120,130,140,,140,140
1,Tomáš Ryšavý,D,Raw,Slovakia,27,M,81.4,Open,82.5,,,,,,,,,,,270,290,300,-305,300,300
2,Róbert Szász,D,Raw,Hungary,32,M,81,Open,82.5,,,,,,,,,,,225,245,260,,260,260
3,Vajk Varsányi,D,Raw,Hungary,24,M,81.3,Open,82.5,,,,,,,,,,,240,247.5,257.5,,257.5,257.5
4,Gábor Csikós,D,Raw,Hungary,30,M,79.5,Open,82.5,,,,,,,,,,,210,235,-252.5,,235,235
5,Lukáš Tlstý,D,Raw,Slovakia,26,M,79.4,Open,82.5,,,,,,,,,,,225,-235,-245,,225,225
1,Lukáš Kolerus,D,Raw,Czechia,32,M,86.6,Open,90,,,,,,,,,,,260,270,275,,275,275
2,Marek Žiak,D,Raw,Slovakia,24,M,88.5,Open,90,,,,,,,,,,,265,-275,275,,275,275
3,Miroslav Pástor,D,Raw,Slovakia,33,M,89.9,Open,90,,,,,,,,,,,240,262.5,275,-301,275,275
4,Sergey Alvanyan,D,Raw,Armenia,32,M,89.5,Open,90,,,,,,,,,,,-270,-270,270,,270,270
1,Dávid Belovežčík,D,Raw,Slovakia,32,M,98.8,Open,100,,,,,,,,,,,330,-345,-345,,330,330
2,Nshan Malkhasyan,D,Raw,Armenia,37,M,98.8,Open,100,,,,,,,,,,,290,300,310,,310,310
3,Hans Haß,D,Raw,Germany,29,M,98,Open,100,,,,,,,,,,,200,-215,215,,215,215
1,Zoltán Farkaš,D,Raw,Slovakia,30,M,102.2,Open,110,,,,,,,,,,,290,305,312.5,,312.5,312.5
2,Andrej Katrenčík,D,Raw,Slovakia,26,M,106.1,Open,110,,,,,,,,,,,285,300,-310,,300,300
3,Richárd Németh,D,Raw,Hungary,24,M,103.3,Open,110,,,,,,,,,,,280,292.5,-300,,292.5,292.5
4,Tomáš Knotek,D,Raw,Slovakia,25,M,102.5,Open,110,,,,,,,,,,,220,240,-255,,240,240
1,Patryk Łazor,D,Raw,Poland,25,M,121,Open,125,,,,,,,,,,,320,331,340,,340,340
2,Zdeněk Večeřa,D,Raw,Czechia,28,M,119.6,Open,125,,,,,,,,,,,300,320,332.5,,332.5,332.5
3,Juraj Grígeľ,D,Raw,Slovakia,25,M,111.9,Open,125,,,,,,,,,,,300,320,332,,332,332
4,Ivan Cherepania,D,Raw,Ukraine,33,M,115.7,Open,125,,,,,,,,,,,320,-335,-340,,320,320
5,Piotr Gaj,D,Raw,Poland,24,M,119.7,Open,125,,,,,,,,,,,290,-302.5,-302.5,,290,290
1,Samir Ademović,D,Raw,Bosnia and Herzegovina,33,M,125.8,Open,140,,,,,,,,,,,310,320,325,,325,325
2,Róbert Blácha,D,Raw,Slovakia,29,M,125.1,Open,140,,,,,,,,,,,300,315,322.5,,322.5,322.5
3,Vladimír Ptačin,D,Raw,Slovakia,25,M,125.2,Open,140,,,,,,,,,,,280,300,-305,,300,300
DQ,Roland Hegedüs,D,Raw,Slovakia,31,M,132.8,Open,140,,,,,,,,,,,-300,,,,,
1,Viacheslav Sereda,B,Raw,Ukraine,17,M,57.4,T 16-17,60,,,,,,85,95,-100,,95,,,,,,95
1,Adam Šourek,B,Raw,Czechia,16,M,87.4,T 16-17,90,,,,,,-110,117.5,120,,120,,,,,,120
2,Patryk Konieczny,B,Raw,Poland,16,M,88,T 16-17,90,,,,,,105,110,-120,,110,,,,,,110
1,Max Glok,B,Raw,Germany,17,M,92.6,T 16-17,100,,,,,,110,117.5,122.5,,122.5,,,,,,122.5
1,Alex Maryška,B,Raw,Czechia,16,M,108.3,T 16-17,110,,,,,,155,163,-165,,163,,,,,,163
1,Ladislav Gálik,B,Raw,Slovakia,17,M,130.3,T 16-17,140,,,,,,-215,215,-230,-230,215,,,,,,215
1,Viktor Kosiuk,B,Raw,Ukraine,18,M,63.3,T 18-19,67.5,,,,,,115,-125.5,125.5,127.5,125.5,,,,,,125.5
1,Csaba Péter,B,Raw,Slovakia,18,M,71.9,T 18-19,75,,,,,,115,125,130,,130,,,,,,130
2,Michal Sorát,B,Raw,Slovakia,18,M,74.9,T 18-19,75,,,,,,100,-110,-110,,100,,,,,,100
1,Mateusz Schmidla,B,Raw,Poland,18,M,79,T 18-19,82.5,,,,,,85,95,-105,,95,,,,,,95
1,Nils-Mario Biermordt,B,Raw,Germany,18,M,108,T 18-19,110,,,,,,-180,180,-190.5,,180,,,,,,180
1,Bence Bihi,B,Raw,Hungary,18,M,114.6,T 18-19,125,,,,,,180,185,190,192.5,190,,,,,,190
1,Sándor Varjú,B,Raw,Hungary,18,M,126.4,T 18-19,140,,,,,,125,132.5,137.5,,137.5,,,,,,137.5
1,Dezső Péter Orbán,B,Raw,Hungary,21,M,58.2,Juniors,60,,,,,,102.5,107.5,-110.5,,107.5,,,,,,107.5
1,Dominik Hudaček,B,Raw,Slovakia,23,M,79.7,Juniors,82.5,,,,,,165,-170,-170,,165,,,,,,165
2,Dávid Zámečník,B,Raw,Slovakia,22,M,82.4,Juniors,82.5,,,,,,120,127.5,130,,130,,,,,,130
3,Dušan Argaláš,B,Raw,Slovakia,22,M,80.9,Juniors,82.5,,,,,,120,127.5,-130,,127.5,,,,,,127.5
1,Július Mertvík,B,Raw,Slovakia,21,M,89.9,Juniors,90,,,,,,-175,175,180,,180,,,,,,180
2,Dominik Špinka,B,Raw,Czechia,23,M,88.1,Juniors,90,,,,,,160,170,-175,,170,,,,,,170
1,Nikolas Neuman,B,Raw,Czechia,21,M,97.5,Juniors,100,,,,,,170,175,177.5,,177.5,,,,,,177.5
2,Antonín Tenkáč,B,Raw,Czechia,21,M,93.2,Juniors,100,,,,,,160,170,-177.5,,170,,,,,,170
3,Adam Sobek,B,Raw,Slovakia,23,M,97.6,Juniors,100,,,,,,150,165,-180,,165,,,,,,165
1,Dominik Piecha,B,Raw,Poland,23,M,104.8,Juniors,110,,,,,,150,-157.5,-157.5,,150,,,,,,150
1,Stanislav Močkor,B,Raw,Slovakia,22,M,111,Juniors,125,,,,,,202.5,207.5,212.5,,212.5,,,,,,212.5
1,Martin Viktor,B,Raw,Hungary,21,M,129.1,Juniors,140,,,,,,195,207.5,212.5,215,212.5,,,,,,212.5
2,Miroslav Kováč,B,Raw,Slovakia,21,M,125.2,Juniors,140,,,,,,192,205,-210,,205,,,,,,205
3,Maroš Gažúr,B,Raw,Slovakia,20,M,131.4,Juniors,140,,,,,,155,-165,-170,,155,,,,,,155
1,Liliana Chorvátová,B,Raw,Slovakia,18,F,68.4,T 18-19,75,,,,,,45,50,-52.5,-52.5,50,,,,,,50
1,Kristína Fečová,B,Raw,Slovakia,20,F,59.5,Juniors,60,,,,,,-70,70,-80,-80,70,,,,,,70
1,Gabriela Kyselová,B,Raw,Slovakia,33,F,51.2,Open,52,,,,,,35,40,-42.5,,40,,,,,,40
1,Krisztina Majoros,B,Raw,Hungary,25,F,56.7,Open,60,,,,,,55,60,,,60,,,,,,60
1,Sylwia Gordon,B,Raw,Poland,29,F,66.4,Open,67.5,,,,,,55,60,65,,65,,,,,,65
2,Gyöngyi Herzeg,B,Raw,Hungary,25,F,63.2,Open,67.5,,,,,,55,-60,-60,,55,,,,,,55
DQ,Nadia Varman,B,Raw,Ukraine,32,F,71.5,Open,75,,,,,,-42.5,-42.5,-42.5,,,,,,,,
1,Katalin Mezei,B,Raw,Hungary,39,F,51.4,Submasters,52,,,,,,65,-70,-72.5,,65,,,,,,65
1,Tatiana Magulová,B,Raw,Slovakia,37,F,74.5,Submasters,75,,,,,,85,90,-92.5,,90,,,,,,90
1,Dóra Schopf,B,Raw,Hungary,44,F,49.9,M 40-44,52,,,,,,75,80,82.5,,82.5,,,,,,82.5
1,Katarína Stasová,B,Raw,Slovakia,41,F,58.5,M 40-44,60,,,,,,72.5,75,77.5,80,77.5,,,,,,77.5
1,Tereza Burkoňová,B,Raw,Czechia,40,F,79.8,M 40-44,82.5,,,,,,65,-70,-70,,65,,,,,,65
1,Ilona Egri,B,Raw,Hungary,45,F,56,M 45-49,56,,,,,,60,62.5,-65,,62.5,,,,,,62.5
2,Moonika Aus,B,Raw,Estonia,47,F,54.7,M 45-49,56,,,,,,50,55,-57.5,,55,,,,,,55
1,Katalin Schindlerné Kis,B,Raw,Hungary,47,F,67,M 45-49,67.5,,,,,,95,100.5,105,-107.5,105,,,,,,105
1,Katrin Ribb,B,Raw,Germany,48,F,76.2,M 45-49,82.5,,,,,,80,-87.5,87.5,90,87.5,,,,,,87.5
2,Svetlana Sinacheva,B,Raw,Russia,51,F,79.5,M 50-54,82.5,,,,,,110,115,-117.5,,115,,,,,,115
1,Krystyna Puzio,B,Raw,Poland,53,F,96,M 50-54,90+,,,,,,65,-70,-70,,65,,,,,,65
1,Libuše Leiblová,B,Raw,Czechia,57,F,87.9,M 55-59,90,,,,,,120,130,-135.5,-135.5,130,,,,,,130
1,Inge Kaule,B,Raw,Germany,65,F,50.4,M 65-69,52,,,,,,55,57.5,-59,,57.5,,,,,,57.5
1,Ursula Eulenstein,B,Raw,Germany,69,F,76.9,M 65-69,82.5,,,,,,65,70,72.5,,72.5,,,,,,72.5
1,István Répás,B,Raw,Hungary,41,M,66.6,M 40-44,67.5,,,,,,130,135,137.5,140,137.5,,,,,,137.5
2,Bartosz Słodek,B,Raw,Poland,40,M,67.4,M 40-44,67.5,,,,,,125,130,132.5,,132.5,,,,,,132.5
1,Janoš Ungai,B,Raw,Hungary,42,M,72.4,M 40-44,75,,,,,,125,132.5,137.5,,137.5,,,,,,137.5
2,Pavel Vechter,B,Raw,Slovakia,42,M,73.5,M 40-44,75,,,,,,125,130,-140,,130,,,,,,130
1,Lajos Cseh,B,Raw,Hungary,44,M,81.4,M 40-44,82.5,,,,,,167.5,173,-177.5,,173,,,,,,173
2,Krzysztof Klimaszewski,B,Raw,Poland,42,M,82,M 40-44,82.5,,,,,,130,140,150,,150,,,,,,150
3,Pavol Glovacký,B,Raw,Slovakia,41,M,80.5,M 40-44,82.5,,,,,,125,135,137.5,,137.5,,,,,,137.5
4,Branislav Tománek,B,Raw,Slovakia,44,M,79,M 40-44,82.5,,,,,,127.5,132.5,135,,135,,,,,,135
5,Rafał Bartelik,B,Raw,Poland,43,M,82.5,M 40-44,82.5,,,,,,-125,-127.5,127.5,,127.5,,,,,,127.5
1,Jozef Kišš,B,Raw,Slovakia,43,M,89.2,M 40-44,90,,,,,,181,187.5,191,,191,,,,,,191
2,Gatis Biezais,B,Raw,Latvia,43,M,87.9,M 40-44,90,,,,,,181.5,-185,-187.5,,181.5,,,,,,181.5
3,István Szeifert,B,Raw,Hungary,41,M,89.7,M 40-44,90,,,,,,170,177.5,-190.5,,177.5,,,,,,177.5
4,Roman Oborný,B,Raw,Czechia,43,M,86.8,M 40-44,90,,,,,,155,-160,-160,,155,,,,,,155
5,Michal Švajka,B,Raw,Slovakia,40,M,88.6,M 40-44,90,,,,,,150,-162.5,-162.5,,150,,,,,,150
1,Jan Habart,B,Raw,Germany,41,M,98.2,M 40-44,100,,,,,,-200,-200,200,,200,,,,,,200
2,Štefan Sokoly,B,Raw,Slovakia,42,M,97.2,M 40-44,100,,,,,,170,182.5,-185,,182.5,,,,,,182.5
3,István Roszik,B,Raw,Hungary,42,M,98.2,M 40-44,100,,,,,,170,-180,182.5,,182.5,,,,,,182.5
4,Andrzej Juraszek,B,Raw,Poland,40,M,92.9,M 40-44,100,,,,,,165,170,-180,,170,,,,,,170
1,Vlastimil Kužel,B,Raw,Czechia,41,M,107.8,M 40-44,110,,,,,,240,,,,240,,,,,,240
2,Ján Hodermarszki,B,Raw,Slovakia,41,M,108.5,M 40-44,110,,,,,,200,207.5,212.5,,212.5,,,,,,212.5
3,Lars Teufel,B,Raw,Germany,41,M,107.3,M 40-44,110,,,,,,190,200,-212.5,,200,,,,,,200
4,Krzysztof Traczyk,B,Raw,Poland,42,M,100.7,M 40-44,110,,,,,,180,190,-195,,190,,,,,,190
5,Marcel Baláž,B,Raw,Slovakia,41,M,100.7,M 40-44,110,,,,,,170,180,-185,,180,,,,,,180
6,Zoltán Vásárhelyi,B,Raw,Hungary,43,M,107.4,M 40-44,110,,,,,,160,170,-175,,170,,,,,,170
1,Ondrej Hudák,B,Raw,Slovakia,43,M,117.7,M 40-44,125,,,,,,190,200,202.5,,202.5,,,,,,202.5
2,Roman Werner,B,Raw,Austria,40,M,124.4,M 40-44,125,,,,,,-190,195,202.5,,202.5,,,,,,202.5
3,Björn Pscherer,B,Raw,Germany,43,M,123.9,M 40-44,125,,,,,,190,200,-202.5,,200,,,,,,200
4,Richárd Nagy,B,Raw,Hungary,44,M,118,M 40-44,125,,,,,,185,-190,,,185,,,,,,185
5,Peter Pletka,B,Raw,Slovakia,42,M,116,M 40-44,125,,,,,,160,-175,175,,175,,,,,,175
1,Irfan Muhić,B,Raw,Bosnia and Herzegovina,40,M,128.5,M 40-44,140,,,,,,230,242.5,250,,250,,,,,,250
2,Zbigniew Strzelecki,B,Raw,Poland,44,M,126.2,M 40-44,140,,,,,,207.5,-210,210,,210,,,,,,210
3,Krzysztof Halczyk,B,Raw,Poland,44,M,132.2,M 40-44,140,,,,,,175,-182.5,182.5,,182.5,,,,,,182.5
1,Tomasz Węgliński,B,Raw,Poland,40,M,143.6,M 40-44,140+,,,,,,215,225,230,,230,,,,,,230
1,Norbert Hajas,B,Raw,Hungary,46,M,71.3,M 45-49,75,,,,,,150,157.5,162.5,,162.5,,,,,,162.5
1,Tám Nguyen,B,Raw,Slovakia,48,M,82.4,M 45-49,82.5,,,,,,145,157.5,162.5,,162.5,,,,,,162.5
2,Zsolt Karlik,B,Raw,Hungary,46,M,77.9,M 45-49,82.5,,,,,,155,-160,160,,160,,,,,,160
3,Ireneusz Pryk,B,Raw,Poland,48,M,80,M 45-49,82.5,,,,,,110,117.5,125,,125,,,,,,125
1,Anton Frič,B,Raw,Slovakia,45,M,89.6,M 45-49,90,,,,,,160,170,177.5,,177.5,,,,,,177.5
2,Mario Auer,B,Raw,Austria,45,M,85.2,M 45-49,90,,,,,,160,170,172.5,,172.5,,,,,,172.5
3,Tom Kurowski,B,Raw,USA,46,M,89.7,M 45-49,90,,,,,,165,172.5,-175,,172.5,,,,,,172.5
4,Július Mertvík,B,Raw,Slovakia,45,M,89.6,M 45-49,90,,,,,,160,170,-172.5,,170,,,,,,170
5,Vladan Zapletal,B,Raw,Czechia,47,M,88.8,M 45-49,90,,,,,,147.5,152.5,-155,,152.5,,,,,,152.5
1,Hovhannes Yazichyan,B,Raw,Poland,47,M,96.2,M 45-49,100,,,,,,195,200,205,210.5,205,,,,,,205
2,František Sajko,B,Raw,Slovakia,47,M,90.1,M 45-49,100,,,,,,150,160,167.5,,167.5,,,,,,167.5
3,Roman Vida,B,Raw,Slovakia,49,M,99.9,M 45-49,100,,,,,,140,150,-155,,150,,,,,,150
4,Mykola Grygorovych,B,Raw,Ukraine,48,M,95.9,M 45-49,100,,,,,,117.5,125,-130,,125,,,,,,125
1,Oleg Palamarchuk,B,Raw,Ukraine,45,M,108.3,M 45-49,110,,,,,,-205,205,210,,210,,,,,,210
2,Richard Eartly,B,Raw,USA,45,M,108.2,M 45-49,110,,,,,,167.5,172.5,-180,,172.5,,,,,,172.5
3,Hagen Ribb,B,Raw,Germany,48,M,104.8,M 45-49,110,,,,,,145,-155,155,,155,,,,,,155
4,Marián Hudec,B,Raw,Slovakia,48,M,101,M 45-49,110,,,,,,140,-150,150,,150,,,,,,150
1,Benny Ferander,B,Raw,Sweden,46,M,123.9,M 45-49,125,,,,,,190,-200,202.5,,202.5,,,,,,202.5
2,Tamás Pfeifenróth,B,Raw,Hungary,45,M,115,M 45-49,125,,,,,,192.5,197.5,200,,200,,,,,,200
3,Tamás Bartalos,B,Raw,Hungary,45,M,120,M 45-49,125,,,,,,192.5,197.5,-200,,197.5,,,,,,197.5
4,Ljubiša Šaula,B,Raw,Slovenia,49,M,121.8,M 45-49,125,,,,,,195,-200,-202.5,,195,,,,,,195
5,Milan Pado,B,Raw,Slovakia,46,M,113,M 45-49,125,,,,,,177.5,190,-197.5,,190,,,,,,190
6,Kai-Uwe Werner,B,Raw,Germany,47,M,121,M 45-49,125,,,,,,180,190,-202.5,,190,,,,,,190
1,Erik Susztay,B,Raw,Slovakia,46,M,138.1,M 45-49,140,,,,,,215,220,-225,,220,,,,,,220
2,Tamás Szabó,B,Raw,Hungary,48,M,126.4,M 45-49,140,,,,,,170,180,185,,185,,,,,,185
3,Tibor Szmolár,B,Raw,Hungary,46,M,127.9,M 45-49,140,,,,,,135,145,-147.5,,145,,,,,,145
4,Ľudovít Fürješ,B,Raw,Slovakia,46,M,125.4,M 45-49,140,,,,,,137.5,-142.5,-145,,137.5,,,,,,137.5
1,Lonnie Dickinson,B,Raw,USA,49,M,154.6,M 45-49,140+,,,,,,250,260,-268,-268,260,,,,,,260
2,Grzegorz Kantor,B,Raw,Poland,46,M,145.8,M 45-49,140+,,,,,,180,190,-192.5,,190,,,,,,190
1,Mirko Jaedtke-Schulze,B,Raw,Germany,51,M,58.8,M 50-54,60,,,,,,90,95,-100,,95,,,,,,95
1,Viacheslav Mintiuk,B,Raw,Ukraine,50,M,73,M 50-54,75,,,,,,127.5,-132.5,-135,,127.5,,,,,,127.5
2,Piotr Jurkiewicz,B,Raw,Poland,52,M,74.2,M 50-54,75,,,,,,110,117.5,120,,120,,,,,,120
1,László Jantek,B,Raw,Hungary,52,M,81.2,M 50-54,82.5,,,,,,-160,160,-170,,160,,,,,,160
2,Marek Gruszecki,B,Raw,Poland,50,M,80,M 50-54,82.5,,,,,,120,-130,130,,130,,,,,,130
1,Ferenc Papp,B,Raw,Hungary,54,M,85.7,M 50-54,90,,,,,,130,-135,135,,135,,,,,,135
2,Gábor Reichert,B,Raw,Hungary,54,M,87.1,M 50-54,90,,,,,,125,-132.5,-132.5,,125,,,,,,125
1,László Bugyi,B,Raw,Hungary,54,M,96.8,M 50-54,100,,,,,,165,170,172.5,,172.5,,,,,,172.5
2,Zsolt Mohácsi,B,Raw,Hungary,52,M,98.8,M 50-54,100,,,,,,160,167.5,-172.5,,167.5,,,,,,167.5
3,Stanislav Jakubec,B,Raw,Slovakia,51,M,97.4,M 50-54,100,,,,,,150,155,160,,160,,,,,,160
4,Helmut Silberbauer,B,Raw,Austria,53,M,98.8,M 50-54,100,,,,,,150,155,-160,,155,,,,,,155
5,Vitalii Filonenko,B,Raw,Ukraine,54,M,96.7,M 50-54,100,,,,,,127.5,132.5,-140,,132.5,,,,,,132.5
1,Krzysztof Bożyczko-Jałocha,B,Raw,Poland,53,M,106.7,M 50-54,110,,,,,,200,210,-217.5,,210,,,,,,210
2,Jaromír Mizera,B,Raw,Czechia,52,M,105.3,M 50-54,110,,,,,,170,-180,-180,,170,,,,,,170
1,Ján Orosz,B,Raw,Slovakia,54,M,124.9,M 50-54,125,,,,,,185,195,-200,,195,,,,,,195
2,Joachim Krebs,B,Raw,Austria,50,M,110.8,M 50-54,125,,,,,,160,165,170,,170,,,,,,170
3,Attila Heizer,B,Raw,Hungary,52,M,112.5,M 50-54,125,,,,,,160,165,-170,,165,,,,,,165
4,Franz Gansinger,B,Raw,Austria,50,M,110.2,M 50-54,125,,,,,,150,160,-167.5,,160,,,,,,160
5,Adam Ubertowski,B,Raw,Poland,51,M,114.2,M 50-54,125,,,,,,150,-160,-160,,150,,,,,,150
6,Ladislav Beňo,B,Raw,Slovakia,52,M,112,M 50-54,125,,,,,,130,137.5,-145,,137.5,,,,,,137.5
1,László Vass,B,Raw,Hungary,54,M,137.6,M 50-54,140,,,,,,185,192.5,200,,200,,,,,,200
2,Csaba Molnár,B,Raw,Hungary,54,M,127.3,M 50-54,140,,,,,,182.5,-187.5,,,182.5,,,,,,182.5
1,Tahvo Jauhojärvi,B,Raw,Sweden,56,M,67.2,M 55-59,67.5,,,,,,105,112.5,-120,,112.5,,,,,,112.5
1,Uwe Herfort,B,Raw,Germany,58,M,75,M 55-59,75,,,,,,132.5,137.5,140,,140,,,,,,140
2,Sejfo Šehović,B,Raw,Bosnia and Herzegovina,59,M,73.1,M 55-59,75,,,,,,100,110,-115,,110,,,,,,110
3,Bernhard Schmid,B,Raw,Germany,55,M,72.9,M 55-59,75,,,,,,95,100,-102.5,,100,,,,,,100
1,Milan Suk,B,Raw,Czechia,55,M,77.7,M 55-59,82.5,,,,,,150,155,-162.5,,155,,,,,,155
2,Reiner Krieger,B,Raw,Germany,58,M,78.9,M 55-59,82.5,,,,,,105,110,-112.5,,110,,,,,,110
1,Hartmut Ewert,B,Raw,Germany,59,M,83.8,M 55-59,90,,,,,,130,140,145,,145,,,,,,145
1,Falk Steinkopf,B,Raw,Germany,57,M,95.6,M 55-59,100,,,,,,130,135,138.5,140,138.5,,,,,,138.5
2,Imre Nagy,B,Raw,Hungary,55,M,99.2,M 55-59,100,,,,,,120,135,138,139,138,,,,,,138
3,Roman Raczykowski,B,Raw,Poland,57,M,99.2,M 55-59,100,,,,,,125,130,135,,135,,,,,,135
4,Jürgen Schewitza,B,Raw,Germany,55,M,97,M 55-59,100,,,,,,-115,115,117.5,,117.5,,,,,,117.5
1,István Ágoston,B,Raw,Hungary,56,M,101.3,M 55-59,110,,,,,,170,180,187.5,,187.5,,,,,,187.5
2,Sándor Szabó,B,Raw,Hungary,55,M,109.4,M 55-59,110,,,,,,160,172.5,175,,175,,,,,,175
3,Jan Gołąbek,B,Raw,Poland,59,M,106.1,M 55-59,110,,,,,,130,140,-142.5,,140,,,,,,140
1,Jiří Hájek,B,Raw,Czechia,55,M,122.2,M 55-59,125,,,,,,170,177.5,-182.5,,177.5,,,,,,177.5
2,Michael Schäfer,B,Raw,Germany,56,M,114.5,M 55-59,125,,,,,,130,135,140,,140,,,,,,140
DQ,Béla Nagy,B,Raw,Hungary,57,M,112.1,M 55-59,125,,,,,,-160,-160,-160,,,,,,,,
1,Pál Kovács,B,Raw,Hungary,56,M,129.6,M 55-59,140,,,,,,120,-130,,,120,,,,,,120
1,Petr Dubnický,B,Raw,Czechia,56,M,140.1,M 55-59,140+,,,,,,160,167.5,172.5,,172.5,,,,,,172.5
1,István Tóth,B,Raw,Hungary,62,M,58.7,M 60-64,60,,,,,,110,115,120,,120,,,,,,120
1,József Németh,B,Raw,Hungary,60,M,74.4,M 60-64,75,,,,,,105,110,-115,,110,,,,,,110
2,Jozef Gabrhel,B,Raw,Slovakia,62,M,73.3,M 60-64,75,,,,,,92.5,97.5,-100,,97.5,,,,,,97.5
1,Karel Schoř,B,Raw,Czechia,63,M,81.3,M 60-64,82.5,,,,,,130,140,-145,,140,,,,,,140
1,Rémy Krayzel,B,Raw,Czechia,63,M,86.4,M 60-64,90,,,,,,160,172.5,177.5,,177.5,,,,,,177.5
2,Eduard Weber,B,Raw,Germany,61,M,88.9,M 60-64,90,,,,,,-110,110,-120,,110,,,,,,110
1,Franciszek Szabluk,B,Raw,Poland,62,M,99.6,M 60-64,100,,,,,,165,-170,-170,,165,,,,,,165
2,Frank Kutzsch,B,Raw,Germany,62,M,94.5,M 60-64,100,,,,,,152.5,160,-165,,160,,,,,,160
3,Zbigniew Cabaj,B,Raw,Poland,63,M,91.8,M 60-64,100,,,,,,120,130,135,,135,,,,,,135
1,István Eszenyi,B,Raw,Hungary,61,M,107.1,M 60-64,110,,,,,,160,-167.5,-167.5,,160,,,,,,160
2,Wojciech Nitecki,B,Raw,Poland,62,M,108.6,M 60-64,110,,,,,,120,130,-135,,130,,,,,,130
3,Joachim Flett,B,Raw,Germany,60,M,103.5,M 60-64,110,,,,,,115,125,-132.5,,125,,,,,,125
1,Július Vrbiniak,B,Raw,Slovakia,61,M,112.7,M 60-64,125,,,,,,-145,155,162.5,,162.5,,,,,,162.5
2,Klaus Grosser,B,Raw,Germany,63,M,114.5,M 60-64,125,,,,,,140,150,-160,,150,,,,,,150
1,Piotr Redzik,B,Raw,Poland,61,M,125.2,M 60-64,140,,,,,,135,145,151,,151,,,,,,151
1,Rudolf Dávid,B,Raw,Hungary,65,M,72.2,M 65-69,75,,,,,,-112.5,112.5,115,,115,,,,,,115
2,Zbigniew Koper,B,Raw,Poland,65,M,74.8,M 65-69,75,,,,,,95,-100,102.5,,102.5,,,,,,102.5
1,Gerd Müller,B,Raw,Germany,66,M,81.8,M 65-69,82.5,,,,,,120,125,-130,,125,,,,,,125
1,Kurt Schoula,B,Raw,Germany,65,M,99.1,M 65-69,100,,,,,,150,160,-165,,160,,,,,,160
1,Josef Hakl,B,Raw,Czechia,68,M,113.3,M 65-69,125,,,,,,155,-162.5,-162.5,,155,,,,,,155
2,Ján Slovík,B,Raw,Slovakia,67,M,112.5,M 65-69,125,,,,,,85,90,-95,,90,,,,,,90
1,Rudolf Piotr Różański,B,Raw,Poland,68,M,126.1,M 65-69,140,,,,,,100,-107.5,-107.5,,100,,,,,,100
1,Roland Götz,B,Raw,Germany,72,M,74.3,M 70-74,75,,,,,,75,85.5,90,,90,,,,,,90
1,Joachim Eulenstein,B,Raw,Germany,71,M,88.1,M 70-74,90,,,,,,100,110,115,,115,,,,,,115
2,Roman Wanot,B,Raw,Poland,70,M,82.7,M 70-74,90,,,,,,85,-90,90,,90,,,,,,90
1,Miroslaw Orłowski,B,Raw,Poland,74,M,96.4,M 70-74,100,,,,,,140,142.5,143.5,-144,143.5,,,,,,143.5
1,Michal Juriš,B,Raw,Slovakia,70,M,101,M 70-74,110,,,,,,105,112.5,116,,116,,,,,,116
1,Erwin Trichlin,B,Raw,Austria,79,M,64.8,M 75-79,67.5,,,,,,80,-87.5,87.5,,87.5,,,,,,87.5
1,György Fonyódi,B,Raw,Hungary,75,M,70.2,M 75-79,75,,,,,,70,75,-77.5,,75,,,,,,75
1,Ladislav Kollár,B,Raw,Slovakia,75,M,79,M 75-79,82.5,,,,,,115,120,-122.5,,120,,,,,,120
1,László Kasza Id,B,Raw,Hungary,77,M,89.2,M 75-79,90,,,,,,115,122.5,-132.5,-132.5,122.5,,,,,,122.5
1,Hans-Jürgen Dosin,B,Raw,Germany,78,M,98.3,M 75-79,100,,,,,,102.5,-108,108,-111,108,,,,,,108
1,Hans-Jürgen Kuhlmey,B,Raw,Germany,77,M,122.3,M 75-79,125,,,,,,120,123.5,125,,125,,,,,,125
1,Michał Zębrowski,B,Raw,Poland,27,M,58.8,Open,60,,,,,,100,105,107.5,,107.5,,,,,,107.5
2,Gábor Boncz,B,Raw,Hungary,27,M,57.3,Open,60,,,,,,85,90,-92.5,,90,,,,,,90
1,Ondrej Oláh,B,Raw,Slovakia,27,M,63.7,Open,67.5,,,,,,140,150,-155,,150,,,,,,150
1,Konrad Adamaszek,B,Raw,Poland,31,M,75,Open,75,,,,,,185,190,-195,,190,,,,,,190
2,Zdeněk Holeček,B,Raw,Czechia,30,M,74.6,Open,75,,,,,,160,170,-180,,170,,,,,,170
3,Ivo Dittrich,B,Raw,Czechia,39,M,68.8,Open,75,,,,,,140,150,-157.5,,150,,,,,,150
4,Ladislav Pasecký,B,Raw,Czechia,33,M,74.4,Open,75,,,,,,140,150,-157.5,,150,,,,,,150
5,Michal Mata,B,Raw,Czechia,31,M,72.4,Open,75,,,,,,125,130,-135,,130,,,,,,130
DQ,Tobias Goßmann,B,Raw,Germany,33,M,71.6,Open,75,,,,,,-90,-95,-95,,,,,,,,
1,Marcin Dulko,B,Raw,Poland,25,M,82,Open,82.5,,,,,,180,190,-195,,190,,,,,,190
2,Łukasz Zalewski,B,Raw,Poland,32,M,81.6,Open,82.5,,,,,,-160,160,172.5,,172.5,,,,,,172.5
3,Kamil Babiš,B,Raw,Czechia,26,M,81.6,Open,82.5,,,,,,160,-170,-170,,160,,,,,,160
1,Jozef Grega,B,Raw,Slovakia,24,M,84,Open,90,,,,,,185,192.5,-197.5,,192.5,,,,,,192.5
2,Ákos Nagy,B,Raw,Hungary,25,M,82.9,Open,90,,,,,,170,175,180,,180,,,,,,180
3,Tim Kassner,B,Raw,Germany,29,M,88.6,Open,90,,,,,,150,-155,,,150,,,,,,150
1,Jarosław Buczko,B,Raw,Poland,26,M,94.1,Open,100,,,,,,215,225,-230,,225,,,,,,225
2,Ádám Moszkál,B,Raw,Hungary,22,M,97.8,Open,100,,,,,,202.5,210,217.5,,217.5,,,,,,217.5
3,Jan Habart,B,Raw,Germany,41,M,98.7,Open,100,,,,,,190,200,210,,210,,,,,,210
4,Michal Hrivňák,B,Raw,Slovakia,24,M,98.2,Open,100,,,,,,195,200,205,,205,,,,,,205
5,Petr Novák,B,Raw,Czechia,41,M,99.2,Open,100,,,,,,190,195,197.5,,197.5,,,,,,197.5
6,Ľubomír Vidiščák,B,Raw,Slovakia,31,M,99.9,Open,100,,,,,,-160,170,175,,175,,,,,,175
7,Tomáš Knotek,B,Raw,Slovakia,25,M,100,Open,100,,,,,,160,-170,-172.5,,160,,,,,,160
1,Vlastimil Kužel,B,Raw,Czechia,41,M,108.3,Open,110,,,,,,240,247.5,-252.5,,247.5,,,,,,247.5
2,Ákos Oláh,B,Raw,Hungary,29,M,105.9,Open,110,,,,,,217.5,225,230,,230,,,,,,230
3,Attila Karcsák,B,Raw,Hungary,37,M,108.5,Open,110,,,,,,212.5,217.5,222.5,,222.5,,,,,,222.5
4,Marijo Rukavina,B,Raw,Croatia,34,M,103.9,Open,110,,,,,,210,-220,-220,,210,,,,,,210
5,Lukáš Forejtek,B,Raw,Czechia,24,M,104.1,Open,110,,,,,,190,200,-205,,200,,,,,,200
6,Andrej Katrenčík,B,Raw,Slovakia,26,M,107.4,Open,110,,,,,,200,-212.5,-212.5,,200,,,,,,200
7,Richárd Németh,B,Raw,Hungary,24,M,103.7,Open,110,,,,,,180,-185,185,,185,,,,,,185
8,Velibor Janeš,B,Raw,Croatia,32,M,106.7,Open,110,,,,,,175,-180,-185,,175,,,,,,175
1,Juraj Grígeľ,B,Raw,Slovakia,25,M,113.4,Open,125,,,,,,205,215,-225,,215,,,,,,215
2,Dávid Mészáros,B,Raw,Hungary,25,M,115.7,Open,125,,,,,,215,-225,-227.5,,215,,,,,,215
3,Adrian Grabski,B,Raw,Poland,36,M,117.7,Open,125,,,,,,205,215,-227.5,,215,,,,,,215
4,Robert Dudek,B,Raw,Poland,31,M,118.2,Open,125,,,,,,200,-207.5,207.5,,207.5,,,,,,207.5
1,László Mészáros,B,Raw,Hungary,49,M,135.8,Open,140,,,,,,260,270,280.5,,280.5,,,,,,280.5
2,Irfan Muhić,B,Raw,Bosnia and Herzegovina,40,M,127.3,Open,140,,,,,,240,250,255,,255,,,,,,255
3,Dawid Lange,B,Raw,Poland,30,M,138,Open,140,,,,,,220,230,235,,235,,,,,,235
4,Krzysztof Cieślak,B,Raw,Poland,33,M,127,Open,140,,,,,,207.5,-215,-215,,207.5,,,,,,207.5
DQ,František Piroš,B,Raw,Slovakia,32,M,132.4,Open,140,,,,,,-220,,,,,,,,,,
1,Lonnie Dickinson,B,Raw,USA,49,M,155.7,Open,140+,,,,,,250,262.5,-265,,262.5,,,,,,262.5
2,Denis Vlček,B,Raw,Czechia,27,M,160.9,Open,140+,,,,,,220,-230,230,,230,,,,,,230
3,Jozef Daráž,B,Raw,Slovakia,32,M,151.8,Open,140+,,,,,,190,-200,-200,,190,,,,,,190
1,Marcin Biegun,B,Raw,Poland,36,M,55.4,Submasters,56,,,,,,90,100,102.5,,102.5,,,,,,102.5
1,Lukáš Chmela,B,Raw,Czechia,36,M,81,Submasters,82.5,,,,,,152.5,-157.5,-157.5,,152.5,,,,,,152.5
1,Volodymyr Galyga,B,Raw,Ukraine,35,M,93.5,Submasters,100,,,,,,192.5,200,205,,205,,,,,,205
1,Attila Karcsák,B,Raw,Hungary,37,M,108.5,Submasters,110,,,,,,202.5,-207.5,,,202.5,,,,,,202.5
2,Sándor Vaszilkó,B,Raw,Hungary,36,M,108.4,Submasters,110,,,,,,190,195,197.5,,197.5,,,,,,197.5
3,Grzegorz Rompalski,B,Raw,Poland,36,M,105.7,Submasters,110,,,,,,180,190,195,,195,,,,,,195
4,Klaus Steinbock,B,Raw,Austria,37,M,108.1,Submasters,110,,,,,,170,-180,-180,,170,,,,,,170
1,Mahir Moro,B,Raw,Bosnia and Herzegovina,37,M,119.6,Submasters,125,,,,,,220,230,-240,,230,,,,,,230
2,Jozef Harandza,B,Raw,Slovakia,36,M,115.4,Submasters,125,,,,,,200,-207.5,-215,,200,,,,,,200
1,Mirza Muratović,B,Raw,Bosnia and Herzegovina,36,M,130,Submasters,140,,,,,,220,230,240,,240,,,,,,240
1,Rebeka Ficeková,B,Multi-ply,Slovakia,17,F,73.6,T 16-17,75,,,,,,80,90,92.5,-100,92.5,,,,,,92.5
1,Lisa Brunow,B,Multi-ply,Germany,24,F,68.5,Open,75,,,,,,57.5,-62.5,-62.5,,57.5,,,,,,57.5
1,Moonika Aus,B,Multi-ply,Estonia,47,F,54.5,M 45-49,56,,,,,,67.5,-72.5,72.5,,72.5,,,,,,72.5
1,Terézia Haladová,B,Multi-ply,Slovakia,45,F,86.3,M 45-49,90,,,,,,110,115,-120,,115,,,,,,115
1,Viola Kongehl,B,Multi-ply,Germany,50,F,70.7,M 50-54,75,,,,,,80,85,88,,88,,,,,,88
1,Inge Kaule,B,Multi-ply,Germany,65,F,50.6,M 65-69,52,,,,,,55,57.5,60,62.5,60,,,,,,60
1,László Haraszti Ifj,B,Multi-ply,Hungary,16,M,96.9,T 16-17,100,,,,,,130,140,150,,150,,,,,,150
1,Ján Velgos,B,Multi-ply,Slovakia,17,M,125,T 16-17,125,,,,,,320,330,-347.5,,330,,,,,,330
1,Pavel Čížek,B,Multi-ply,Czechia,22,M,87.4,Juniors,90,,,,,,190,200,-220,,200,,,,,,200
1,Peter Sakala,B,Multi-ply,Slovakia,22,M,131.7,Juniors,140,,,,,,-280,280,-300,,280,,,,,,280
1,Janoš Ungai,B,Multi-ply,Hungary,42,M,72.9,M 40-44,75,,,,,,135,145,150,,150,,,,,,150
1,Igors Marudins,B,Multi-ply,Latvia,42,M,82.1,M 40-44,82.5,,,,,,180,-190,-190,,180,,,,,,180
1,David Velička,B,Multi-ply,Czechia,41,M,89.1,M 40-44,90,,,,,,220,-230,230,,230,,,,,,230
1,Mihails Rekaikins,B,Multi-ply,Latvia,42,M,96.4,M 40-44,100,,,,,,-200,200,-210,,200,,,,,,200
1,Petr Hron,B,Multi-ply,Czechia,41,M,103.7,M 40-44,110,,,,,,230,-240,,,230,,,,,,230
DQ,Andrej Smutný,B,Multi-ply,Slovakia,41,M,108,M 40-44,110,,,,,,-290,-290,-290,,,,,,,,
1,Ondrej Hudák,B,Multi-ply,Slovakia,43,M,115.7,M 40-44,125,,,,,,300,-315,-315,,300,,,,,,300
1,Kai-Uwe Göllnitz,B,Multi-ply,Germany,44,M,129.9,M 40-44,140,,,,,,280,290,-302.5,,290,,,,,,290
1,Miroslav Drnek,B,Multi-ply,Czechia,46,M,89.8,M 45-49,90,,,,,,210,218,222.5,227.5,222.5,,,,,,222.5
1,Roman Vida,B,Multi-ply,Slovakia,49,M,99.9,M 45-49,100,,,,,,145,155,165,,165,,,,,,165
1,Aladár Uherík,B,Multi-ply,Slovakia,46,M,105,M 45-49,110,,,,,,220,230,232.5,,232.5,,,,,,232.5
2,Petr Poláček,B,Multi-ply,Czechia,46,M,109.8,M 45-49,110,,,,,,210,220,-232.5,,220,,,,,,220
3,László Haraszti Id,B,Multi-ply,Hungary,47,M,107.3,M 45-49,110,,,,,,210,-230,-232.5,,210,,,,,,210
1,Steffen Reisbach,B,Multi-ply,Germany,50,M,89.5,M 50-54,90,,,,,,172.5,177.5,-182.5,,177.5,,,,,,177.5
1,Oļegs Illarionovs,B,Multi-ply,Russia,52,M,96.8,M 50-54,100,,,,,,252.5,-255,255,260,255,,,,,,255
1,Zsolt Mohácsi,B,Multi-ply,Hungary,52,M,100.2,M 50-54,110,,,,,,150,,,,150,,,,,,150
1,Viktor Kudi,B,Multi-ply,Czechia,52,M,114.2,M 50-54,125,,,,,,-285,285,300,,300,,,,,,300
2,Adam Ubertowski,B,Multi-ply,Poland,51,M,114.2,M 50-54,125,,,,,,170,-180,180,,180,,,,,,180
1,Tahvo Jauhojärvi,B,Multi-ply,Sweden,56,M,66.8,M 55-59,67.5,,,,,,142,147.5,-150,,147.5,,,,,,147.5
1,Uwe Herfort,B,Multi-ply,Germany,58,M,75.3,M 55-59,82.5,,,,,,-130,137.5,150,,150,,,,,,150
2,Flórián Dolán,B,Multi-ply,Slovakia,56,M,81.7,M 55-59,82.5,,,,,,130,135,-142.5,,135,,,,,,135
1,Ulfert Rinas,B,Multi-ply,Germany,59,M,97.7,M 55-59,100,,,,,,180,187.5,195,,195,,,,,,195
2,Falk Steinkopf,B,Multi-ply,Germany,57,M,96.4,M 55-59,100,,,,,,130,137.5,-140,,137.5,,,,,,137.5
1,Wojciech Kramer,B,Multi-ply,Poland,57,M,118.1,M 55-59,125,,,,,,170,180,190,,190,,,,,,190
2,Michael Schäfer,B,Multi-ply,Germany,56,M,114.2,M 55-59,125,,,,,,130,155,160,,160,,,,,,160
1,Pál Kovács,B,Multi-ply,Hungary,56,M,130.3,M 55-59,140,,,,,,110,,,,110,,,,,,110
1,Adam Csupori,B,Multi-ply,Slovakia,61,M,99.9,M 60-64,100,,,,,,165,175,-187.5,,175,,,,,,175
1,Jozef Belica,B,Multi-ply,Slovakia,62,M,105.9,M 60-64,110,,,,,,170,-177.5,180,,180,,,,,,180
1,Klaus Grosser,B,Multi-ply,Germany,63,M,113.5,M 60-64,125,,,,,,170,180,190,,190,,,,,,190
1,Péter Mihály,B,Multi-ply,Slovakia,60,M,164,M 60-64,140+,,,,,,200,,,,200,,,,,,200
1,Gerd Müller,B,Multi-ply,Germany,66,M,82.5,M 65-69,82.5,,,,,,120,132.5,140,,140,,,,,,140
1,Armin Bunzel,B,Multi-ply,Germany,65,M,96.1,M 65-69,100,,,,,,125,135,137.5,,137.5,,,,,,137.5
1,Wojciech Grabowski,B,Multi-ply,Poland,67,M,103,M 65-69,110,,,,,,200,-210,210,,210,,,,,,210
1,Josef Nussbaumer,B,Multi-ply,Austria,67,M,115.9,M 65-69,125,,,,,,195,207.5,-217.5,217.5,207.5,,,,,,207.5
1,László Jobbágy,B,Multi-ply,Hungary,71,M,80.1,M 70-74,82.5,,,,,,145,155.5,-160,,155.5,,,,,,155.5
1,Erwin Trichlin,B,Multi-ply,Austria,79,M,66,M 75-79,67.5,,,,,,85,92.5,-100,,92.5,,,,,,92.5
1,Konrad Merta,B,Multi-ply,Germany,80,M,88.5,M 80+,90,,,,,,90,-112.5,-115,,90,,,,,,90
1,Robin von Zweydorff,B,Multi-ply,Germany,38,M,98.9,Submasters,100,,,,,,270,280,-290,,280,,,,,,280
1,Ján Šiska,B,Multi-ply,Slovakia,38,M,121,Submasters,125,,,,,,220,-235,235,,235,,,,,,235
2,Krisztián Kovács,B,Multi-ply,Hungary,36,M,112.8,Submasters,125,,,,,,190,210,220,,220,,,,,,220
DQ,Andreas Senger,B,Multi-ply,Germany,39,M,114.7,Submasters,125,,,,,,-190,-190,-195,,,,,,,,
1,Erik Valent,B,Multi-ply,Slovakia,34,M,73.4,Open,75,,,,,,160,170,-180,,170,,,,,,170
1,Zoltán Szabó,B,Multi-ply,Hungary,33,M,80.9,Open,82.5,,,,,,190,205,-215,,205,,,,,,205
DQ,Steffen Blumenthal,B,Multi-ply,Germany,34,M,81.3,Open,82.5,,,,,,-220,-220,-220,,,,,,,,
1,Filip Stanko,B,Multi-ply,Slovakia,28,M,84.1,Open,90,,,,,,255,262.5,-270,,262.5,,,,,,262.5
2,Jozef Grega,B,Multi-ply,Slovakia,24,M,84,Open,90,,,,,,230,-245,245,,245,,,,,,245
3,Matej Chovanec,B,Multi-ply,Slovakia,28,M,85.7,Open,90,,,,,,205,210,-215,,210,,,,,,210
1,Jozef Čambál,B,Multi-ply,Slovakia,30,M,98.3,Open,100,,,,,,220,230,235,,235,,,,,,235
2,Károly Szuder,B,Multi-ply,Hungary,31,M,99.5,Open,100,,,,,,225,232.5,-255,,232.5,,,,,,232.5
3,Jan Satrapa,B,Multi-ply,Czechia,32,M,96,Open,100,,,,,,200,-220,-232.5,,200,,,,,,200
1,Eduard Sidó,B,Multi-ply,Slovakia,41,M,108.5,Open,110,,,,,,250,257.5,-260,,257.5,,,,,,257.5
2,Tomáš Kríž,B,Multi-ply,Slovakia,25,M,103.2,Open,110,,,,,,200,-300,-305,,200,,,,,,200
1,Petr Kohd,B,Multi-ply,Czechia,34,M,115.7,Open,125,,,,,,230,250,270,,270,,,,,,270
2,Boris Švirec,B,Multi-ply,Slovakia,54,M,115,Open,125,,,,,,190,-200,-200,,190,,,,,,190
3,József Somogyi,B,Multi-ply,Hungary,26,M,118.2,Open,125,,,,,,180,-200,-200,,180,,,,,,180
1,Richárd Buda,B,Multi-ply,Hungary,25,M,125.7,Open,140,,,,,,-370,370,-375,,370,,,,,,370
DQ,Jan Rousek,B,Multi-ply,Czechia,33,M,127.4,Open,140,,,,,,-235,-235,-235,,,,,,,,
