Division,WeightClassKg,Place,Name,Team,BodyweightKg,Best3SquatKg,Best3BenchKg,Best3DeadliftKg,TotalKg,Equipment,Event,Sex
Girls,44.23,1,Ashley Fink,Little Elm,43.45,104.33,54.43,88.45,247.21,Single-ply,SBD,F
Girls,44.23,2,Maya Higgenbotham,Wylie,42.82,90.72,47.63,95.25,233.6,Single-ply,SBD,F
Girls,44.23,3,Alex Villegas,Wylie East,40.46,88.45,40.82,97.52,226.8,Single-ply,SBD,F
Girls,44.23,4,Genisis Zamora,Sherman,44.23,83.91,36.29,90.72,210.92,Single-ply,SBD,F
Girls,44.23,5,Jaclyn McNichols,Saginaw,42.64,65.77,31.75,97.52,195.04,Single-ply,SBD,F
Girls,44.23,6,Stephanie Bermudez,Denison,43,72.57,43.09,77.11,192.78,Single-ply,SBD,F
Girls,44.23,7,Jennifer Phan,Wichita Falls Rider,43.64,72.57,29.48,83.91,185.97,Single-ply,SBD,F
Girls,44.23,8,Sabrina Cummings,Little Elm,40.19,81.65,34.02,68.04,183.7,Single-ply,SBD,F
Girls,44.23,9,Brey'Ona Pierson,Cedar Hill,41,58.97,24.95,95.25,179.17,Single-ply,SBD,F
Girls,44.23,10,Amari Sparks,Cedar Hill,43.36,58.97,29.48,90.72,179.17,Single-ply,SBD,F
Girls,47.85,1,Sonni Gehring,Wylie,47.63,117.93,56.7,106.59,281.23,Single-ply,SBD,F
Girls,47.85,2,Britney Golladay,Wylie,47.54,88.45,61.23,111.13,260.82,Single-ply,SBD,F
Girls,47.85,3,Raven Huff,Denison,47.72,97.52,40.82,120.2,258.55,Single-ply,SBD,F
Girls,47.85,4,Kaitlyn Watson,Wylie,45.27,97.52,52.16,106.59,256.28,Single-ply,SBD,F
Girls,47.85,5,Lauren Gilliam,Weatherford,46.95,104.33,43.09,106.59,254.01,Single-ply,SBD,F
Girls,47.85,6,Molly Chhor,Little Elm,45.9,90.72,40.82,104.33,235.87,Single-ply,SBD,F
Girls,47.85,7,Kyrie Sauceda,McKinney North,47.63,102.06,43.09,90.72,235.87,Single-ply,SBD,F
Girls,47.85,8,Breanna Villareal,Saginaw,46.99,97.52,36.29,81.65,215.46,Single-ply,SBD,F
Girls,47.85,9,Ariana Kumph,Northwest Eaton,45.99,77.11,34.02,79.38,190.51,Single-ply,SBD,F
Girls,47.85,10,Kaitlyn George,Mansfield,47.85,74.84,36.29,72.57,183.7,Single-ply,SBD,F
Girls,47.85,DQ,Victoria Vang,Wylie,47.63,,,,,Single-ply,SBD,F
Girls,51.94,1,Kailey Trice,Wylie,51.53,124.74,61.23,111.13,297.1,Single-ply,SBD,F
Girls,51.94,2,Emma Beebe,Wylie East,51.71,111.13,49.9,133.81,294.84,Single-ply,SBD,F
Girls,51.94,3,Cristina Sanchez,Wylie,50.71,113.4,52.16,127.01,292.57,Single-ply,SBD,F
Girls,51.94,4,Shelbie Rhodes,Little Elm,50.98,120.2,49.9,122.47,292.57,Single-ply,SBD,F
Girls,51.94,5,Puckie Ratanabouapha,Saginaw,50.89,108.86,49.9,117.93,276.69,Single-ply,SBD,F
Girls,51.94,6,Jenny Tagle,Wylie,49.99,99.79,52.16,117.93,269.89,Single-ply,SBD,F
Girls,51.94,7,Ravyn Wagoner,Denison,51.94,104.33,52.16,111.13,267.62,Single-ply,SBD,F
Girls,51.94,8,Amy Trimble,Little Elm,51.71,115.67,54.43,90.72,260.82,Single-ply,SBD,F
Girls,51.94,9,Cecelia Allen,Wylie,49.62,90.72,49.9,111.13,251.74,Single-ply,SBD,F
Girls,51.94,10,Caitlin Pawloski,Wichita Falls Rider,49.44,95.25,40.82,104.33,240.4,Single-ply,SBD,F
Girls,51.94,11,Grace Sipho,North Crowley,50.53,72.57,34.02,111.13,217.72,Single-ply,SBD,F
Girls,51.94,12,Bailee Rader,Cedar Hill,51.26,81.65,38.56,97.52,217.72,Single-ply,SBD,F
Girls,51.94,DQ,Norma Ceron,Bishop Lynch,50.08,83.91,,,,Single-ply,SBD,F
Girls,56.02,1,DaKevia Neal,Cedar Hill,53.61,145.15,49.9,127.01,322.05,Single-ply,SBD,F
Girls,56.02,2,Bernabeth Beason,Wylie,53.25,127.01,63.5,129.27,319.78,Single-ply,SBD,F
Girls,56.02,3,Giovanna Valdez,Wylie,55.25,117.93,68.04,129.27,315.25,Single-ply,SBD,F
Girls,56.02,4,Arlandrea Revels,Cedar Hill,53.8,122.47,47.63,131.54,301.64,Single-ply,SBD,F
Girls,56.02,5,Nellie Siegfried,Saginaw,54.98,113.4,52.16,136.08,301.64,Single-ply,SBD,F
Girls,56.02,6,Izzi Fielder,Little Elm,55.07,115.67,61.23,117.93,294.84,Single-ply,SBD,F
Girls,56.02,7,Savannah Callender,Wylie,55.16,124.74,52.16,117.93,294.84,Single-ply,SBD,F
Girls,56.02,8,Tania Yanez,Fort Worth Paschal,53.61,113.4,52.16,120.2,285.76,Single-ply,SBD,F
Girls,56.02,9,Kyndra Baker,North Crowley,54.98,111.13,47.63,120.2,278.96,Single-ply,SBD,F
Girls,56.02,10,Erin Plemmons,Denison,54.61,95.25,61.23,117.93,274.42,Single-ply,SBD,F
Girls,60.1,1,Hannah Eboagu,Bishop Lynch,59.24,145.15,70.31,156.49,371.95,Single-ply,SBD,F
Girls,60.1,2,Cierra Jackson,Mansfield Timberview,59.87,147.42,63.5,145.15,356.07,Single-ply,SBD,F
Girls,60.1,3,Yocelin Hernandez,Wylie,59.87,136.08,70.31,145.15,351.53,Single-ply,SBD,F
Girls,60.1,4,Esohe Emokpae,Wylie,59.06,111.13,65.77,142.88,319.78,Single-ply,SBD,F
Girls,60.1,5,Abigail Reilly,Wichita Falls Rider,58.97,124.74,68.04,124.74,317.51,Single-ply,SBD,F
Girls,60.1,6,Molly Sarles,Wylie,59.96,122.47,61.23,129.27,312.98,Single-ply,SBD,F
Girls,60.1,7,Kaitlyn Nwonuman,Mansfield Timberview,58.33,122.47,54.43,127.01,303.91,Single-ply,SBD,F
Girls,60.1,8,Haley Dessart,Wylie,59.06,113.4,56.7,131.54,301.64,Single-ply,SBD,F
Girls,60.1,9,Jamie Williams,Royse City,57.61,122.47,58.97,117.93,299.37,Single-ply,SBD,F
Girls,60.1,10,Keely Watson,Wylie East,58.6,127.01,49.9,120.2,297.1,Single-ply,SBD,F
Girls,60.1,11,Aaliyah Tate,Cedar Hill,56.7,106.59,43.09,124.74,274.42,Single-ply,SBD,F
Girls,67.36,1,Makayla Millbrook,Wylie,67.22,151.95,68.04,151.95,371.95,Single-ply,SBD,F
Girls,67.36,2,Briana Williams,Wylie,66.77,142.88,61.23,158.76,362.87,Single-ply,SBD,F
Girls,67.36,3,Ashley Otah,Wylie,67.31,115.67,74.84,172.37,362.87,Single-ply,SBD,F
Girls,67.36,4,Tianna Rainey,Cedar Hill,65.05,131.54,58.97,163.29,353.8,Single-ply,SBD,F
Girls,67.36,5,Mie Somiari,Bishop Lynch,66.22,138.35,56.7,158.76,353.8,Single-ply,SBD,F
Girls,67.36,6,Hannah Skinner,Little Elm,65.14,136.08,77.11,138.35,351.53,Single-ply,SBD,F
Girls,67.36,7,Caroline Carter,Wylie,65.23,149.69,70.31,131.54,351.53,Single-ply,SBD,F
Girls,67.36,8,Lexi Loving,Wylie,66.59,124.74,83.91,142.88,351.53,Single-ply,SBD,F
Girls,67.36,9,Liz Aribisala,Cedar Hill,66.95,124.74,58.97,156.49,340.19,Single-ply,SBD,F
Girls,67.36,10,MyKiyah Whitfield,Little Elm,66.5,136.08,61.23,136.08,333.39,Single-ply,SBD,F
Girls,67.36,DQ,Shalonda Eley,Prosper,64.95,,,,,Single-ply,SBD,F
Girls,75.07,1,Ashtyn Burget,Wylie,73.26,151.95,83.91,163.29,399.16,Single-ply,SBD,F
Girls,75.07,2,Kailey Jones,Denison,73.48,149.69,74.84,158.76,383.29,Single-ply,SBD,F
Girls,75.07,3,Juliet Nwokocha,Wylie,69.22,154.22,65.77,158.76,378.75,Single-ply,SBD,F
Girls,75.07,4,Katy Shipley,Rockwall-Heath,74.48,142.88,79.38,151.95,374.21,Single-ply,SBD,F
Girls,75.07,5,Mayan Young,Mansfield Timberview,71.67,142.88,70.31,149.69,362.87,Single-ply,SBD,F
Girls,75.07,6,Jaydan Hunt,Denison,72.94,131.54,83.91,147.42,362.87,Single-ply,SBD,F
Girls,75.07,7,Megan Higbee,Rockwall-Heath,71.12,138.35,65.77,149.69,353.8,Single-ply,SBD,F
Girls,75.07,8,Nyliba Musa,Wylie,69.67,136.08,56.7,142.88,335.66,Single-ply,SBD,F
Girls,75.07,DQ,Malen Hernandez,Bishop Lynch,73.84,145.15,,,,Single-ply,SBD,F
Girls,75.07,DQ,Melissa Watkins,Haltom City Haltom,73.71,147.42,74.84,,,Single-ply,SBD,F
Girls,82.33,1,Abi Lutz,Wylie East,80.38,172.37,104.33,163.29,439.98,Single-ply,SBD,F
Girls,82.33,2,Kya Charron,Keller Timber Creek,80.29,163.29,113.4,149.69,426.38,Single-ply,SBD,F
Girls,82.33,3,Maddie Whaley,Wylie,81.28,151.95,79.38,147.42,378.75,Single-ply,SBD,F
Girls,82.33,4,Neiddy Rodriguez,Wylie,76.2,154.22,68.04,147.42,369.68,Single-ply,SBD,F
Girls,82.33,5,Chandler Rogers,North Crowley,78.29,145.15,68.04,142.88,356.07,Single-ply,SBD,F
Girls,82.33,6,Tamires Berzin,Keller Timber Creek,80.83,136.08,63.5,142.88,342.46,Single-ply,SBD,F
Girls,82.33,7,Frannie Farlow,Bishop Lynch,76.38,138.35,65.77,136.08,340.19,Single-ply,SBD,F
Girls,82.33,8,Morgan Dunn,Weatherford,75.21,129.27,61.23,124.74,315.25,Single-ply,SBD,F
Girls,82.33,9,Faith Goins,Little Elm,75.3,120.2,70.31,124.74,315.25,Single-ply,SBD,F
Girls,82.33,10,Madi Young,Rockwall-Heath,79.74,115.67,58.97,133.81,308.44,Single-ply,SBD,F
Girls,82.33,11,Casey Barrett,Little Elm,81.74,120.2,65.77,122.47,308.44,Single-ply,SBD,F
Girls,90.04,1,Emily Daniel,Keller Timber Creek,83.55,167.83,90.72,151.95,410.5,Single-ply,SBD,F
Girls,90.04,2,Alyssa Spence,McKinney,87.09,163.29,88.45,158.76,410.5,Single-ply,SBD,F
Girls,90.04,3,Hanna Beattie,Wylie,85.82,163.29,72.57,147.42,383.29,Single-ply,SBD,F
Girls,90.04,4,Hailey Covington,Wylie,88.72,142.88,65.77,133.81,342.46,Single-ply,SBD,F
Girls,90.04,5,Charlotte Huckestein,Sherman,87.09,131.54,58.97,131.54,322.05,Single-ply,SBD,F
Girls,90.04,6,Gaudalupe Solorzano,Weatherford,84.37,120.2,56.7,142.88,319.78,Single-ply,SBD,F
Girls,90.04,7,Melissa Rodriguez,Fort Worth Paschal,88.09,145.15,52.16,120.2,317.51,Single-ply,SBD,F
Girls,90.04,8,Jazimin Huckestein,Sherman,89.99,131.54,58.97,117.93,308.44,Single-ply,SBD,F
Girls,90.04,DQ,Bianca Ramirez,Wylie,82.55,,,,,Single-ply,SBD,F
Girls,90.04,DQ,Aubree Beard,Frisco Centennial,89.81,,,,,Single-ply,SBD,F
Girls,100.02,1,Keyshawna Newman,Wichita Falls Rider,94.26,176.9,77.11,181.44,435.45,Single-ply,SBD,F
Girls,100.02,2,Sammie Slagle,Wichita Falls,94.26,170.1,79.38,158.76,408.23,Single-ply,SBD,F
Girls,100.02,3,Ebony Thibodeaux,Mansfield Timberview,96.52,158.76,92.99,156.49,408.23,Single-ply,SBD,F
Girls,100.02,4,EmmaRae Ward,Fort Worth Arlington Heights,98.52,174.63,63.5,158.76,396.89,Single-ply,SBD,F
Girls,100.02,5,Victoria Martinez #3,Wylie,97.89,156.49,90.72,147.42,394.63,Single-ply,SBD,F
Girls,100.02,6,Kadeija Edwards,Wylie,98.79,158.76,81.65,145.15,385.55,Single-ply,SBD,F
Girls,100.02,7,Jasmine Ruvalcaba,Bishop Lynch,94.71,145.15,79.38,151.95,376.48,Single-ply,SBD,F
Girls,100.02,8,Kelsy Medlin,Wylie East,97.89,176.9,72.57,124.74,374.21,Single-ply,SBD,F
Girls,100.02,9,Kat Jones,Rockwall-Heath,93.98,129.27,72.57,149.69,351.53,Single-ply,SBD,F
Girls,100.02,10,Tylesha Jackson,North Crowley,99.25,151.95,63.5,129.27,344.73,Single-ply,SBD,F
Girls,100.02,11,Daedra Alexander,North Crowley,96.16,124.74,79.38,117.93,322.05,Single-ply,SBD,F
Girls,100.02+,1,London Leslie,Fort Worth Arlington Heights,137.53,199.58,97.52,170.1,467.2,Single-ply,SBD,F
Girls,100.02+,2,Leslie Quijada,Royse City,107.77,183.7,77.11,158.76,419.57,Single-ply,SBD,F
Girls,100.02+,3,Marion Wright,Wylie East,120.29,158.76,111.13,149.69,419.57,Single-ply,SBD,F
Girls,100.02+,4,Blanca Vega,Cedar Hill,122.29,181.44,79.38,158.76,419.57,Single-ply,SBD,F
Girls,100.02+,5,Kaitlynn Peterson,Rockwall-Heath,115.94,167.83,77.11,145.15,390.09,Single-ply,SBD,F
Girls,100.02+,6,Faith Ette,Mansfield Lake Ridge,110.59,131.54,88.45,161.03,381.02,Single-ply,SBD,F
Girls,100.02+,7,Yonyetta Sutton,Saginaw,142.16,174.63,68.04,133.81,376.48,Single-ply,SBD,F
Girls,100.02+,8,Andrea Torres,Sherman,113.13,147.42,72.57,151.95,371.95,Single-ply,SBD,F
Girls,100.02+,9,Abbie Thompson,Mansfield,121.83,136.08,88.45,145.15,369.68,Single-ply,SBD,F
Girls,100.02+,10,Karlysia Pierce,North Crowley,102.51,124.74,68.04,138.35,331.12,Single-ply,SBD,F
