Place,Name,Division,Equipment,Event,BirthDate,BirthYear,Age,Sex,BodyweightKg,WeightClassKg,Squat1Kg,Squat2Kg,Squat3Kg,Best3SquatKg,Bench1Kg,Bench2Kg,Bench3Kg,Best3BenchKg,Deadlift1Kg,Deadlift2Kg,Deadlift3Kg,Best3DeadliftKg,TotalKg
1,Emma Montfort,Sub-Juniors,Raw,SBD,,2002,17,F,62.44,63,80,-90,-90,80,40,45,50,50,80,85,92.5,92.5,222.5
1,Carla Simon,Juniors,Raw,SBD,,2001,18,F,56.145,57,80,85,-92.5,85,40,-45,45,45,95,105,-115,105,235
1,Amélie Legras,Juniors,Raw,SBD,,1999,20,F,62.795,63,85,90,-95,90,62.5,65,67.5,67.5,100,110,-127.5,110,267.5
2,Camille Lecot,Juniors,Raw,SBD,,1998,20,F,61.545,63,80,90,-97.5,90,40,45,-47.5,45,95,105,-115,105,240
3,Chloe Kelle,Juniors,Raw,SBD,,1998,21,F,57.865,63,77.5,85,90,90,42.5,-47.5,-47.5,42.5,105,-112.5,-112.5,105,237.5
4,Carline Plantard,Juniors,Raw,SBD,,1998,21,F,61.545,63,85,87.5,-90,87.5,42.5,-45,-45,42.5,105,-112.5,-112.5,105,235
1,Coline Specque,Juniors,Raw,SBD,,2000,19,F,69.29,72,95,105,-110,105,55,57.5,60,60,117.5,-127.5,127.5,127.5,292.5
2,Elvira Winant,Juniors,Raw,SBD,,1997,22,F,68.77,72,70,80,90,90,60,65,-70,65,100,110,115,115,270
3,Canelle Bourbotte,Juniors,Raw,SBD,,1997,22,F,71,72,85,95,-100,95,57.5,-65,-65,57.5,80,-95,-95,80,232.5
1,Johanne Jandos,Seniors,Raw,SBD,,1994,25,F,61.965,63,90,95,100,100,55,-60,60,60,110,120,-127.5,120,280
1,Emmanuelle Jaworski,Seniors,Raw,SBD,,1989,30,F,70.085,72,125,135,-145,135,67.5,75,-82.5,75,130,145,155,155,365
1,Jennifer Bailleul,Seniors,Raw,SBD,,1986,33,F,125.825,84+,130,140,-145,140,50,55,-60,55,145,155,-160,155,350
1,Beatrice Swiderski,Masters 1,Raw,SBD,,1976,43,F,87.84,84+,100,110,115,115,50,55,60,60,115,125,-132.5,125,300
1,Florence Moulinier,Masters 2,Raw,SBD,,1969,50,F,60.595,63,-52.5,52.5,60,60,27.5,30,-32.5,30,72.5,82.5,92.5,92.5,182.5
2,Veronique Fort,Masters 2,Raw,SBD,,1969,50,F,61.75,63,47.5,55,57.5,57.5,30,35,-37.5,35,72.5,82.5,90,90,182.5
1,Tristan Bouville,Sub-Juniors,Raw,SBD,,2002,17,M,64.41,66,140,150,-155,150,85,92.5,-97.5,92.5,150,160,,160,402.5
2,Lucas Dufour,Sub-Juniors,Raw,SBD,,2002,17,M,66,66,105,-112.5,112.5,112.5,80,-85,85,85,125,135,142.5,142.5,340
1,Steven Evraere,Sub-Juniors,Raw,SBD,,2003,16,M,72.03,74,125,135,,135,67.5,72.5,,72.5,145,155,,155,362.5
2,Oscar Follet,Sub-Juniors,Raw,SBD,,2002,17,M,70.64,74,85,92.5,100,100,60,65,-70,65,110,-120,120,120,285
1,Florent Bienaime,Sub-Juniors,Raw,SBD,,2002,17,M,91.63,93,-120,125,-137.5,125,85,90,95,95,140,-155,160,160,380
1,Quentin Kelle,Juniors,Raw,SBD,,1999,20,M,64.84,66,135,-142.5,142.5,142.5,82.5,87.5,-90,87.5,170,180,-190,180,410
1,Alexandre Lechene,Juniors,Raw,SBD,,1999,20,M,72.74,74,200,-205,-205,200,115,-117.5,-117.5,115,220,227.5,230,230,545
2,Edward Sohier,Juniors,Raw,SBD,,1998,21,M,73.2,74,180,190,200,200,95,105,-107.5,105,220,230,240,240,545
3,Anaël Beaurieux,Juniors,Raw,SBD,,1997,21,M,71.89,74,-187.5,187.5,-200,187.5,100,-107.5,-107.5,100,210,230,-247.5,230,517.5
4,Quentin Delplanque,Juniors,Raw,SBD,,1998,21,M,72.72,74,155,-165,170,170,85,-92.5,92.5,92.5,-160,170,180,180,442.5
1,Souleiman Turki,Juniors,Raw,SBD,,2000,19,M,79.1,83,-205,215,240,240,-125,135,147.5,147.5,245,262.5,275,275,662.5
2,Mohamed Ayered,Juniors,Raw,SBD,,1997,21,M,81.485,83,170,-180,-180,170,105,110,-115,110,-220,230,245,245,525
3,Clement Lambert,Juniors,Raw,SBD,,1998,21,M,78.5,83,-175,175,-185,175,85,92.5,95,95,200,215,-220,215,485
4,Charles Beszterda,Juniors,Raw,SBD,,1999,20,M,78.275,83,-120,135,145,145,97.5,105,110,110,180,205,-215,205,460
5,Clement Ledoux,Juniors,Raw,SBD,,1999,20,M,80.53,83,152.5,-162.5,-162.5,152.5,-110,115,117.5,117.5,180,190,-200,190,460
DQ,Thibault Havez,Juniors,Raw,SBD,,2000,18,M,83,83,-135,-135,-137.5,,75,-80,80,80,-165,165,-170,165,
1,Aurélien Rose,Juniors,Raw,SBD,,1998,21,M,86.065,93,-165,170,175,175,100,110,,110,210,220,230,230,515
DQ,Maxime Collot,Juniors,Raw,SBD,,1997,22,M,74.46,83,-152.5,152.5,-167.5,152.5,-97.5,-97.5,-97.5,,,,,,
1,Aurélien Batteur,Juniors,Raw,SBD,,1999,20,M,93,93,-200,205,210,210,-135,140,-145,140,235,245,252.5,252.5,602.5
2,Simon Brienne,Juniors,Raw,SBD,,1998,21,M,91.43,93,195,205,215,215,110,115,117.5,117.5,230,250,-260,250,582.5
3,Karl Moullard,Juniors,Raw,SBD,,1998,21,M,92.83,93,-175,180,-190,180,125,130,-132.5,130,220,235,-242.5,235,545
4,Jimmy Laurent,Juniors,Raw,SBD,,1997,22,M,86.55,93,165,175,185,185,115,120,125,125,210,220,230,230,540
5,Aurélien Rose,Juniors,Raw,SBD,,1998,21,M,86.065,93,-165,170,175,175,100,110,,110,210,220,230,230,515
6,Ryan Evraere,Juniors,Raw,SBD,,1997,22,M,87.225,93,160,-170,170,170,120,130,-135,130,-210,210,-242.5,210,510
7,Adrien Dessenne,Juniors,Raw,SBD,,1998,21,M,89.91,93,130,150,-160,150,100,105,-107.5,105,170,185,-190,185,440
DQ,Guillaume Oudot,Juniors,Raw,SBD,,2001,18,M,84.5,93,-130,-150,-155,,95,105,110,110,150,170,180,180,
1,Nicolas Bracq,Juniors,Raw,SBD,,1997,21,M,102.2,105,187.5,200,-205,200,140,147.5,152.5,152.5,227.5,247.5,-252.5,247.5,600
2,Enguerrand Decristoforo,Juniors,Raw,SBD,,1998,20,M,104.5,105,-165,172.5,175,175,-110,115,-120,115,190,205,,205,495
1,François Merland,Seniors,Raw,SBD,,1984,35,M,65.57,66,182.5,187.5,190,190,107.5,110,-112.5,110,222.5,,,222.5,522.5
1,Julien Caudrelier,Seniors,Raw,SBD,,1992,27,M,72.76,74,180,-190,195,195,102.5,107.5,-112.5,107.5,215,230,240,240,542.5
2,Florent Lecaillon,Seniors,Raw,SBD,,1989,30,M,72.84,74,-155,155,165,165,107.5,112.5,117.5,117.5,212.5,225,-230,225,507.5
3,Julien Alvin,Seniors,Raw,SBD,,1993,26,M,73.52,74,170,180,185,185,95,100,-105,100,185,200,215,215,500
4,Julien Galland,Seniors,Raw,SBD,,1996,23,M,69.7,74,130,140,150,150,95,100,-105,100,170,180,-190,180,430
5,Julien Dureux,Seniors,Raw,SBD,,1984,35,M,74,74,140,145,-147.5,145,97.5,102.5,-107.5,102.5,140,155,-170,155,402.5
1,Alessio Trunfio,Seniors,Raw,SBD,,1991,28,M,101.43,105,-180,180,-190,180,150,-160,-160,150,200,210,-215,210,540
2,James Chollet,Seniors,Raw,SBD,,1993,26,M,97.7,105,140,150,155,155,85,95,-100,95,210,220,-225,220,470
1,Jimmy Desmond,Seniors,Raw,SBD,,1992,27,M,106.52,120,190,205,215,215,127.5,-132.5,135,135,-205,215,225,225,575
1,Christophe Guilbert,Seniors,Raw,SBD,,1992,27,M,80.845,83,195,202.5,-207.5,202.5,125,130,-135,130,200,207.5,-212.5,207.5,540
2,Morgan Peru,Seniors,Raw,SBD,,1995,24,M,81.985,83,180,-190,190,190,120,127.5,-132.5,127.5,190,205,220,220,537.5
3,Sylvain Decool,Seniors,Raw,SBD,,1990,29,M,82.85,83,180,-185,-185,180,107.5,112.5,-115,112.5,237.5,245,-250,245,537.5
4,Grégoire Plée,Seniors,Raw,SBD,,1995,24,M,82.14,83,165,172.5,-177.5,172.5,100,-105,105,105,220,230,-240,230,507.5
5,Tony Dolejal,Seniors,Raw,SBD,,1989,30,M,79.42,83,120,125,127.5,127.5,90,-95,-95,90,165,170,175,175,392.5
1,Sofyann Ait Naceur,Seniors,Raw,SBD,,1995,24,M,93,93,227.5,240,250,250,152.5,-160,-160,152.5,275,290,300,300,702.5
2,Claude Ngoma,Seniors,Raw,SBD,,1989,30,M,90.94,93,200,-215,-220,200,137.5,-142.5,-142.5,137.5,-210,235,260,260,597.5
3,Celien Zawadski,Seniors,Raw,SBD,,1996,23,M,83.38,93,200,210,-212.5,210,125,135,140,140,225,232.5,240,240,590
4,Axel Codron,Seniors,Raw,SBD,,1996,23,M,88.65,93,200,-210,210,210,120,125,-130,125,240,250,-260,250,585
5,David Dalloyeau,Seniors,Raw,SBD,,1991,28,M,92.14,93,-205,205,-217.5,205,135,142.5,147.5,147.5,200,215,225,225,577.5
6,Marc Sasda,Seniors,Raw,SBD,,1988,31,M,92.25,93,190,-200,-205,190,100,-110,-110,100,240,255,-270,255,545
7,Paul Lanciano,Seniors,Raw,SBD,,1994,25,M,91.89,93,180,190,-192.5,190,122.5,130,-132.5,130,200,210,215,215,535
8,Julien Durlique,Seniors,Raw,SBD,,1995,24,M,92.75,93,-190,-195,195,195,107.5,112.5,117.5,117.5,190,195,202.5,202.5,515
9,Denis Pinto,Seniors,Raw,SBD,,1990,29,M,83.8,93,165,172.5,180,180,115,120,-122.5,120,185,195,-200,195,495
10,Raphaël Damota Pires,Seniors,Raw,SBD,,1993,26,M,86.6,93,140,150,157.5,157.5,110,117.5,122.5,122.5,170,185,190,190,470
11,Loic Severin,Seniors,Raw,SBD,,1995,24,M,89.955,93,-150,162.5,-172.5,162.5,97.5,102.5,-107.5,102.5,180,195,205,205,470
12,Bryan Degandt,Seniors,Raw,SBD,,1995,24,M,89.02,93,145,-155,155,155,115,117.5,-120,117.5,160,170,-180,170,442.5
1,Joaquim Da Rocha,Masters 1,Raw,SBD,,1978,41,M,81.6,83,190,200,205,205,125,132.5,-137.5,132.5,200,220,230,230,567.5
1,Eric Desmoulin,Masters 2,Raw,SBD,,1969,50,M,103.1,105,190,205,-210,205,140,-150,150,150,225,240,-247.5,240,595
G,Elodie Picazzo,Sub-Juniors,Raw,SBD,,2004,15,F,60.74,63,50,55,60,60,60,65,67.5,67.5,65,72.5,80,80,207.5
G,Abdelaziz Benikken,Seniors,Raw,SBD,,1985,34,M,122.87,120+,-270,270,-300,270,-180,180,-190,180,270,-300,-300,270,720
DQ,Jérôme Godsens,Seniors,Single-ply,SBD,,1983,36,M,76.89,83,-180,180,-195,180,-145,-145,-145,,200,215,-230,215,
1,Didier Dacquignie,Masters 1,Single-ply,SBD,,1973,46,M,83,83,190,-200,200,200,160,165,-167.5,165,180,187.5,-200,187.5,552.5
1,David Kelle,Masters 1,Single-ply,SBD,,1976,43,M,91,93,-180,185,-205,185,130,140,-150,140,180,200,-205,200,525
1,Bruno Bastien,Masters 2,Single-ply,SBD,,1965,54,M,73.8,74,140,-155,-157.5,140,140,147.5,-158,147.5,-162.5,172.5,-185,172.5,460
G,Bertrand Couvercelle,Masters 1,Single-ply,SBD,,1977,42,M,81.9,83,220,-232.5,232.5,232.5,117.5,122.5,,122.5,200,,,200,555
