Division,WeightClassKg,Place,Name,Team,BodyweightKg,Best3SquatKg,Best3BenchKg,Best3DeadliftKg,TotalKg,Equipment,Event,Sex,BirthDate
Boys,51.71,1,Rey Medrano,Mathis,51.44,127.01,72.57,154.22,353.8,Single-ply,SBD,M,
Boys,51.71,2,Jose Huerta,Santa Gertrudis Academy,50.53,133.81,65.77,142.88,342.46,Single-ply,SBD,M,
Boys,51.71,3,Noah Estrada,Agua Dulce,49.99,113.4,70.31,133.81,317.51,Single-ply,SBD,M,
Boys,51.71,4,Joseph Norman,Corpus Christi John Paul II High School,46.99,97.52,72.57,138.35,308.44,Single-ply,SBD,M,
Boys,51.71,5,Daniel Montoya,Gregory-Portland,49.8,113.4,68.04,122.47,303.91,Single-ply,SBD,M,
Boys,51.71,6,Oscar Duarte,PSJA Memorial,50.35,111.13,65.77,102.06,278.96,Single-ply,SBD,M,
Boys,51.71,7,Matthew Garcia,PSJA Memorial,49.26,104.33,54.43,108.86,267.62,Single-ply,SBD,M,
Boys,51.71,DQ,Shiv Ranchhod,Gregory-Portland,51.26,158.76,77.11,,,Single-ply,SBD,M,
Boys,51.71,DQ,Trey Wright,Mathis,51.71,,,,,Single-ply,SBD,M,
Boys,51.71,DQ,Chris Edwards,Aransas Pass,50.26,124.74,,,,Single-ply,SBD,M,
Boys,55.79,1,Bryan Gutierrez,Bishop,55.52,167.83,106.59,172.37,446.79,Single-ply,SBD,M,
Boys,55.79,2,David Perez,Ben Bolt-Palito Blanco,55.34,165.56,102.06,174.63,442.25,Single-ply,SBD,M,
Boys,55.79,3,Josh Trevino,Corpus Christi West Oso,55.34,158.76,83.91,172.37,415.04,Single-ply,SBD,M,
Boys,55.79,4,Rigo Rosales,Robstown,54.7,154.22,79.38,158.76,392.36,Single-ply,SBD,M,
Boys,55.79,5,Michael Benavides,Agua Dulce,54.61,138.35,86.18,161.03,385.55,Single-ply,SBD,M,
Boys,55.79,6,Rogelio Sanchez,Odem,55.79,142.88,70.31,172.37,385.55,Single-ply,SBD,M,
Boys,55.79,7,Anthony Ramirez,Corpus Christi West Oso,54.7,129.27,83.91,156.49,369.68,Single-ply,SBD,M,
Boys,55.79,8,Isaiah Glasgow,Kingsville King,55.34,120.2,58.97,149.69,328.85,Single-ply,SBD,M,
Boys,55.79,9,Jayden Longoria,Bishop,55.79,122.47,61.23,117.93,301.64,Single-ply,SBD,M,
Boys,55.79,10,Johnathan Conway,Agua Dulce,51.89,95.25,65.77,131.54,292.57,Single-ply,SBD,M,
Boys,55.79,11,Justin Cruz,Mathis,54.07,106.59,56.7,129.27,292.57,Single-ply,SBD,M,
Boys,55.79,12,Carson Guidry,Taft,55.79,97.52,72.57,102.06,272.16,Single-ply,SBD,M,
Boys,55.79,DQ,Enrique DeLeon,Kenedy,54.98,,,,,Single-ply,SBD,M,
Boys,59.87,1,Jerek Sanchez,Taft,59.6,174.63,133.81,199.58,508.02,Single-ply,SBD,M,
Boys,59.87,2,Robert Rios,Mathis,59.69,188.24,111.13,204.12,503.49,Single-ply,SBD,M,
Boys,59.87,3,Gabriel García,Bishop,59.51,172.37,95.25,165.56,433.18,Single-ply,SBD,M,
Boys,59.87,4,Jacob Martinez,Hebbronville,59.6,154.22,95.25,174.63,424.11,Single-ply,SBD,M,
Boys,59.87,5,Ray Flores,Orange Grove,58.88,156.49,97.52,163.29,417.3,Single-ply,SBD,M,
Boys,59.87,6,James Adams,Odem,59.51,142.88,88.45,151.95,383.29,Single-ply,SBD,M,
Boys,59.87,7,Alex Gonzalez,Banquete,59.24,136.08,83.91,154.22,374.21,Single-ply,SBD,M,
Boys,59.87,8,Seth Solis,Hebbronville,59.42,131.54,77.11,163.29,371.95,Single-ply,SBD,M,
Boys,59.87,9,Joseph Riddell,Banquete,57.15,124.74,68.04,124.74,317.51,Single-ply,SBD,M,
Boys,59.87,DQ,Mark Moreno,Odem,58.97,,,,,Single-ply,SBD,M,
Boys,67.13,1,Nathan Meza,Refugio,67.13,213.19,124.74,217.72,555.65,Single-ply,SBD,M,
Boys,67.13,2,Joseph Chavez,Taft,65.86,183.7,97.52,217.72,498.95,Single-ply,SBD,M,
Boys,67.13,3,Elyon Ybarra,Mathis,63.78,181.44,124.74,190.51,496.68,Single-ply,SBD,M,
Boys,67.13,4,Angelus Lopez,Kingsville King,64.14,170.1,97.52,215.46,483.08,Single-ply,SBD,M,
Boys,67.13,5,Chris Acosta,Ingleside,61.05,170.1,92.99,217.72,480.81,Single-ply,SBD,M,
Boys,67.13,6,Jaryd Amaro,PSJA Memorial,65.23,195.04,99.79,183.7,478.54,Single-ply,SBD,M,
Boys,67.13,7,Luke Davis,Sinton,66.59,174.63,106.59,188.24,469.47,Single-ply,SBD,M,
Boys,67.13,8,Zach Smith,Orange Grove,64.86,158.76,83.91,174.63,417.3,Single-ply,SBD,M,
Boys,67.13,9,Rolando Ramos,Hebbronville,60.42,156.49,97.52,158.76,412.77,Single-ply,SBD,M,
Boys,67.13,10,Francisco Torres,Taft,63.87,129.27,72.57,145.15,347,Single-ply,SBD,M,
Boys,67.13,DQ,Abel Cervantez,Sinton,66.22,,,,,Single-ply,SBD,M,
Boys,67.13,DQ,Seth Bazan,Bishop,62.23,,,,,Single-ply,SBD,M,
Boys,67.13,DQ,Lorenzo Davila,Aransas Pass,64.77,142.88,,,,Single-ply,SBD,M,
Boys,74.84,1,Alvin Amador,Kenedy,73.84,208.65,120.2,219.99,548.85,Single-ply,SBD,M,
Boys,74.84,2,Anthony Garcia,Mathis,74.84,201.85,140.61,204.12,546.58,Single-ply,SBD,M,
Boys,74.84,3,Leo Guerrero,Hebbronville,74.84,195.04,122.47,195.04,512.56,Single-ply,SBD,M,
Boys,74.84,4,Isaiah Chavera,Hebbronville,74.21,188.24,124.74,195.04,508.02,Single-ply,SBD,M,
Boys,74.84,5,CJ Tanguma,Mathis,70.58,197.31,124.74,170.1,492.15,Single-ply,SBD,M,
Boys,74.84,6,Ezekiel Guerrero,Bishop,72.67,199.58,120.2,172.37,492.15,Single-ply,SBD,M,
Boys,74.84,7,Exander Gomez,Sinton,74.75,183.7,117.93,183.7,485.34,Single-ply,SBD,M,
Boys,74.84,8,Steve Tijerina,PSJA Memorial,70.4,183.7,106.59,183.7,474,Single-ply,SBD,M,
Boys,74.84,9,Christian Canales,Ingleside,70.94,183.7,113.4,174.63,471.74,Single-ply,SBD,M,
Boys,74.84,10,Jacob Sandoval,Bishop,68.58,181.44,90.72,181.44,453.59,Single-ply,SBD,M,
Boys,74.84,11,Edgar Huerta,Santa Gertrudis Academy,67.49,163.29,104.33,183.7,451.32,Single-ply,SBD,M,
Boys,74.84,12,Dominick Hinojosa,Bishop,72.67,104.33,68.04,145.15,317.51,Single-ply,SBD,M,
Boys,74.84,DQ,Eli Naranjo,Hebbronville,71.67,,,,,Single-ply,SBD,M,
Boys,74.84,DQ,Luis Salinas,Aransas Pass,70.13,174.63,111.13,,,Single-ply,SBD,M,
Boys,74.84,DQ,Joseph Valdez,Kenedy,72.48,,,,,Single-ply,SBD,M,
Boys,74.84,DQ,Matthew Ortiz,Orange Grove,73.21,161.03,,,,Single-ply,SBD,M,
Boys,74.84,DQ,Jacob Loera,Alice,74.84,,,,,Single-ply,SBD,M,
Boys,74.84,DQ,Henry Engleking,Orange Grove,70.4,79.38,,,,Single-ply,SBD,M,
Boys,82.1,1,Caleb Marshall,Hebbronville,81.1,226.8,156.49,217.72,601.01,Single-ply,SBD,M,
Boys,82.1,2,Dale Baez,Hebbronville,81.92,238.14,151.95,208.65,598.74,Single-ply,SBD,M,
Boys,82.1,3,George De Los Santos,Kenedy,81.1,231.33,120.2,213.19,564.72,Single-ply,SBD,M,
Boys,82.1,4,Cody Rosas,Robstown,82.01,208.65,131.54,208.65,548.85,Single-ply,SBD,M,
Boys,82.1,5,Elias Gonzalez,Sinton,82.1,215.46,122.47,210.92,548.85,Single-ply,SBD,M,
Boys,82.1,6,Juan Santana,Bishop,81.92,208.65,111.13,204.12,523.9,Single-ply,SBD,M,
Boys,82.1,7,Jacob Charles,Corpus Christi London,79.92,215.46,113.4,190.51,519.36,Single-ply,SBD,M,
Boys,82.1,8,Martin Garcia,Gregory-Portland,80.74,206.38,106.59,181.44,494.42,Single-ply,SBD,M,
Boys,82.1,9,Seth Morgan,Ingleside,81.28,183.7,106.59,190.51,480.81,Single-ply,SBD,M,
Boys,82.1,10,Ocean Limas,Bishop,82.1,181.44,102.06,181.44,464.93,Single-ply,SBD,M,
Boys,82.1,11,Adrian Gonzalez,Gregory-Portland,81.01,158.76,86.18,165.56,410.5,Single-ply,SBD,M,
Boys,82.1,12,AJ Gomez,Mathis,80.38,136.08,95.25,172.37,403.7,Single-ply,SBD,M,
Boys,82.1,13,Eian Meza,Aransas Pass,81.74,124.74,86.18,158.76,369.68,Single-ply,SBD,M,
Boys,82.1,DQ,Matt Perez,Mathis,82.1,,,,,Single-ply,SBD,M,
Boys,89.81,1,Damien Campos,Bishop,85.73,229.06,142.88,204.12,576.06,Single-ply,SBD,M,
Boys,89.81,2,Joseph Fillmore,Corpus Christi John Paul II High School,88.45,231.33,111.13,231.33,573.79,Single-ply,SBD,M,
Boys,89.81,3,Landon Garza,Odem,88.27,240.4,127.01,204.12,571.53,Single-ply,SBD,M,
Boys,89.81,4,Paul Baez,Hebbronville,85.82,222.26,142.88,195.04,560.19,Single-ply,SBD,M,
Boys,89.81,5,Ean McPherson,Rockport-Fulton,88.63,235.87,127.01,195.04,557.92,Single-ply,SBD,M,
Boys,89.81,6,Jacobo Rojas,Kingsville King,89.81,226.8,127.01,204.12,557.92,Single-ply,SBD,M,
Boys,89.81,7,Benji DeNava,Refugio,89.63,213.19,120.2,219.99,553.38,Single-ply,SBD,M,
Boys,89.81,8,Victor Ibarra,PSJA Memorial,88.9,210.92,124.74,215.46,551.11,Single-ply,SBD,M,
Boys,89.81,9,Brandon Salazar,Hebbronville,85.37,181.44,156.49,201.85,539.77,Single-ply,SBD,M,
Boys,89.81,10,Shawn Davis,Alice,89.81,195.04,97.52,183.7,476.27,Single-ply,SBD,M,
Boys,89.81,11,Nathan Reyes,Corpus Christi West Oso,88.36,156.49,102.06,199.58,458.13,Single-ply,SBD,M,
Boys,89.81,12,Pablo Fernandez,Alice,86,170.1,92.99,183.7,446.79,Single-ply,SBD,M,
Boys,89.81,DQ,Anastacio Lopez,Taft,84.82,165.56,,,,Single-ply,SBD,M,
Boys,89.81,DQ,Christian Moreno,Kingsville King,88.63,,,,,Single-ply,SBD,M,
Boys,99.79,1,Marcus Cerda,Taft,97.07,254.01,156.49,226.8,637.3,Single-ply,SBD,M,
Boys,99.79,2,Dante DeLeon,Mathis,96.71,249.48,158.76,226.8,635.03,Single-ply,SBD,M,
Boys,99.79,3,Joey Cantu,Rockport-Fulton,98.61,272.16,138.35,204.12,614.62,Single-ply,SBD,M,
Boys,99.79,4,Zach Escobedo,Gregory-Portland,99.16,235.87,145.15,231.33,612.35,Single-ply,SBD,M,
Boys,99.79,5,Diego Rubio,Stockdale,94.17,204.12,122.47,231.33,557.92,Single-ply,SBD,M,
Boys,99.79,6,Brody Raines,Gregory-Portland,98.07,208.65,138.35,204.12,551.11,Single-ply,SBD,M,
Boys,99.79,7,Alejandro Gómez,Hebbronville,92.62,217.72,147.42,170.1,535.24,Single-ply,SBD,M,
Boys,99.79,8,Santos Castillo,Agua Dulce,99.06,219.99,111.13,195.04,526.17,Single-ply,SBD,M,
Boys,99.79,9,Agapito Carrera,Taft,99.7,210.92,117.93,176.9,505.76,Single-ply,SBD,M,
Boys,99.79,10,Andrew Zuniga,Three Rivers,98.34,183.7,117.93,192.78,494.42,Single-ply,SBD,M,
Boys,99.79,11,Ismael Salinas,Mathis,98.61,181.44,133.81,176.9,492.15,Single-ply,SBD,M,
Boys,99.79,12,Marc Pena,PSJA Memorial,96.62,179.17,106.59,197.31,483.08,Single-ply,SBD,M,
Boys,99.79,13,Andre Trevino,Bishop,93.21,181.44,102.06,181.44,464.93,Single-ply,SBD,M,
Boys,99.79,14,Edwin Aguilar,Robstown,96.34,174.63,115.67,163.29,453.59,Single-ply,SBD,M,
Boys,99.79,15,Caleb Blankenship,Three Rivers,91.26,158.76,102.06,170.1,430.91,Single-ply,SBD,M,
Boys,99.79,16,Nathan Hinojosa,Bishop,96.43,151.95,102.06,161.03,415.04,Single-ply,SBD,M,
Boys,99.79,17,Esiquio Sauceda,Bishop,95.62,142.88,90.72,142.88,376.48,Single-ply,SBD,M,
Boys,99.79,DQ,Aden Trevino,Bishop,92.99,,,,,Single-ply,SBD,M,
Boys,99.79,DQ,Daniel Solorio,Banquete,93.98,217.72,108.86,,,Single-ply,SBD,M,
Boys,99.79,DQ,Daniel Tamez,Odem,99.06,,,,,Single-ply,SBD,M,
Boys,109.77,1,Jamie Gonzalez,Taft,109.68,269.89,161.03,256.28,687.19,Single-ply,SBD,M,
Boys,109.77,2,Brandon Rodriguez,Robstown,104.78,249.48,174.63,244.94,669.05,Single-ply,SBD,M,
Boys,109.77,3,Richard Alvarado,Aransas Pass,107.23,242.67,167.83,238.14,648.64,Single-ply,SBD,M,
Boys,109.77,4,Logan Hebert,Stockdale,109.32,240.4,174.63,219.99,635.03,Single-ply,SBD,M,
Boys,109.77,5,Julian Gomez,Odem,109.41,251.74,158.76,224.53,635.03,Single-ply,SBD,M,
Boys,109.77,6,Michael Esquivel,Taft,102.15,233.6,142.88,208.65,585.13,Single-ply,SBD,M,
Boys,109.77,7,Mason Pena,Ben Bolt-Palito Blanco,107.95,231.33,136.08,217.72,585.13,Single-ply,SBD,M,
Boys,109.77,8,Mark Morin,Taft,101.7,192.78,142.88,215.46,551.11,Single-ply,SBD,M,
Boys,109.77,9,Noah Martinez,Santa Gertrudis Academy,107.05,199.58,111.13,190.51,501.22,Single-ply,SBD,M,
Boys,109.77,10,Orlando Montalvo,Orange Grove,108.05,204.12,147.42,142.88,494.42,Single-ply,SBD,M,
Boys,109.77,11,Thomas Bearden,Bishop,109.32,195.04,106.59,190.51,492.15,Single-ply,SBD,M,
Boys,109.77,12,Angel Hernandez #14,Robstown,105.96,151.95,92.99,165.56,410.5,Single-ply,SBD,M,
Boys,109.77,DQ,Lee Andrew Moreno,Taft,109.77,149.69,113.4,,,Single-ply,SBD,M,
Boys,109.77,DQ,Jacob Gomez,Taft,106.32,,,,,Single-ply,SBD,M,
Boys,109.77,DQ,Josiah Gonzalez,Hebbronville,109.77,,,,,Single-ply,SBD,M,
Boys,124.74,1,Elijiah Brown,Sinton,124.56,254.01,145.15,219.99,619.15,Single-ply,SBD,M,
Boys,124.74,2,John Rodriguez,Skidmore-Tynan,118.21,244.94,145.15,226.8,616.89,Single-ply,SBD,M,
Boys,124.74,3,Joseph Luna,Kenedy,120.29,235.87,122.47,240.4,598.74,Single-ply,SBD,M,
Boys,124.74,4,John Cuevas #2,Skidmore-Tynan,118.66,233.6,154.22,204.12,591.94,Single-ply,SBD,M,
Boys,124.74,5,Phillip Conner,Gregory-Portland,111.58,231.33,136.08,217.72,585.13,Single-ply,SBD,M,
Boys,124.74,6,Jason Flores,Santa Gertrudis Academy,116.94,226.8,113.4,238.14,578.33,Single-ply,SBD,M,
Boys,124.74,7,Mark Pena,Robstown,122.92,226.8,147.42,188.24,562.45,Single-ply,SBD,M,
Boys,124.74,8,Matthew Mahistede,Stockdale,111.86,199.58,142.88,199.58,542.04,Single-ply,SBD,M,
Boys,124.74,9,James Gomez,Banquete,115.67,226.8,131.54,183.7,542.04,Single-ply,SBD,M,
Boys,124.74,10,Isaac Caldera,Bishop,112.85,217.72,111.13,195.04,523.9,Single-ply,SBD,M,
Boys,124.74,11,Ventura Leal,Robstown,122.92,195.04,129.27,190.51,514.83,Single-ply,SBD,M,
Boys,124.74,12,Damian Cowger,Bishop,117.03,195.04,108.86,167.83,471.74,Single-ply,SBD,M,
Boys,124.74+,1,Kevin Lopez,PSJA Memorial,132.27,278.96,181.44,240.4,700.8,Single-ply,SBD,M,
Boys,124.74+,2,Nate Martinez,Sinton,129.73,265.35,149.69,240.4,655.44,Single-ply,SBD,M,
Boys,124.74+,3,Jose Martinez,PSJA Memorial,141.97,274.42,149.69,226.8,650.91,Single-ply,SBD,M,
Boys,124.74+,4,Samuel Salinas,Santa Gertrudis Academy,133.81,240.4,147.42,226.8,614.62,Single-ply,SBD,M,
Boys,124.74+,5,Chris Rodriguez,Hebbronville,132.54,231.33,147.42,215.46,594.21,Single-ply,SBD,M,
Boys,124.74+,6,Arturo Gallegos,Ingleside,139.71,258.55,120.2,210.92,589.67,Single-ply,SBD,M,
Boys,124.74+,7,Ademar Garcia,Hebbronville,133.27,192.78,140.61,215.46,548.85,Single-ply,SBD,M,
Boys,124.74+,8,Jorge Rodriguez,Taft,166.29,102.06,74.84,142.88,319.78,Single-ply,SBD,M,
Boys,124.74+,DQ,Jody Martinez,Aransas Pass,146.33,290.3,,,,Single-ply,SBD,M,
Boys,124.74+,DQ,Tony Chavez,Taft,163.75,229.06,102.06,,,Single-ply,SBD,M,
Boys,124.74+,DQ,Paul Cruz,Skidmore-Tynan,147.24,,,,,Single-ply,SBD,M,
