Division,WeightClassKg,Place,Name,Team,BodyweightKg,Best3SquatKg,Best3BenchKg,Best3DeadliftKg,TotalKg,Equipment,Event,Sex,BirthDate
Boys,51.71,1,Corey Casey,Del Valle,51.26,115.67,77.11,145.15,337.93,Single-ply,SBD,M,
Boys,51.71,2,Onesimo Esquivel,San Marcos,51.26,127.01,65.77,142.88,335.66,Single-ply,SBD,M,
Boys,51.71,3,Colin Baumann,Kyle Lehman,51.44,108.86,68.04,136.08,312.98,Single-ply,SBD,M,
Boys,51.71,4,Jeremiah Harvey,Elgin,51.44,106.59,72.57,113.4,292.57,Single-ply,SBD,M,
Boys,51.71,5,Anthony Gonzalez,Luling,49.9,102.06,58.97,129.27,290.3,Single-ply,SBD,M,
Boys,51.71,6,David Zamora,Luling,45.81,97.52,47.63,113.4,258.55,Single-ply,SBD,M,
Boys,55.79,1,Jose Rios,Dripping Springs,55.25,215.46,92.99,215.46,523.9,Single-ply,SBD,M,
Boys,55.79,2,Eli Edwards,Seguin,55.79,174.63,86.18,185.97,446.79,Single-ply,SBD,M,
Boys,55.79,3,Reese Janda,Seguin,55.61,165.56,97.52,147.42,410.5,Single-ply,SBD,M,
Boys,55.79,4,Ethan Hernandez,Geronimo Navarro,55.52,163.29,90.72,136.08,390.09,Single-ply,SBD,M,
Boys,55.79,5,Josh Soliz,Seguin,55.16,142.88,74.84,151.95,369.68,Single-ply,SBD,M,
Boys,55.79,6,Pedro Climaco,Georgetown East View,54.25,129.27,81.65,122.47,333.39,Single-ply,SBD,M,
Boys,55.79,7,Cade Borchert,Lockhart,52.25,102.06,61.23,115.67,278.96,Single-ply,SBD,M,
Boys,55.79,8,Joseph Capetillo,Lockhart,54.7,97.52,54.43,120.2,272.16,Single-ply,SBD,M,
Boys,55.79,9,Bryan Muniz,Georgetown East View,52.71,52.16,38.56,90.72,181.44,Single-ply,SBD,M,
Boys,59.87,1,Leo Costilla,Seguin,59.78,163.29,102.06,176.9,442.25,Single-ply,SBD,M,
Boys,59.87,2,Jay Swain,Manor,59.87,145.15,83.91,188.24,417.3,Single-ply,SBD,M,
Boys,59.87,3,Dylan Duran,San Marcos,58.88,154.22,88.45,161.03,403.7,Single-ply,SBD,M,
Boys,59.87,4,Christian Jeanes,Kyle Lehman,59.69,145.15,92.99,163.29,401.43,Single-ply,SBD,M,
Boys,59.87,5,Jy'Aire Gobar,Hutto,58.97,127.01,81.65,174.63,383.29,Single-ply,SBD,M,
Boys,59.87,6,Dalton Garcia,Kyle Lehman,57.24,142.88,77.11,158.76,378.75,Single-ply,SBD,M,
Boys,59.87,7,Ikaika Engleman,Kyle Lehman,58.88,106.59,56.7,158.76,322.05,Single-ply,SBD,M,
Boys,59.87,8,Sebastian Rodriguez,Luling,57.88,106.59,72.57,136.08,315.25,Single-ply,SBD,M,
Boys,59.87,DQ,Gabe Driscoll,Del Valle,59.15,158.76,,,,Single-ply,SBD,M,
Boys,59.87,DQ,Lincoln Wiech,Pflugerville Connally,59.78,124.74,,,,Single-ply,SBD,M,
Boys,59.87,DQ,Donte Hudson,Pflugerville,59.87,,,,,Single-ply,SBD,M,
Boys,67.13,1,Ivan Venegas,Dripping Springs,60.87,231.33,145.15,231.33,607.81,Single-ply,SBD,M,
Boys,67.13,2,Eric Cruz,Kyle Lehman,66.68,197.31,106.59,215.46,519.36,Single-ply,SBD,M,
Boys,67.13,3,Max Garcia,Kyle Lehman,66.86,185.97,117.93,197.31,501.22,Single-ply,SBD,M,
Boys,67.13,4,Avery Marshaal,Manor,65.5,183.7,92.99,192.78,469.47,Single-ply,SBD,M,
Boys,67.13,5,Garrett Schlottman,Kyle Lehman,66.04,154.22,90.72,183.7,428.64,Single-ply,SBD,M,
Boys,67.13,6,Zachariah Decker,San Marcos,65.86,170.1,83.91,167.83,421.84,Single-ply,SBD,M,
Boys,67.13,7,Joseph Rodriguez,Del Valle,64.77,131.54,88.45,154.22,374.21,Single-ply,SBD,M,
Boys,67.13,8,Michael Nguyen,Pflugerville,66.13,167.83,90.72,90.72,349.27,Single-ply,SBD,M,
Boys,67.13,9,Jackson Coe,Georgetown East View,62.32,127.01,86.18,117.93,331.12,Single-ply,SBD,M,
Boys,67.13,10,Jose Hernandez,Pflugerville,60.87,111.13,65.77,142.88,319.78,Single-ply,SBD,M,
Boys,67.13,11,Daniel Gonzalez,Del Valle,63.68,122.47,68.04,113.4,303.91,Single-ply,SBD,M,
Boys,67.13,12,Roman Casanova,Del Valle,62.14,83.91,70.31,92.99,247.21,Single-ply,SBD,M,
Boys,67.13,DQ,Jalon Banks,Hutto,64.59,124.74,70.31,,,Single-ply,SBD,M,
Boys,67.13,DQ,Santiago Ayala,Lockhart,66.68,108.86,70.31,,,Single-ply,SBD,M,
Boys,74.84,1,Christian Caballero,Buda Hays,73.57,222.26,142.88,254.01,619.15,Single-ply,SBD,M,
Boys,74.84,2,Zane Bolding,Hutto,74.3,208.65,129.27,217.72,555.65,Single-ply,SBD,M,
Boys,74.84,3,Declan Trevethan,Buda Hays,73.21,208.65,117.93,215.46,542.04,Single-ply,SBD,M,
Boys,74.84,4,John Mike Mata,Seguin,74.66,199.58,108.86,204.12,512.56,Single-ply,SBD,M,
Boys,74.84,5,Benjamin White,Bastrop Cedar Creek,74.75,181.44,108.86,219.99,510.29,Single-ply,SBD,M,
Boys,74.84,6,Jerivan Contreras,Seguin,70.22,172.37,102.06,215.46,489.88,Single-ply,SBD,M,
Boys,74.84,7,Kevin Garza,Kyle Lehman,73.03,195.04,113.4,170.1,478.54,Single-ply,SBD,M,
Boys,74.84,8,Colby Johnson,Elgin,72.21,188.24,104.33,181.44,474,Single-ply,SBD,M,
Boys,74.84,9,Ethan Allen,Kyle Lehman,73.48,183.7,111.13,179.17,474,Single-ply,SBD,M,
Boys,74.84,10,Raul Villarreal,Buda Hays,72.57,176.9,113.4,176.9,467.2,Single-ply,SBD,M,
Boys,74.84,11,Jerry Barron,Georgetown East View,69.76,161.03,115.67,167.83,444.52,Single-ply,SBD,M,
Boys,74.84,12,John Wigger,San Marcos,73.57,156.49,102.06,174.63,433.18,Single-ply,SBD,M,
Boys,74.84,13,Ashton Anderson,Luling,73.57,145.15,79.38,154.22,378.75,Single-ply,SBD,M,
Boys,74.84,14,Anthony Alvarado,Jarrell,72.03,127.01,77.11,158.76,362.87,Single-ply,SBD,M,
Boys,74.84,15,Tyler Miller,Austin Lake Travis,70.03,136.08,79.38,142.88,358.34,Single-ply,SBD,M,
Boys,74.84,16,Sebastian Reina,San Marcos,74.57,104.33,79.38,120.2,303.91,Single-ply,SBD,M,
Boys,74.84,17,Damian Flecha,Del Valle,73.57,90.72,61.23,117.93,269.89,Single-ply,SBD,M,
Boys,74.84,DQ,Robert Branch,Lockhart,70.58,156.49,106.59,,,Single-ply,SBD,M,
Boys,74.84,DQ,Roberto Rodriguez,Pflugerville,67.49,156.49,,,,Single-ply,SBD,M,
Boys,74.84,DQ,Romanus Ike,Pflugerville,72.03,113.4,,,,Single-ply,SBD,M,
Boys,82.1,1,Euler de Leon,Geronimo Navarro,82.01,263.08,158.76,263.08,684.92,Single-ply,SBD,M,
Boys,82.1,2,Gavin Collins,Dripping Springs,81.65,235.87,151.95,224.53,612.35,Single-ply,SBD,M,
Boys,82.1,3,Dylan Basham,San Marcos,78.83,222.26,151.95,226.8,601.01,Single-ply,SBD,M,
Boys,82.1,4,Luis Trujillo,Elgin,81.01,204.12,151.95,226.8,582.87,Single-ply,SBD,M,
Boys,82.1,5,Abdias Castillo,Elgin,80.74,215.46,142.88,204.12,562.45,Single-ply,SBD,M,
Boys,82.1,6,Josh Garza,Bastrop Cedar Creek,81.1,222.26,113.4,224.53,560.19,Single-ply,SBD,M,
Boys,82.1,7,Tristan Breitenkamp,Geronimo Navarro,81.56,215.46,131.54,210.92,557.92,Single-ply,SBD,M,
Boys,82.1,8,Johnfree Carden,Buda Hays,82.1,217.72,113.4,226.8,557.92,Single-ply,SBD,M,
Boys,82.1,9,Ethan Thomas,Geronimo Navarro,81.28,204.12,147.42,197.31,548.85,Single-ply,SBD,M,
Boys,82.1,10,Marcus Olivia,Lockhart,75.02,201.85,145.15,199.58,546.58,Single-ply,SBD,M,
Boys,82.1,11,John Leandro,Seguin,80.92,192.78,127.01,226.8,546.58,Single-ply,SBD,M,
Boys,82.1,12,Ruben Jarmillo,Manor,75.02,201.85,113.4,215.46,530.7,Single-ply,SBD,M,
Boys,82.1,13,Aaron Vega,Elgin,81.47,204.12,136.08,183.7,523.9,Single-ply,SBD,M,
Boys,82.1,14,Alex Hires,Pflugerville,81.19,183.7,124.74,210.92,519.36,Single-ply,SBD,M,
Boys,82.1,15,Jabrion White,Manor,78.47,188.24,113.4,188.24,489.88,Single-ply,SBD,M,
Boys,82.1,16,Joseph Duron,Lockhart,76.02,208.65,90.72,183.7,483.08,Single-ply,SBD,M,
Boys,82.1,17,Cesar Hernandez,Lockhart,79.56,181.44,106.59,188.24,476.27,Single-ply,SBD,M,
Boys,82.1,18,Allan Romero,Del Valle,81.1,183.7,102.06,188.24,474,Single-ply,SBD,M,
Boys,82.1,19,Sam Heidler,Buda Hays,78.38,183.7,92.99,190.51,467.2,Single-ply,SBD,M,
Boys,82.1,20,Logan Neef,Dripping Springs,79.38,170.1,102.06,190.51,462.66,Single-ply,SBD,M,
Boys,82.1,21,Miguel Grado,Jarrell,81.37,172.37,86.18,181.44,439.98,Single-ply,SBD,M,
Boys,82.1,22,Anthony Mendez,Del Valle,81.47,147.42,90.72,167.83,405.97,Single-ply,SBD,M,
Boys,82.1,23,Dj Perez,Georgetown East View,80.01,142.88,106.59,154.22,403.7,Single-ply,SBD,M,
Boys,82.1,24,Ethan Robinson,Buda Hays,76.2,147.42,83.91,165.56,396.89,Single-ply,SBD,M,
Boys,82.1,25,Adrian Crumley,Luling,81.65,127.01,92.99,142.88,362.87,Single-ply,SBD,M,
Boys,82.1,26,William Monroe,Del Valle,81.37,120.2,83.91,145.15,349.27,Single-ply,SBD,M,
Boys,82.1,DQ,Chanse Hernandez,Seguin,81.65,,,,,Single-ply,SBD,M,
Boys,82.1,DQ,Jaeden Wendel,Lockhart,77.75,,,,,Single-ply,SBD,M,
Boys,82.1,DQ,David Okoh,Hutto,79.11,154.22,83.91,,,Single-ply,SBD,M,
Boys,82.1,DQ,Aden Ramirez,Pflugerville Connally,75.21,,,,,Single-ply,SBD,M,
Boys,89.81,1,David Reyna,Geronimo Navarro,89.18,260.82,174.63,215.46,650.91,Single-ply,SBD,M,
Boys,89.81,2,Jason Iwabuchi,Buda Hays,84.82,226.8,133.81,229.06,589.67,Single-ply,SBD,M,
Boys,89.81,3,Cris Guzman,Pflugerville,85.91,226.8,136.08,224.53,587.4,Single-ply,SBD,M,
Boys,89.81,4,Thomas Thornburg,Georgetown East View,84.55,229.06,124.74,226.8,580.6,Single-ply,SBD,M,
Boys,89.81,5,Javier Preciado,Hutto,84.28,208.65,142.88,215.46,566.99,Single-ply,SBD,M,
Boys,89.81,6,Jiovonni Thierry-Sayfullah,Jarrell,88.09,163.29,111.13,238.14,512.56,Single-ply,SBD,M,
Boys,89.81,7,Caleb Esparza,Kyle Lehman,89.72,217.72,124.74,201.85,544.31,Single-ply,SBD,M,
Boys,89.81,8,Marco Reyes #3,Kyle Lehman,89.36,219.99,133.81,183.7,537.51,Single-ply,SBD,M,
Boys,89.81,9,Andrew Vargas,Del Valle,85.37,197.31,142.88,188.24,528.44,Single-ply,SBD,M,
Boys,89.81,10,Joshua Arispe,Buda Hays,87.63,197.31,113.4,183.7,494.42,Single-ply,SBD,M,
Boys,89.81,11,Javier Sifuentes,Lockhart,85.73,183.7,106.59,188.24,478.54,Single-ply,SBD,M,
Boys,89.81,12,Xavier Rojas,Austin Lake Travis,88.9,165.56,92.99,183.7,442.25,Single-ply,SBD,M,
Boys,89.81,13,Joseph Laine,Buda Hays,88.27,151.95,90.72,181.44,424.11,Single-ply,SBD,M,
Boys,89.81,14,Kamren Stone,Del Valle,85.82,129.27,108.86,183.7,421.84,Single-ply,SBD,M,
Boys,89.81,15,Thomas Garcia,Lockhart,88.63,147.42,102.06,156.49,405.97,Single-ply,SBD,M,
Boys,89.81,16,Antonio Gomez,Luling,85.28,165.56,95.25,140.61,401.43,Single-ply,SBD,M,
Boys,89.81,17,Isaiah Mendez,Del Valle,89.63,104.33,77.11,113.4,294.84,Single-ply,SBD,M,
Boys,89.81,DQ,Christopher Aguirre,Buda Hays,88.9,,,,,Single-ply,SBD,M,
Boys,89.81,DQ,Brett Butler,Geronimo Navarro,87,,,,,Single-ply,SBD,M,
Boys,89.81,DQ,Vansh Gupta,Pflugerville,87,,,,,Single-ply,SBD,M,
Boys,89.81,DQ,Mark Arnold,Jarrell,86.55,129.27,,,,Single-ply,SBD,M,
Boys,99.79,1,Cole Booker,Geronimo Navarro,99.79,244.94,142.88,251.74,639.57,Single-ply,SBD,M,
Boys,99.79,2,Adam Vineyard,Georgetown East View,99.52,254.01,142.88,240.4,637.3,Single-ply,SBD,M,
Boys,99.79,3,Josiah Luna,Seguin,95.62,226.8,120.2,215.46,562.45,Single-ply,SBD,M,
Boys,99.79,4,Randolph Calvino,San Marcos,99.52,197.31,124.74,206.38,528.44,Single-ply,SBD,M,
Boys,99.79,5,Andrew Segura,Del Valle,90.36,174.63,124.74,183.7,483.08,Single-ply,SBD,M,
Boys,99.79,6,Nathan Rodriguez,Buda Hays,98.25,174.63,113.4,158.76,446.79,Single-ply,SBD,M,
Boys,99.79,7,Parker Smith,Hutto,92.35,174.63,83.91,172.37,430.91,Single-ply,SBD,M,
Boys,99.79,8,Junior Rosas,Del Valle,92.9,142.88,97.52,165.56,405.97,Single-ply,SBD,M,
Boys,99.79,9,Tanner Castillo,Lockhart,97.43,149.69,74.84,151.95,376.48,Single-ply,SBD,M,
Boys,99.79,10,Fisher Felton,Austin Lake Travis,99.16,129.27,102.06,142.88,374.21,Single-ply,SBD,M,
Boys,99.79,11,Derik Rivas,Lockhart,93.53,147.42,83.91,136.08,367.41,Single-ply,SBD,M,
Boys,99.79,12,John Biegel,Austin Lake Travis,96.16,111.13,117.93,102.06,331.12,Single-ply,SBD,M,
Boys,99.79,DQ,Carcello Jones,Del Valle,97.34,192.78,,,,Single-ply,SBD,M,
Boys,99.79,DQ,Avian Veals,Elgin,94.48,199.58,136.08,,,Single-ply,SBD,M,
Boys,99.79,DQ,Tahj Brooks,Manor,98.61,,,,,Single-ply,SBD,M,
Boys,99.79,DQ,Zachary Perez,San Marcos,95.16,233.6,138.35,,,Single-ply,SBD,M,
Boys,99.79,DQ,Millicent Great,Pflugerville Connally,95.89,195.04,,,,Single-ply,SBD,M,
Boys,99.79,DQ,Cirillo Gonzalez,Manor,93.98,238.14,170.1,,,Single-ply,SBD,M,
Boys,109.77,1,Cade Edwards,Bastrop Cedar Creek,108.05,242.67,161.03,235.87,639.57,Single-ply,SBD,M,
Boys,109.77,2,William Rangel,Bastrop Cedar Creek,108.95,276.69,149.69,213.19,639.57,Single-ply,SBD,M,
Boys,109.77,3,Juan Morales,Hutto,105.32,235.87,127.01,222.26,585.13,Single-ply,SBD,M,
Boys,109.77,4,Nate Erickson,Dripping Springs,105.87,226.8,124.74,204.12,555.65,Single-ply,SBD,M,
Boys,109.77,5,Noah de la Torre,Pflugerville,103.96,213.19,113.4,181.44,508.02,Single-ply,SBD,M,
Boys,109.77,6,Rafael Sanatamaria,Luling,100.52,179.17,104.33,181.44,464.93,Single-ply,SBD,M,
Boys,109.77,7,Willford Minor,Manor,101.79,158.76,102.06,204.12,464.93,Single-ply,SBD,M,
Boys,109.77,8,Nick Hanks,Hutto,102.6,172.37,97.52,163.29,433.18,Single-ply,SBD,M,
Boys,109.77,9,Ben Brezinski,Austin Lake Travis,105.51,147.42,115.67,167.83,430.91,Single-ply,SBD,M,
Boys,109.77,10,Austin Martinez,Del Valle,107.59,149.69,102.06,174.63,426.38,Single-ply,SBD,M,
Boys,109.77,11,Josh Mireles,Lockhart,106.78,147.42,81.65,151.95,381.02,Single-ply,SBD,M,
Boys,109.77,12,Jackson Garner,Austin Lake Travis,104.87,136.08,106.59,106.59,349.27,Single-ply,SBD,M,
Boys,109.77,13,Jack Garner,Dripping Springs,101.33,115.67,77.11,154.22,347,Single-ply,SBD,M,
Boys,109.77,DQ,Seth Kirklin,Georgetown East View,106.87,222.26,,,,Single-ply,SBD,M,
Boys,124.74,1,Carlos Renaud,Elgin,119.66,260.82,142.88,249.48,653.17,Single-ply,SBD,M,
Boys,124.74,2,David Sillero,Lockhart,110.59,244.94,172.37,226.8,644.1,Single-ply,SBD,M,
Boys,124.74,3,Cole Smith #2,Georgetown East View,124.74,249.48,140.61,235.87,625.96,Single-ply,SBD,M,
Boys,124.74,4,Ty Thornton,Manor,119.93,233.6,151.95,235.87,621.42,Single-ply,SBD,M,
Boys,124.74,5,John Rebolloso,Elgin,122.02,254.01,154.22,204.12,612.35,Single-ply,SBD,M,
Boys,124.74,6,Jayden Nguyen,Austin Lake Travis,119.57,226.8,136.08,233.6,596.47,Single-ply,SBD,M,
Boys,124.74,7,Ethan Psencik,Smithville,122.83,219.99,142.88,226.8,589.67,Single-ply,SBD,M,
Boys,124.74,8,Branden Knox,Seguin,110.13,231.33,129.27,217.72,578.33,Single-ply,SBD,M,
Boys,124.74,9,Robert Gregg,Smithville,122.74,233.6,138.35,176.9,548.85,Single-ply,SBD,M,
Boys,124.74,10,Kevin Morales,San Marcos,123.1,204.12,115.67,213.19,532.97,Single-ply,SBD,M,
Boys,124.74,11,Nick Bidstrup,Austin Lake Travis,114.21,192.78,149.69,158.76,501.22,Single-ply,SBD,M,
Boys,124.74,12,Xavier Gordon,Del Valle,119.02,181.44,131.54,188.24,501.22,Single-ply,SBD,M,
Boys,124.74,13,Jaeden Elizondo,Lockhart,121.47,195.04,90.72,158.76,444.52,Single-ply,SBD,M,
Boys,124.74,14,Jake Hoffer,Pflugerville,121.47,163.29,133.81,142.88,439.98,Single-ply,SBD,M,
Boys,124.74,15,Isaac Saban,Del Valle,124.51,113.4,88.45,142.88,344.73,Single-ply,SBD,M,
Boys,124.74,16,Alexander Rodman,Elgin,110.86,102.06,63.5,136.08,301.64,Single-ply,SBD,M,
Boys,124.74,DQ,Andrew Sinor,Bastrop Cedar Creek,123.1,226.8,117.93,,,Single-ply,SBD,M,
Boys,124.74,DQ,Alex Funes,Geronimo Navarro,115.85,,,,,Single-ply,SBD,M,
Boys,124.74,DQ,Jorge Lozano,Del Valle,120.84,,,,,Single-ply,SBD,M,
Boys,124.74,DQ,Jordan Moreno,Pflugerville Connally,115.85,204.12,,,,Single-ply,SBD,M,
Boys,124.74+,1,Jordan Hood,Elgin,133.54,326.59,204.12,294.84,825.54,Single-ply,SBD,M,
Boys,124.74+,2,Sergio Hernandez,Geronimo Navarro,157.4,319.78,213.19,258.55,791.52,Single-ply,SBD,M,
Boys,124.74+,3,Carter Holtkamp,Geronimo Navarro,136.44,290.3,183.7,235.87,709.87,Single-ply,SBD,M,
Boys,124.74+,4,Audric Hardaway,Manor,126.46,222.26,142.88,238.14,603.28,Single-ply,SBD,M,
Boys,124.74+,5,Isaiah Arguello,Manor,151.5,238.14,138.35,204.12,580.6,Single-ply,SBD,M,
Boys,124.74+,6,Richard Moya,Lockhart,130.73,226.8,145.15,195.04,566.99,Single-ply,SBD,M,
Boys,124.74+,7,Joe Cantu,Pflugerville,159.3,206.38,151.95,204.12,562.45,Single-ply,SBD,M,
Boys,124.74+,8,Detrick Williams,Hutto,137.71,190.51,136.08,190.51,517.1,Single-ply,SBD,M,
Boys,124.74+,9,Julian Leal,Jarrell,140.25,201.85,131.54,163.29,496.68,Single-ply,SBD,M,
Boys,124.74+,10,Niky Morua,Georgetown East View,126.64,204.12,113.4,170.1,487.61,Single-ply,SBD,M,
Boys,124.74+,11,William Bishop,Austin Lake Travis,134.08,183.7,111.13,172.37,467.2,Single-ply,SBD,M,
Boys,124.74+,12,Reece Kubicek,Austin Lake Travis,141.25,185.97,106.59,167.83,460.4,Single-ply,SBD,M,
Boys,124.74+,13,Jayden Youg,Manor,127.28,170.1,97.52,170.1,437.72,Single-ply,SBD,M,
Boys,124.74+,DQ,Isaiah Samaripa,Lockhart,172,317.51,181.44,,,Single-ply,SBD,M,
Boys,124.74+,DQ,Raul Saucedo,Del Valle,125.55,240.4,149.69,,,Single-ply,SBD,M,
Boys,124.74+,DQ,Jasean Wilson,Pflugerville,157.58,224.53,172.37,,,Single-ply,SBD,M,
