Division,WeightClassKg,Place,Name,Team,BodyweightKg,Best3SquatKg,Best3BenchKg,Best3DeadliftKg,TotalKg,Equipment,Event,Sex,BirthDate
Boys,51.71,1,Ty Kirkbride,Denison,49.08,142.88,72.57,147.42,362.87,Single-ply,SBD,M,
Boys,51.71,2,Payton Cole,Bells,46.18,115.67,65.77,122.47,303.91,Single-ply,SBD,M,
Boys,51.71,3,Jacob Aaron,Bells,51.53,92.99,52.16,108.86,254.01,Single-ply,SBD,M,
Boys,55.79,1,Warren Ruiz-Demaree,Anna,55.34,142.88,88.45,158.76,390.09,Single-ply,SBD,M,
Boys,55.79,2,Armando Carrillo,Bells,55.79,131.54,77.11,151.95,360.61,Single-ply,SBD,M,
Boys,55.79,3,Destin Warr,Callisburg,53.25,131.54,74.84,145.15,351.53,Single-ply,SBD,M,
Boys,55.79,4,Alex Labrada,Whitesboro,53.98,129.27,79.38,142.88,351.53,Single-ply,SBD,M,
Boys,55.79,5,Conner Jacobs,Whitesboro,55.79,131.54,63.5,142.88,337.93,Single-ply,SBD,M,
Boys,55.79,6,Jack Lifsey,Tom Bean,52.44,120.2,61.23,122.47,303.91,Single-ply,SBD,M,
Boys,55.79,7,Justin Bague,Tom Bean,53.89,117.93,61.23,124.74,303.91,Single-ply,SBD,M,
Boys,55.79,8,Brayden Loucks,Krum,54.52,106.59,70.31,124.74,301.64,Single-ply,SBD,M,
Boys,55.79,9,Jacob Fogleman,Whitewright,55.25,92.99,68.04,102.06,263.08,Single-ply,SBD,M,
Boys,59.87,1,Ignacio Salas,Whitesboro,59.87,195.04,113.4,192.78,501.22,Single-ply,SBD,M,
Boys,59.87,2,Carter McFadden,Anna,57.15,185.97,102.06,190.51,478.54,Single-ply,SBD,M,
Boys,59.87,3,Edwin Rodriguez,Pilot Point,59.87,188.24,92.99,190.51,471.74,Single-ply,SBD,M,
Boys,59.87,4,Asher Contreras,Whitesboro,58.88,172.37,86.18,195.04,453.59,Single-ply,SBD,M,
Boys,59.87,5,Schon Nichols,Farmersville,55.97,149.69,88.45,174.63,412.77,Single-ply,SBD,M,
Boys,59.87,6,Keane Ortega,Sadler S & S Cons,59.06,138.35,74.84,181.44,394.63,Single-ply,SBD,M,
Boys,59.87,7,Dj Fogleman,Whitewright,58.51,151.95,95.25,129.27,376.48,Single-ply,SBD,M,
Boys,59.87,8,Brandon Halliburton,Anna,57.97,131.54,88.45,138.35,358.34,Single-ply,SBD,M,
Boys,59.87,9,Joe Carranza,Krum,56.79,136.08,74.84,136.08,347,Single-ply,SBD,M,
Boys,59.87,10,Trevor Martin,Pilot Point,59.06,133.81,61.23,147.42,342.46,Single-ply,SBD,M,
Boys,59.87,DQ,Cade Dudley,Celina,57.61,,,,,Single-ply,SBD,M,
Boys,67.13,1,Mike Acevedo,Anna,65.5,197.31,136.08,183.7,517.1,Single-ply,SBD,M,
Boys,67.13,2,Jacob Tull,Farmersville,66.95,174.63,95.25,181.44,451.32,Single-ply,SBD,M,
Boys,67.13,3,Jerry Cortez,Farmersville,59.96,163.29,99.79,165.56,428.64,Single-ply,SBD,M,
Boys,67.13,4,Anthony Henry,Gainesville,63.68,154.22,102.06,170.1,426.38,Single-ply,SBD,M,
Boys,67.13,5,Tanner Meeks,Celeste,66.41,163.29,95.25,158.76,417.3,Single-ply,SBD,M,
Boys,67.13,6,Grady Waldrip,Bells,67.13,142.88,92.99,165.56,401.43,Single-ply,SBD,M,
Boys,67.13,7,Kolten Pulliam,Blue Ridge,60.51,156.49,83.91,156.49,396.89,Single-ply,SBD,M,
Boys,67.13,8,Alex Sustaita,Gainesville,64.59,151.95,83.91,156.49,392.36,Single-ply,SBD,M,
Boys,67.13,9,Blake Smith,Sadler S & S Cons,63.59,138.35,74.84,170.1,383.29,Single-ply,SBD,M,
Boys,67.13,10,Riley Ziminskas,Celeste,61.23,142.88,79.38,158.76,381.02,Single-ply,SBD,M,
Boys,67.13,11,Ethan Beason,Blue Ridge,65.5,136.08,88.45,136.08,360.61,Single-ply,SBD,M,
Boys,67.13,12,Jackson Wall,Celina,66.5,131.54,74.84,136.08,342.46,Single-ply,SBD,M,
Boys,67.13,13,Caden Flanagan,Callisburg,60.6,129.27,63.5,133.81,326.59,Single-ply,SBD,M,
Boys,67.13,14,Clayton Moore,Callisburg,64.41,117.93,61.23,131.54,310.71,Single-ply,SBD,M,
Boys,67.13,15,Gaberial Dorman,Nevada Community,65.05,120.2,63.5,120.2,303.91,Single-ply,SBD,M,
Boys,67.13,16,Junior Money,Nevada Community,65.86,115.67,56.7,115.67,288.03,Single-ply,SBD,M,
Boys,67.13,17,Caden Edwards,Van Alstyne,66.95,92.99,68.04,95.25,256.28,Single-ply,SBD,M,
Boys,67.13,18,Grant Robinson,Sherman Texoma Christian School,61.69,113.4,49.9,68.04,231.33,Single-ply,SBD,M,
Boys,67.13,DQ,Brandon Wheeler,Pilot Point,66.13,142.88,,,,Single-ply,SBD,M,
Boys,74.84,1,Colby Stinedurf,Farmersville,72.48,235.87,145.15,226.8,607.81,Single-ply,SBD,M,
Boys,74.84,2,Nathan Smith #12,Tioga,72.85,215.46,154.22,190.51,560.19,Single-ply,SBD,M,
Boys,74.84,3,Grayson Blanchard,Celina,73.39,204.12,124.74,210.92,539.77,Single-ply,SBD,M,
Boys,74.84,4,Victor Martinez,Anna,73.75,204.12,113.4,208.65,526.17,Single-ply,SBD,M,
Boys,74.84,5,Gage Moore,Sadler S & S Cons,73.94,192.78,111.13,201.85,505.76,Single-ply,SBD,M,
Boys,74.84,6,Keatyn Eitelman,Pottsboro,69.13,204.12,111.13,188.24,503.49,Single-ply,SBD,M,
Boys,74.84,7,Taylor Kern,Krum,72.94,181.44,136.08,172.37,489.88,Single-ply,SBD,M,
Boys,74.84,8,Eric Clark,Anna,73.39,170.1,97.52,204.12,471.74,Single-ply,SBD,M,
Boys,74.84,9,Joey Baggs,Sadler S & S Cons,70.94,174.63,102.06,188.24,464.93,Single-ply,SBD,M,
Boys,74.84,10,Brett Long,Van Alstyne,71.3,183.7,88.45,181.44,453.59,Single-ply,SBD,M,
Boys,74.84,11,Garyion Hart,Denison,68.04,181.44,90.72,161.03,433.18,Single-ply,SBD,M,
Boys,74.84,12,Waylon Vidler,Celeste,73.84,156.49,111.13,165.56,433.18,Single-ply,SBD,M,
Boys,74.84,13,Harrison Dempsey,Gainesville,73.66,183.7,95.25,147.42,426.38,Single-ply,SBD,M,
Boys,74.84,14,Isaiah Henderson,Celeste,68.67,151.95,83.91,158.76,394.63,Single-ply,SBD,M,
Boys,74.84,15,Shelby Price,Callisburg,72.94,142.88,90.72,161.03,394.63,Single-ply,SBD,M,
Boys,74.84,16,Peyton Jones,Krum,73.3,140.61,88.45,156.49,385.55,Single-ply,SBD,M,
Boys,74.84,17,Collin Branch,Pottsboro,68.31,136.08,88.45,158.76,383.29,Single-ply,SBD,M,
Boys,74.84,18,Hagan York,Whitewright,74.57,145.15,81.65,154.22,381.02,Single-ply,SBD,M,
Boys,74.84,19,Sean Portman,Whitesboro,69.58,124.74,77.11,176.9,378.75,Single-ply,SBD,M,
Boys,74.84,20,Mike Koch,Van Alstyne,69.94,142.88,79.38,142.88,365.14,Single-ply,SBD,M,
Boys,74.84,21,David Roberts,Krum,74.84,117.93,86.18,161.03,365.14,Single-ply,SBD,M,
Boys,74.84,22,Gabe Gibson,Bells,69.76,131.54,81.65,138.35,351.53,Single-ply,SBD,M,
Boys,74.84,23,Cade Whitely,Van Alstyne,73.21,124.74,74.84,142.88,342.46,Single-ply,SBD,M,
Boys,74.84,24,Hunter Sloan,Callisburg,74.57,117.93,65.77,154.22,337.93,Single-ply,SBD,M,
Boys,74.84,25,Darren Riddle,Whitesboro,72.48,124.74,72.57,131.54,328.85,Single-ply,SBD,M,
Boys,74.84,26,Kameron Metzler,Lindsay,74.57,136.08,56.7,92.99,285.76,Single-ply,SBD,M,
Boys,74.84,27,Elijah Bloem,Van Alstyne,71.76,97.52,65.77,115.67,278.96,Single-ply,SBD,M,
Boys,74.84,28,Andrew Burdette,Pottsboro,74.48,70.31,43.09,90.72,204.12,Single-ply,SBD,M,
Boys,74.84,DQ,Curley Brockman,Pilot Point,70.94,165.56,99.79,,,Single-ply,SBD,M,
Boys,74.84,DQ,Kam Cottle,Farmersville,74.57,208.65,,,,Single-ply,SBD,M,
Boys,74.84,DQ,Canyon Payne,Bells,73.75,172.37,83.91,,,Single-ply,SBD,M,
Boys,74.84,DQ,Jake Cook,Krum,74.48,165.56,99.79,,,Single-ply,SBD,M,
Boys,82.1,1,Victor Martinez,Pilot Point,79.38,272.16,158.76,204.12,635.03,Single-ply,SBD,M,
Boys,82.1,2,Rhett Attaway,Farmersville,78.79,219.99,113.4,244.94,578.33,Single-ply,SBD,M,
Boys,82.1,3,Seth Baucum,Callisburg,80.97,206.38,127.01,231.33,564.72,Single-ply,SBD,M,
Boys,82.1,4,Mason Ford,Gainesville,81.01,219.99,142.88,192.78,555.65,Single-ply,SBD,M,
Boys,82.1,5,Robert Singleton,Gainesville,81.37,215.46,111.13,226.8,553.38,Single-ply,SBD,M,
Boys,82.1,6,Jake Taylor,Van Alstyne,80.83,215.46,115.67,208.65,539.77,Single-ply,SBD,M,
Boys,82.1,7,Josue Hernandez,Anna,75.75,201.85,129.27,199.58,530.7,Single-ply,SBD,M,
Boys,82.1,8,Jayce Morgan,Gainesville,80.24,215.46,122.47,183.7,521.63,Single-ply,SBD,M,
Boys,82.1,9,Cole Moore,Bells,81.83,176.9,113.4,188.24,478.54,Single-ply,SBD,M,
Boys,82.1,10,Jake Reynolds,Sadler S & S Cons,80.83,190.51,79.38,172.37,442.25,Single-ply,SBD,M,
Boys,82.1,11,Cogan Grabowski,Farmersville,80.6,165.56,102.06,165.56,433.18,Single-ply,SBD,M,
Boys,82.1,12,Landon Peterson,Krum,75.66,154.22,97.52,154.22,405.97,Single-ply,SBD,M,
Boys,82.1,13,Kyle Morris,Whitewright,74.93,142.88,99.79,149.69,392.36,Single-ply,SBD,M,
Boys,82.1,14,Tyler Fogle,Collinsville,80.29,151.95,86.18,138.35,376.48,Single-ply,SBD,M,
Boys,82.1,15,Charles Burk,Gainesville,75.75,138.35,70.31,165.56,374.21,Single-ply,SBD,M,
Boys,82.1,16,Collin Burns,Whitesboro,78.47,142.88,83.91,140.61,367.41,Single-ply,SBD,M,
Boys,82.1,17,Will Frey,Van Alstyne,75.75,136.08,90.72,122.47,349.27,Single-ply,SBD,M,
Boys,82.1,18,Angel Jimenez,Blue Ridge,82.1,136.08,70.31,140.61,347,Single-ply,SBD,M,
Boys,82.1,19,Rowdy Jeffreys,Callisburg,75.93,95.25,61.23,108.86,265.35,Single-ply,SBD,M,
Boys,82.1,DQ,Jacob Miller,Krum,79.7,172.37,117.93,,,Single-ply,SBD,M,
Boys,89.81,1,Yovanni Juarez,Gainesville,88.99,290.3,208.65,226.8,725.75,Single-ply,SBD,M,
Boys,89.81,2,Dwayne Wilson,Gainesville,82.37,260.82,129.27,219.99,610.08,Single-ply,SBD,M,
Boys,89.81,3,Drayden Lawson,Pilot Point,86.64,226.8,131.54,242.67,601.01,Single-ply,SBD,M,
Boys,89.81,4,Alex Swartz,Krum,88.72,249.48,138.35,213.19,601.01,Single-ply,SBD,M,
Boys,89.81,5,Caden Joyce,Anna,88.54,226.8,133.81,217.72,578.33,Single-ply,SBD,M,
Boys,89.81,6,Trey Cook,Krum,89.63,199.58,124.74,238.14,562.45,Single-ply,SBD,M,
Boys,89.81,7,Luis Hernandez,Collinsville,88.13,197.31,117.93,206.38,521.63,Single-ply,SBD,M,
Boys,89.81,8,Carl Besario,Bells,85.73,206.38,104.33,195.04,505.76,Single-ply,SBD,M,
Boys,89.81,9,Brady Henslee,Celeste,86.32,199.58,113.4,188.24,501.22,Single-ply,SBD,M,
Boys,89.81,10,Kaleb Graham,Tom Bean,84.91,185.97,106.59,204.12,496.68,Single-ply,SBD,M,
Boys,89.81,11,Colton Westbrook,Nevada Community,82.96,181.44,115.67,188.24,485.34,Single-ply,SBD,M,
Boys,89.81,12,Colton Dunn,Celina,88.81,185.97,115.67,176.9,478.54,Single-ply,SBD,M,
Boys,89.81,13,Dalton Stanley,Tioga,89.77,197.31,131.54,142.88,471.74,Single-ply,SBD,M,
Boys,89.81,14,Kasey Sanders,Whitewright,89.18,172.37,113.4,163.29,449.06,Single-ply,SBD,M,
Boys,89.81,15,Logan Yeck,Krum,86.95,158.76,95.25,190.51,444.52,Single-ply,SBD,M,
Boys,89.81,16,Payton Strawn,Valley View,85.5,167.83,117.93,154.22,439.98,Single-ply,SBD,M,
Boys,89.81,17,Conway Smith,Krum,85.77,158.76,92.99,185.97,437.72,Single-ply,SBD,M,
Boys,89.81,18,Kyron Smith,Gainesville,89.49,183.7,90.72,163.29,437.72,Single-ply,SBD,M,
Boys,89.81,19,Ryan Rodriguez,Blue Ridge,85,170.1,97.52,158.76,426.38,Single-ply,SBD,M,
Boys,89.81,20,Jacob Castillo,Whitesboro,85.96,149.69,97.52,174.63,421.84,Single-ply,SBD,M,
Boys,89.81,21,Jaden Hedges,Whitesboro,87.09,149.69,99.79,161.03,410.5,Single-ply,SBD,M,
Boys,89.81,22,Brady Knabe,Collinsville,83.05,161.03,88.45,158.76,408.23,Single-ply,SBD,M,
Boys,89.81,23,Marshall Knowlton,Whitesboro,88.5,158.76,102.06,142.88,403.7,Single-ply,SBD,M,
Boys,89.81,24,Leo Martinez,Tom Bean,86.59,142.88,90.72,163.29,396.89,Single-ply,SBD,M,
Boys,89.81,25,Cooper Carroll,Van Alstyne,89.72,138.35,86.18,147.42,371.95,Single-ply,SBD,M,
Boys,99.79,1,Markos Morales,Whitesboro,91.31,226.8,127.01,247.21,601.01,Single-ply,SBD,M,
Boys,99.79,2,Landon Nelson,Bells,90.08,219.99,122.47,226.8,569.26,Single-ply,SBD,M,
Boys,99.79,3,Brandon Fangman,Pilot Point,99.11,222.26,151.95,183.7,557.92,Single-ply,SBD,M,
Boys,99.79,4,Garrett Kemp,Whitesboro,89.99,217.72,122.47,215.46,555.65,Single-ply,SBD,M,
Boys,99.79,5,Ben Branam,Bells,96.48,208.65,129.27,199.58,537.51,Single-ply,SBD,M,
Boys,99.79,6,David Obamehinti,Nevada Community,93.89,226.8,124.74,170.1,521.63,Single-ply,SBD,M,
Boys,99.79,7,José Pérez,Anna,96.21,185.97,136.08,192.78,514.83,Single-ply,SBD,M,
Boys,99.79,8,Austin Sotelo,Tioga,98.2,199.58,113.4,192.78,505.76,Single-ply,SBD,M,
Boys,99.79,9,Jude Walters,Denison,92.99,183.7,117.93,181.44,483.08,Single-ply,SBD,M,
Boys,99.79,10,Coy Warmoth,Krum,97.52,176.9,113.4,188.24,478.54,Single-ply,SBD,M,
Boys,99.79,11,Cade Bleakney,Nevada Community,91.76,170.1,111.13,190.51,471.74,Single-ply,SBD,M,
Boys,99.79,12,Esteban Hernandez,Collinsville,94.35,165.56,113.4,185.97,464.93,Single-ply,SBD,M,
Boys,99.79,13,Jeremy Chairez,Farmersville,98.84,165.56,102.06,190.51,458.13,Single-ply,SBD,M,
Boys,99.79,14,Jacob Weir,Callisburg,95.62,174.63,97.52,181.44,453.59,Single-ply,SBD,M,
Boys,99.79,15,Jeremiah Velten,Whitesboro,91.81,176.9,88.45,185.97,451.32,Single-ply,SBD,M,
Boys,99.79,16,William Worley,Krum,90.26,167.83,122.47,158.76,449.06,Single-ply,SBD,M,
Boys,99.79,17,Jackson Adkins,Howe,97.89,181.44,117.93,149.69,449.06,Single-ply,SBD,M,
Boys,99.79,18,Jax Gage,Whitewright,92.76,174.63,99.79,161.03,435.45,Single-ply,SBD,M,
Boys,99.79,19,Gerson Flores,Nevada Community,91.04,167.83,97.52,167.83,433.18,Single-ply,SBD,M,
Boys,99.79,20,Caden Cobb,Whitesboro,99.79,163.29,99.79,167.83,430.91,Single-ply,SBD,M,
Boys,99.79,21,Jake Alonzo,Pottsboro,93.03,154.22,106.59,163.29,424.11,Single-ply,SBD,M,
Boys,99.79,22,Conner Markham,Whitesboro,99.02,151.95,92.99,170.1,415.04,Single-ply,SBD,M,
Boys,99.79,23,Levi Copeland,Van Alstyne,97.61,156.49,88.45,149.69,394.63,Single-ply,SBD,M,
Boys,99.79,24,Zane Sun,Van Alstyne,94.44,147.42,102.06,142.88,392.36,Single-ply,SBD,M,
Boys,99.79,25,Nick Loya,Van Alstyne,96.71,161.03,95.25,122.47,378.75,Single-ply,SBD,M,
Boys,99.79,26,Riordan Maloney,Van Alstyne,96.39,147.42,90.72,131.54,369.68,Single-ply,SBD,M,
Boys,99.79,27,Wyatt Langwell,Blue Ridge,92.31,142.88,79.38,129.27,351.53,Single-ply,SBD,M,
Boys,99.79,28,Mario Armenta,Van Alstyne,99.25,127.01,81.65,120.2,328.85,Single-ply,SBD,M,
Boys,109.77,1,Radley Hamm,Whitewright,104.19,260.82,174.63,215.46,650.91,Single-ply,SBD,M,
Boys,109.77,2,Drew Williams,Denison,109.32,272.16,183.7,192.78,648.64,Single-ply,SBD,M,
Boys,109.77,3,Blake Peters,Bells,108.64,254.01,163.29,213.19,630.49,Single-ply,SBD,M,
Boys,109.77,4,Brandon Woods,Whitewright,106.78,238.14,142.88,233.6,614.62,Single-ply,SBD,M,
Boys,109.77,5,Conner Lynch,Pilot Point,108.27,238.14,142.88,217.72,598.74,Single-ply,SBD,M,
Boys,109.77,6,Ben Beggs,Pilot Point,108.32,226.8,129.27,215.46,571.53,Single-ply,SBD,M,
Boys,109.77,7,Isaac Copley,Krum,107.41,238.14,145.15,183.7,566.99,Single-ply,SBD,M,
Boys,109.77,8,Braedon Schneider,Gainesville,108.95,235.87,136.08,192.78,564.72,Single-ply,SBD,M,
Boys,109.77,9,Connor Murdock,Krum,103.96,199.58,122.47,204.12,526.17,Single-ply,SBD,M,
Boys,109.77,10,Colby Crawley,Denison,101.15,183.7,136.08,192.78,512.56,Single-ply,SBD,M,
Boys,109.77,11,Josh Queneau,Nevada Community,104.51,192.78,131.54,183.7,508.02,Single-ply,SBD,M,
Boys,109.77,12,Jackson Younger,Nevada Community,101.15,183.7,122.47,172.37,478.54,Single-ply,SBD,M,
Boys,109.77,13,Luke Jackson,Howe,103.37,183.7,102.06,174.63,460.4,Single-ply,SBD,M,
Boys,109.77,14,Quinton Douglas,Bells,104.6,149.69,95.25,181.44,426.38,Single-ply,SBD,M,
Boys,109.77,15,Jose Sanchez,Pilot Point,105.37,145.15,92.99,183.7,421.84,Single-ply,SBD,M,
Boys,109.77,16,Caden Sinclair,Collinsville,109.77,108.86,90.72,122.47,322.05,Single-ply,SBD,M,
Boys,124.74,1,Jacob Batson,Farmersville,110.77,283.5,151.95,272.16,707.6,Single-ply,SBD,M,
Boys,124.74,2,Michael Reemts,Celina,117.21,272.16,142.88,233.6,648.64,Single-ply,SBD,M,
Boys,124.74,3,Noe Rodriguez,Nevada Community,117.44,263.08,136.08,226.8,625.96,Single-ply,SBD,M,
Boys,124.74,4,Ethan Thomas,Sadler S & S Cons,117.84,224.53,147.42,226.8,598.74,Single-ply,SBD,M,
Boys,124.74,5,Matt Billmeier,Sadler S & S Cons,114.31,197.31,140.61,181.44,519.36,Single-ply,SBD,M,
Boys,124.74,6,Colton Yates,Bells,119.84,183.7,127.01,204.12,514.83,Single-ply,SBD,M,
Boys,124.74,7,Casey Pounds,Lindsay,124.65,190.51,131.54,181.44,503.49,Single-ply,SBD,M,
Boys,124.74,8,Dakota Malena,Farmersville,111.99,170.1,104.33,165.56,439.98,Single-ply,SBD,M,
Boys,124.74,9,Jason Hayes,Sadler S & S Cons,116.8,151.95,113.4,147.42,412.77,Single-ply,SBD,M,
Boys,124.74,10,Morgan Rupert,Whitesboro,113.94,140.61,88.45,149.69,378.75,Single-ply,SBD,M,
Boys,124.74,11,Bryce Byler,Pottsboro,112.72,131.54,88.45,156.49,376.48,Single-ply,SBD,M,
Boys,124.74+,1,Drake Stephens,Bells,152.41,276.69,161.03,229.06,666.78,Single-ply,SBD,M,
Boys,124.74+,2,Johan de la Rosa,Gainesville,127.6,260.82,142.88,233.6,637.3,Single-ply,SBD,M,
Boys,124.74+,3,Addison Crockett,Valley View,130.5,263.08,136.08,226.8,625.96,Single-ply,SBD,M,
Boys,124.74+,4,Colton Mitchell,Denison,127.46,272.16,124.74,219.99,616.89,Single-ply,SBD,M,
Boys,124.74+,5,Gabe Sandoval,Farmersville,140.75,226.8,124.74,226.8,578.33,Single-ply,SBD,M,
Boys,124.74+,6,Gavin Emerson,Gainesville,136.98,240.4,149.69,183.7,573.79,Single-ply,SBD,M,
Boys,124.74+,7,Scotty Straw,Bells,166.6,213.19,140.61,204.12,557.92,Single-ply,SBD,M,
Boys,124.74+,8,Jacob Scott,Pilot Point,154.22,208.65,136.08,199.58,544.31,Single-ply,SBD,M,
Boys,124.74+,9,Ethan Moore,Valley View,145.15,192.78,108.86,190.51,492.15,Single-ply,SBD,M,
Boys,124.74+,10,Gabe Jamison,Krum,130.45,183.7,129.27,172.37,485.34,Single-ply,SBD,M,
Boys,124.74+,11,Marc Anthony Gonzales,Whitewright,128.05,185.97,106.59,174.63,467.2,Single-ply,SBD,M,
Boys,124.74+,12,Wade Graves,Whitesboro,135.03,172.37,127.01,167.83,467.2,Single-ply,SBD,M,
Boys,124.74+,13,Kenny Morris,Pottsboro,143.88,192.78,83.91,185.97,462.66,Single-ply,SBD,M,
Boys,,NS,Riley Fish,Pottsboro,,,,,,Single-ply,SBD,M,
Boys,,NS,Edgar Aguiliar,Sadler S & S Cons,,,,,,Single-ply,SBD,M,
Boys,,NS,Josh Pittner,Sadler S & S Cons,,,,,,Single-ply,SBD,M,
Boys,,NS,Zach Collwell,Sadler S & S Cons,,,,,,Single-ply,SBD,M,
Boys,,NS,Shane Landers,Sadler S & S Cons,,,,,,Single-ply,SBD,M,
Boys,,NS,Asher Reinhard,Howe,,,,,,Single-ply,SBD,M,
Boys,,NS,Raul Hernandez,Howe,,,,,,Single-ply,SBD,M,
Boys,,NS,Dakota Herrington,Howe,,,,,,Single-ply,SBD,M,
Boys,,NS,Mathew Riddles,Whitesboro,,,,,,Single-ply,SBD,M,
Boys,,NS,Issac Bower,Valley View,,,,,,Single-ply,SBD,M,
Boys,,NS,Jackson Blackmon,Lindsay,,,,,,Single-ply,SBD,M,
Boys,,NS,Patrick Burleson,Lindsay,,,,,,Single-ply,SBD,M,
Boys,,NS,Shane Davis,Whitewright,,,,,,Single-ply,SBD,M,
Boys,,NS,Sam Wyatt,Van Alstyne,,,,,,Single-ply,SBD,M,
Boys,,NS,Chauk Bailey,Whitewright,,,,,,Single-ply,SBD,M,
Boys,,NS,Michah Sharpe,Gainesville,,,,,,Single-ply,SBD,M,
Boys,,NS,Jesse Coffey #2,Gainesville,,,,,,Single-ply,SBD,M,
Boys,,NS,Stevie Hooper,Nevada Community,,,,,,Single-ply,SBD,M,
Boys,,NS,Tyler Allen,Nevada Community,,,,,,Single-ply,SBD,M,
