Division,WeightClassKg,Place,Name,Team,BodyweightKg,Best3SquatKg,Best3BenchKg,Best3DeadliftKg,TotalKg,Equipment,Event,Sex
Girls,44.23,1,Shania Dies,Bridge City,44.18,102.06,40.82,113.4,256.28,Single-ply,SBD,F
Girls,44.23,2,Bret King,Hamshire-Fannett,44.18,86.18,40.82,102.06,229.06,Single-ply,SBD,F
Girls,44.23,3,Astrid Inestroza,Cleveland,43.54,70.31,36.29,95.25,201.85,Single-ply,SBD,F
Girls,44.23,4,Karla Miranda,Cleveland,41.37,63.5,29.48,77.11,170.1,Single-ply,SBD,F
Girls,44.23,5,Shaylin McCoy,Sour Lake Hardin-Jefferson,43.54,54.43,31.75,83.91,170.1,Single-ply,SBD,F
Girls,44.23,DQ,Ezra Lovett,Jasper,44,,,,,Single-ply,SBD,F
Girls,47.85,1,Brittany Zwahr,Needville,47.04,90.72,38.56,106.59,235.87,Single-ply,SBD,F
Girls,47.85,2,Briana Tovar,Freeport Brazosport,45.4,81.65,36.29,102.06,219.99,Single-ply,SBD,F
Girls,47.85,3,Mary Higginbotham,Cleveland,46.13,83.91,36.29,99.79,219.99,Single-ply,SBD,F
Girls,47.85,4,Kaylie Sorrel,Bay City,47.22,65.77,34.02,86.18,185.97,Single-ply,SBD,F
Girls,47.85,5,Gracie Martin,Bridge City,46.04,70.31,31.75,79.38,181.44,Single-ply,SBD,F
Girls,47.85,6,Ceideah Walker,Orange Little Cypress-Mauriceville,47.08,54.43,29.48,68.04,151.95,Single-ply,SBD,F
Girls,47.85,DQ,Taylor Ward,West Columbia,47.63,,,,,Single-ply,SBD,F
Girls,47.85,DQ,Madison Williams,Cleveland Tarkington,47.36,,,,,Single-ply,SBD,F
Girls,51.94,1,Savannah Day,Hamshire-Fannett,50.8,113.4,79.38,113.4,306.17,Single-ply,SBD,F
Girls,51.94,2,Pasche Malone,Shepherd,50.26,117.93,40.82,140.61,299.37,Single-ply,SBD,F
Girls,51.94,3,Maggie Garcia,Bridge City,51.35,102.06,40.82,115.67,258.55,Single-ply,SBD,F
Girls,51.94,4,Gabby Murphy,Freeport Brazosport,51.44,97.52,43.09,113.4,254.01,Single-ply,SBD,F
Girls,51.94,5,Haleigh Jack,Needville,49.99,99.79,43.09,90.72,233.6,Single-ply,SBD,F
Girls,51.94,6,Linh Tsan,Orangefield,50.26,83.91,34.02,102.06,219.99,Single-ply,SBD,F
Girls,51.94,7,Celeste Barron,Cleveland,51.66,77.11,36.29,92.99,206.38,Single-ply,SBD,F
Girls,51.94,8,Jessica Price,Cleveland,51.71,61.23,40.82,99.79,201.85,Single-ply,SBD,F
Girls,51.94,9,Alexis Ehrlich,Cleveland Tarkington,49.49,77.11,34.02,88.45,199.58,Single-ply,SBD,F
Girls,51.94,DQ,Katie Vacek,Needville,51.71,,,,,Single-ply,SBD,F
Girls,51.94,DQ,Paige Erigan,Cleveland Tarkington,50.17,,,,,Single-ply,SBD,F
Girls,51.94,DQ,Victoria Cash,Sour Lake Hardin-Jefferson,51.17,,,,,Single-ply,SBD,F
Girls,56.02,1,Olivia Ansley,Shepherd,54.16,140.61,74.84,127.01,342.46,Single-ply,SBD,F
Girls,56.02,2,Madison Taylor,Orangefield,54.43,124.74,61.23,136.08,322.05,Single-ply,SBD,F
Girls,56.02,3,Mercedez Gonzalez,Needville,55.07,115.67,54.43,115.67,285.76,Single-ply,SBD,F
Girls,56.02,4,Bronwyn Culton,Liberty,55.02,113.4,45.36,120.2,278.96,Single-ply,SBD,F
Girls,56.02,5,Aliyah Jack,Needville,54.25,111.13,49.9,102.06,263.08,Single-ply,SBD,F
Girls,56.02,6,Lark Walker,Liberty,55.34,102.06,47.63,102.06,251.74,Single-ply,SBD,F
Girls,56.02,7,Sadie Stone,Bridge City,54.84,79.38,45.36,99.79,224.53,Single-ply,SBD,F
Girls,56.02,8,Cameron Hardt,Sour Lake Hardin-Jefferson,55.7,88.45,40.82,86.18,215.46,Single-ply,SBD,F
Girls,56.02,9,Madalyn Hollingsworth,Cleveland Tarkington,55.02,74.84,43.09,95.25,213.19,Single-ply,SBD,F
Girls,56.02,10,Miranda Godkin,Cleveland Tarkington,53.25,70.31,38.56,95.25,204.12,Single-ply,SBD,F
Girls,56.02,DQ,Madison Slade,Huffman Hargrave,55.38,70.31,52.16,,,Single-ply,SBD,F
Girls,56.02,DQ,Maci Aucoin,West Columbia,54.25,,,,,Single-ply,SBD,F
Girls,60.1,1,Frances Ajaero,Stafford,57.74,127.01,49.9,149.69,326.59,Single-ply,SBD,F
Girls,60.1,2,Abby Courvelle,Shepherd,57.11,131.54,70.31,122.47,324.32,Single-ply,SBD,F
Girls,60.1,3,Steffani Mosier,Shepherd,58.69,129.27,52.16,122.47,303.91,Single-ply,SBD,F
Girls,60.1,4,Brittany Keith,Shepherd,57.52,113.4,54.43,122.47,290.3,Single-ply,SBD,F
Girls,60.1,5,Rosa Navarrete,Freeport Brazosport,59.06,102.06,49.9,124.74,276.69,Single-ply,SBD,F
Girls,60.1,6,Savannah Flores,Needville,56.7,95.25,47.63,106.59,249.48,Single-ply,SBD,F
Girls,60.1,7,Scout Bebee,Silsbee,57.61,97.52,38.56,104.33,240.4,Single-ply,SBD,F
Girls,60.1,8,Alexia Williams,Orange Little Cypress-Mauriceville,59.42,92.99,52.16,90.72,235.87,Single-ply,SBD,F
Girls,60.1,9,Alexis Trichell,Orange Little Cypress-Mauriceville,59.6,83.91,54.43,88.45,226.8,Single-ply,SBD,F
Girls,60.1,DQ,Cassandra Collazo,Bridge City,58.79,,,,,Single-ply,SBD,F
Girls,60.1,DQ,Kaylee Choate,Cleveland,59.83,,,,,Single-ply,SBD,F
Girls,60.1,DQ,Haley Danford,West Columbia,57.38,,,,,Single-ply,SBD,F
Girls,67.36,1,Na'Kyra Darthard,Freeport Brazosport,67.27,131.54,61.23,129.27,322.05,Single-ply,SBD,F
Girls,67.36,2,Lacey Pender,Bridge City,65.68,124.74,52.16,131.54,308.44,Single-ply,SBD,F
Girls,67.36,3,Maighan Beck,Shepherd,66.27,140.61,56.7,111.13,308.44,Single-ply,SBD,F
Girls,67.36,4,Hailey Sebastian,Needville,67,108.86,54.43,102.06,265.35,Single-ply,SBD,F
Girls,67.36,5,Anna Green,Sweeny,64.68,97.52,45.36,120.2,263.08,Single-ply,SBD,F
Girls,67.36,6,Serena Pace,Shepherd,60.55,104.33,54.43,97.52,256.28,Single-ply,SBD,F
Girls,67.36,7,Harmony Hysten,Sweeny,62.1,90.72,47.63,111.13,249.48,Single-ply,SBD,F
Girls,67.36,8,Rebekah Maynor,West Columbia,65.59,95.25,36.29,111.13,242.67,Single-ply,SBD,F
Girls,67.36,9,Emily Lott,Needville,63.91,77.11,43.09,115.67,235.87,Single-ply,SBD,F
Girls,67.36,DQ,E'Laziah Nickerson,West Orange-Stark,64.59,,,,,Single-ply,SBD,F
Girls,67.36,DQ,Brittany Cheves,Shepherd,64.09,,,,,Single-ply,SBD,F
Girls,67.36,DQ,Erieanna Lopez,Shepherd,66.5,,,,,Single-ply,SBD,F
Girls,75.07,1,Mykhala Lewis,Needville,72.35,151.95,70.31,147.42,369.68,Single-ply,SBD,F
Girls,75.07,2,Hallie Brown,Hamshire-Fannett,72.67,145.15,95.25,129.27,369.68,Single-ply,SBD,F
Girls,75.07,3,Meagon Overstreet,Shepherd,68.99,151.95,68.04,145.15,365.14,Single-ply,SBD,F
Girls,75.07,4,Cami Pennington,Shepherd,71.58,156.49,70.31,124.74,351.53,Single-ply,SBD,F
Girls,75.07,5,Sarah Briggs,Sweeny,74.48,117.93,68.04,124.74,310.71,Single-ply,SBD,F
Girls,75.07,6,Ja'chyria Locks,West Orange-Stark,74.39,102.06,49.9,136.08,288.03,Single-ply,SBD,F
Girls,75.07,7,Julia Droll,Orangefield,69.13,108.86,52.16,117.93,278.96,Single-ply,SBD,F
Girls,75.07,8,Katlyn Summers,Hamshire-Fannett,74.84,111.13,54.43,113.4,278.96,Single-ply,SBD,F
Girls,75.07,9,Adicin Morgan,Cleveland Tarkington,73.3,104.33,49.9,115.67,269.89,Single-ply,SBD,F
Girls,75.07,10,Alliyah Galvez,Bay City,72.98,92.99,58.97,113.4,265.35,Single-ply,SBD,F
Girls,75.07,DQ,Autumn Magnuson,Bridge City,71.17,113.4,,,,Single-ply,SBD,F
Girls,75.07,DQ,Kennedy Queen,West Orange-Stark,73.44,,,,,Single-ply,SBD,F
Girls,82.33,1,Carlee Dearing,Bridge City,77.29,140.61,65.77,138.35,344.73,Single-ply,SBD,F
Girls,82.33,2,Sophie Hurley,Hamshire-Fannett,78.7,133.81,61.23,124.74,319.78,Single-ply,SBD,F
Girls,82.33,3,Victoria Allen,Cleveland,75.84,138.35,63.5,115.67,317.51,Single-ply,SBD,F
Girls,82.33,4,Rosa Marroquin,Needville,81.78,127.01,65.77,117.93,310.71,Single-ply,SBD,F
Girls,82.33,5,Kattie Miller,Hamshire-Fannett,82.1,108.86,68.04,127.01,303.91,Single-ply,SBD,F
Girls,82.33,6,Karla Hernandez,Freeport Brazosport,82.1,102.06,49.9,120.2,272.16,Single-ply,SBD,F
Girls,82.33,7,Sarah Bates,Orange Little Cypress-Mauriceville,77.43,83.91,54.43,97.52,235.87,Single-ply,SBD,F
Girls,82.33,8,Mclain Down,Orangefield,76.79,74.84,43.09,88.45,206.38,Single-ply,SBD,F
Girls,82.33,DQ,Jordan Craig,Jasper,76.79,,,,,Single-ply,SBD,F
Girls,82.33,DQ,Lizett Garza,West Columbia,80.69,,,,,Single-ply,SBD,F
Girls,82.33,DQ,Mackenzie Baron,West Columbia,80.74,,,,,Single-ply,SBD,F
Girls,90.04,1,Katelyn Comeaux,Silsbee,87.45,156.49,77.11,131.54,365.14,Single-ply,SBD,F
Girls,90.04,2,Marissa Rodriguez,Bay City,86.82,131.54,63.5,142.88,337.93,Single-ply,SBD,F
Girls,90.04,3,Karla Caudillo,Freeport Brazosport,86.18,117.93,63.5,142.88,324.32,Single-ply,SBD,F
Girls,90.04,4,Alyssa Rogers,Silsbee,86.95,124.74,65.77,127.01,317.51,Single-ply,SBD,F
Girls,90.04,5,Sam Hargrave,Bridge City,87.36,127.01,65.77,120.2,312.98,Single-ply,SBD,F
Girls,90.04,6,Lorelei Irby,Sweeny,83.46,115.67,63.5,120.2,299.37,Single-ply,SBD,F
Girls,90.04,7,Autumn Davis,Hamshire-Fannett,84.55,108.86,49.9,113.4,272.16,Single-ply,SBD,F
Girls,90.04,8,Ashlon Williams,Sweeny,85.05,83.91,40.82,120.2,244.94,Single-ply,SBD,F
Girls,90.04,9,Tyra Patterson,Sweeny,89.36,90.72,47.63,97.52,235.87,Single-ply,SBD,F
Girls,90.04,DQ,Terika Beatty,Jasper,87.91,,,,,Single-ply,SBD,F
Girls,90.04,DQ,Kimber Ellender,Bridge City,87.91,113.4,,,,Single-ply,SBD,F
Girls,90.04,DQ,Ke'Brianna Malone,Sour Lake Hardin-Jefferson,83.87,,,,,Single-ply,SBD,F
Girls,100.02,1,Savannah Davey,Needville,97.34,161.03,79.38,122.47,362.87,Single-ply,SBD,F
Girls,100.02,2,Latavia Thomas,Freeport Brazosport,96.66,122.47,77.11,154.22,353.8,Single-ply,SBD,F
Girls,100.02,3,Victoria Martinez #4,Freeport Brazosport,98.38,124.74,97.52,129.27,351.53,Single-ply,SBD,F
Girls,100.02,4,Denisha Dodis,Silsbee,96.75,136.08,54.43,140.61,331.12,Single-ply,SBD,F
Girls,100.02,5,Areli Mendez,Sweeny,90.63,138.35,61.23,129.27,328.85,Single-ply,SBD,F
Girls,100.02,6,A'Tiere Aniey Simpson,Silsbee,96.89,117.93,72.57,117.93,308.44,Single-ply,SBD,F
Girls,100.02,7,Madison Mirelez,Bay City,95.21,83.91,61.23,90.72,235.87,Single-ply,SBD,F
Girls,100.02,8,Jennifer Vincencio,Sweeny,98.75,79.38,31.75,83.91,195.04,Single-ply,SBD,F
Girls,100.02,DQ,Ashlyn Moore,Sweeny,98.2,95.25,,,,Single-ply,SBD,F
Girls,100.02,DQ,Gracie Kersten,West Columbia,94.48,,,,,Single-ply,SBD,F
Girls,100.02,DQ,Hannah McCullough,Sour Lake Hardin-Jefferson,98.88,,,,,Single-ply,SBD,F
Girls,100.02,DQ,Paige Brinkman,Hamshire-Fannett,97.43,,,,,Single-ply,SBD,F
Girls,117.71,1,Kenya Jeffcoat,Shepherd,110.4,136.08,74.84,147.42,358.34,Single-ply,SBD,F
Girls,117.71,2,Janal Robertson,Cleveland,116.57,136.08,63.5,142.88,342.46,Single-ply,SBD,F
Girls,117.71,3,Mariah Bunfill,Liberty,100.24,129.27,54.43,127.01,310.71,Single-ply,SBD,F
Girls,117.71,4,Ryann Brown,Stafford,101.6,97.52,47.63,124.74,269.89,Single-ply,SBD,F
Girls,117.71,5,Lana Jeffcoat,Sour Lake Hardin-Jefferson,114.49,113.4,43.09,106.59,263.08,Single-ply,SBD,F
Girls,117.71,6,Katelyn Kneis,Freeport Brazosport,114.94,104.33,49.9,108.86,263.08,Single-ply,SBD,F
Girls,117.71,DQ,Tayler Bennetson,Wharton,117.48,,,,,Single-ply,SBD,F
Girls,117.71,DQ,Kelsey Dyson,Orange Little Cypress-Mauriceville,115.21,115.67,,,,Single-ply,SBD,F
Girls,117.71,DQ,Breanna Drummond,Liberty,110.4,,,,,Single-ply,SBD,F
Girls,117.71,DQ,Shyane Parker,Cleveland Tarkington,108.5,77.11,43.09,,,Single-ply,SBD,F
Girls,117.71,DQ,Chloe LeJeune,Bridge City,100.06,,,,,Single-ply,SBD,F
Girls,117.71+,1,Jordyn Bustillos,Freeport Brazosport,119.2,165.56,83.91,156.49,405.97,Single-ply,SBD,F
Girls,117.71+,2,Hannah Hill,Liberty,121.38,145.15,65.77,140.61,351.53,Single-ply,SBD,F
Girls,117.71+,3,Zyneria Haamid,Cleveland,152.5,136.08,74.84,131.54,342.46,Single-ply,SBD,F
Girls,117.71+,4,Breanna Dyson,Orange Little Cypress-Mauriceville,141.07,117.93,70.31,113.4,301.64,Single-ply,SBD,F
